
% frame   0
% time 0.0000
% report aster:force
%    class  identity      posX      posY    forceX    forceY    torque
         1         1    5.0000    0.0000    0.0005   -0.0001   -0.0014
% end

% frame   1
% time 0.1000
% report aster:force
%    class  identity      posX      posY    forceX    forceY    torque
         1         1    4.0032   -0.0018    2.2178    0.6383   -0.6313
% end

% frame   2
% time 0.2000
% report aster:force
%    class  identity      posX      posY    forceX    forceY    torque
         1         1    4.0000   -0.0053   -0.4385   -1.3754   -0.4488
% end

% frame   3
% time 0.3000
% report aster:force
%    class  identity      posX      posY    forceX    forceY    torque
         1         1    4.0000    0.0024   -0.9961    0.7597    0.2040
% end

% frame   4
% time 0.4000
% report aster:force
%    class  identity      posX      posY    forceX    forceY    torque
         1         1    3.9952   -0.0041   -1.5933   -1.3975    0.0917
% end

% frame   5
% time 0.5000
% report aster:force
%    class  identity      posX      posY    forceX    forceY    torque
         1         1    3.9971    0.0025    0.1884    1.3541   -0.5344
% end

% frame   6
% time 0.6000
% report aster:force
%    class  identity      posX      posY    forceX    forceY    torque
         1         1    3.9985   -0.0010    0.1818   -0.9278    0.0024
% end

% frame   7
% time 0.7000
% report aster:force
%    class  identity      posX      posY    forceX    forceY    torque
         1         1    4.0003   -0.0002   -1.1088    0.6318    0.1638
% end

% frame   8
% time 0.8000
% report aster:force
%    class  identity      posX      posY    forceX    forceY    torque
         1         1    4.0046    0.0008    1.1216    0.2537    0.2957
% end

% frame   9
% time 0.9000
% report aster:force
%    class  identity      posX      posY    forceX    forceY    torque
         1         1    3.9990    0.0012    0.0273    0.6576   -0.4022
% end

% frame   10
% time 1.0000
% report aster:force
%    class  identity      posX      posY    forceX    forceY    torque
         1         1    4.0014    0.0005    0.5207    0.2944   -0.3305
% end

% frame   11
% time 1.1000
% report aster:force
%    class  identity      posX      posY    forceX    forceY    torque
         1         1    3.9979    0.0023   -1.3637    0.9501   -0.1986
% end

% frame   12
% time 1.2000
% report aster:force
%    class  identity      posX      posY    forceX    forceY    torque
         1         1    4.0018    0.0028    0.9415   -0.1007   -0.0503
% end

% frame   13
% time 1.3000
% report aster:force
%    class  identity      posX      posY    forceX    forceY    torque
         1         1    4.0017    0.0029    1.5118    2.0095    0.2757
% end

% frame   14
% time 1.4000
% report aster:force
%    class  identity      posX      posY    forceX    forceY    torque
         1         1    4.0048   -0.0046    3.0154   -2.7621   -0.1476
% end

% frame   15
% time 1.5000
% report aster:force
%    class  identity      posX      posY    forceX    forceY    torque
         1         1    3.9975   -0.0028   -0.7722    0.4915   -0.0377
% end

% frame   16
% time 1.6000
% report aster:force
%    class  identity      posX      posY    forceX    forceY    torque
         1         1    3.9977    0.0033   -1.3662    0.4518    0.2803
% end

% frame   17
% time 1.7000
% report aster:force
%    class  identity      posX      posY    forceX    forceY    torque
         1         1    3.9983    0.0034   -2.3180   -0.3459    0.6811
% end

% frame   18
% time 1.8000
% report aster:force
%    class  identity      posX      posY    forceX    forceY    torque
         1         1    3.9938    0.0060   -3.1217    1.8035    0.2072
% end

% frame   19
% time 1.9000
% report aster:force
%    class  identity      posX      posY    forceX    forceY    torque
         1         1    4.0015   -0.0045    0.9802   -2.7679   -0.0660
% end

% frame   20
% time 2.0000
% report aster:force
%    class  identity      posX      posY    forceX    forceY    torque
         1         1    4.0011   -0.0015    0.3210    0.2693   -0.0644
% end

% frame   21
% time 2.1000
% report aster:force
%    class  identity      posX      posY    forceX    forceY    torque
         1         1    3.9983   -0.0021   -0.6718   -0.4120   -0.0937
% end

% frame   22
% time 2.2000
% report aster:force
%    class  identity      posX      posY    forceX    forceY    torque
         1         1    4.0027   -0.0050    0.0281   -1.4172   -0.0610
% end

% frame   23
% time 2.3000
% report aster:force
%    class  identity      posX      posY    forceX    forceY    torque
         1         1    3.9989   -0.0020   -0.5803   -0.4834    0.4597
% end

% frame   24
% time 2.4000
% report aster:force
%    class  identity      posX      posY    forceX    forceY    torque
         1         1    4.0005    0.0018    0.3980   -0.0226    0.3605
% end

% frame   25
% time 2.5000
% report aster:force
%    class  identity      posX      posY    forceX    forceY    torque
         1         1    3.9995   -0.0005    1.0566   -0.4061   -0.0473
% end

% frame   26
% time 2.6000
% report aster:force
%    class  identity      posX      posY    forceX    forceY    torque
         1         1    3.9999   -0.0013   -1.4308   -0.0415    0.0608
% end

% frame   27
% time 2.7000
% report aster:force
%    class  identity      posX      posY    forceX    forceY    torque
         1         1    4.0014    0.0027    1.0811    0.6696    0.5100
% end

% frame   28
% time 2.8000
% report aster:force
%    class  identity      posX      posY    forceX    forceY    torque
         1         1    4.0030   -0.0050    0.9290   -2.5388    0.8584
% end

% frame   29
% time 2.9000
% report aster:force
%    class  identity      posX      posY    forceX    forceY    torque
         1         1    4.0008    0.0053    1.1507    1.7268   -0.1434
% end

% frame   30
% time 3.0000
% report aster:force
%    class  identity      posX      posY    forceX    forceY    torque
         1         1    4.0023    0.0014    0.6053    1.8798    0.2148
% end

% frame   31
% time 3.1000
% report aster:force
%    class  identity      posX      posY    forceX    forceY    torque
         1         1    4.0041   -0.0057    1.7711   -1.6692    0.0277
% end

% frame   32
% time 3.2000
% report aster:force
%    class  identity      posX      posY    forceX    forceY    torque
         1         1    3.9950    0.0003   -1.9061   -0.7438   -0.0528
% end

% frame   33
% time 3.3000
% report aster:force
%    class  identity      posX      posY    forceX    forceY    torque
         1         1    4.0035   -0.0001    0.7151    0.6583   -0.4158
% end

% frame   34
% time 3.4000
% report aster:force
%    class  identity      posX      posY    forceX    forceY    torque
         1         1    3.9982   -0.0016   -1.4246   -0.9054    0.2322
% end

% frame   35
% time 3.5000
% report aster:force
%    class  identity      posX      posY    forceX    forceY    torque
         1         1    3.9997    0.0049    0.5347    1.1035    0.0267
% end

% frame   36
% time 3.6000
% report aster:force
%    class  identity      posX      posY    forceX    forceY    torque
         1         1    4.0027   -0.0022    1.2580   -0.1630    0.3227
% end

% frame   37
% time 3.7000
% report aster:force
%    class  identity      posX      posY    forceX    forceY    torque
         1         1    4.0019    0.0018    0.3269    0.5784   -0.1009
% end

% frame   38
% time 3.8000
% report aster:force
%    class  identity      posX      posY    forceX    forceY    torque
         1         1    4.0023    0.0035    0.9092    1.7810   -0.1219
% end

% frame   39
% time 3.9000
% report aster:force
%    class  identity      posX      posY    forceX    forceY    torque
         1         1    3.9977   -0.0024    0.1742   -1.0985   -0.4150
% end

% frame   40
% time 4.0000
% report aster:force
%    class  identity      posX      posY    forceX    forceY    torque
         1         1    3.9973   -0.0026   -0.0922   -0.3010   -1.0775
% end

% frame   41
% time 4.1000
% report aster:force
%    class  identity      posX      posY    forceX    forceY    torque
         1         1    4.0026    0.0014    2.2913    0.7344   -0.2440
% end

% frame   42
% time 4.2000
% report aster:force
%    class  identity      posX      posY    forceX    forceY    torque
         1         1    4.0015   -0.0011    0.5990   -0.7364   -0.1242
% end

% frame   43
% time 4.3000
% report aster:force
%    class  identity      posX      posY    forceX    forceY    torque
         1         1    4.0021   -0.0044    0.7707   -3.4222    0.1324
% end

% frame   44
% time 4.4000
% report aster:force
%    class  identity      posX      posY    forceX    forceY    torque
         1         1    4.0010    0.0004    1.3797    1.1290   -0.0568
% end

% frame   45
% time 4.5000
% report aster:force
%    class  identity      posX      posY    forceX    forceY    torque
         1         1    3.9994   -0.0005   -0.0857    0.1408   -0.3862
% end

% frame   46
% time 4.6000
% report aster:force
%    class  identity      posX      posY    forceX    forceY    torque
         1         1    3.9967    0.0001   -2.6549    1.7324   -0.2515
% end

% frame   47
% time 4.7000
% report aster:force
%    class  identity      posX      posY    forceX    forceY    torque
         1         1    4.0040    0.0002    2.1404    0.2053   -0.1270
% end

% frame   48
% time 4.8000
% report aster:force
%    class  identity      posX      posY    forceX    forceY    torque
         1         1    4.0045   -0.0011    3.8703   -0.2945   -0.7142
% end

% frame   49
% time 4.9000
% report aster:force
%    class  identity      posX      posY    forceX    forceY    torque
         1         1    3.9968    0.0004    0.6277   -0.2022   -0.4714
% end

% frame   50
% time 5.0000
% report aster:force
%    class  identity      posX      posY    forceX    forceY    torque
         1         1    3.9998    0.0004    0.2601    0.2542   -0.3526
% end

% frame   51
% time 5.1000
% report aster:force
%    class  identity      posX      posY    forceX    forceY    torque
         1         1    4.0015    0.0006    0.8895    0.9998    0.1686
% end

% frame   52
% time 5.2000
% report aster:force
%    class  identity      posX      posY    forceX    forceY    torque
         1         1    4.0016   -0.0028    1.8255   -2.4169    0.0237
% end

% frame   53
% time 5.3000
% report aster:force
%    class  identity      posX      posY    forceX    forceY    torque
         1         1    3.9996    0.0016   -1.2449    0.3640    0.2741
% end

% frame   54
% time 5.4000
% report aster:force
%    class  identity      posX      posY    forceX    forceY    torque
         1         1    4.0022   -0.0013    3.0251   -1.1369   -0.4252
% end

% frame   55
% time 5.5000
% report aster:force
%    class  identity      posX      posY    forceX    forceY    torque
         1         1    4.0024   -0.0016    1.2471   -0.3474   -0.1521
% end

% frame   56
% time 5.6000
% report aster:force
%    class  identity      posX      posY    forceX    forceY    torque
         1         1    3.9951   -0.0041   -1.8722   -1.0943    0.4461
% end

% frame   57
% time 5.7000
% report aster:force
%    class  identity      posX      posY    forceX    forceY    torque
         1         1    4.0015   -0.0005    1.2432   -0.0596    0.1560
% end

% frame   58
% time 5.8000
% report aster:force
%    class  identity      posX      posY    forceX    forceY    torque
         1         1    3.9985    0.0030   -1.9256    1.2257    0.2051
% end

% frame   59
% time 5.9000
% report aster:force
%    class  identity      posX      posY    forceX    forceY    torque
         1         1    3.9983    0.0009   -1.1421    1.3557    0.3152
% end

% frame   60
% time 6.0000
% report aster:force
%    class  identity      posX      posY    forceX    forceY    torque
         1         1    4.0020    0.0039    0.8013    2.2196    0.7098
% end

% frame   61
% time 6.1000
% report aster:force
%    class  identity      posX      posY    forceX    forceY    torque
         1         1    4.0041    0.0016    1.9825   -0.3070   -0.1605
% end

% frame   62
% time 6.2000
% report aster:force
%    class  identity      posX      posY    forceX    forceY    torque
         1         1    4.0040   -0.0042    0.2437   -1.9140    0.2657
% end

% frame   63
% time 6.3000
% report aster:force
%    class  identity      posX      posY    forceX    forceY    torque
         1         1    4.0008   -0.0001    1.7081    0.0454   -0.4416
% end

% frame   64
% time 6.4000
% report aster:force
%    class  identity      posX      posY    forceX    forceY    torque
         1         1    3.9993    0.0069   -2.0283    2.9064    0.1202
% end

% frame   65
% time 6.5000
% report aster:force
%    class  identity      posX      posY    forceX    forceY    torque
         1         1    3.9978    0.0065   -1.7185    1.7331    0.7888
% end

% frame   66
% time 6.6000
% report aster:force
%    class  identity      posX      posY    forceX    forceY    torque
         1         1    3.9965   -0.0009   -1.9834   -0.6460    0.4689
% end

% frame   67
% time 6.7000
% report aster:force
%    class  identity      posX      posY    forceX    forceY    torque
         1         1    4.0017    0.0022    2.0667    1.3144   -0.6238
% end

% frame   68
% time 6.8000
% report aster:force
%    class  identity      posX      posY    forceX    forceY    torque
         1         1    4.0027   -0.0020    1.5875   -1.2938   -0.0820
% end

% frame   69
% time 6.9000
% report aster:force
%    class  identity      posX      posY    forceX    forceY    torque
         1         1    4.0018   -0.0005    1.0024   -0.3161    0.2649
% end

% frame   70
% time 7.0000
% report aster:force
%    class  identity      posX      posY    forceX    forceY    torque
         1         1    3.9972   -0.0031   -0.5747   -0.2765   -0.1878
% end

% frame   71
% time 7.1000
% report aster:force
%    class  identity      posX      posY    forceX    forceY    torque
         1         1    4.0029    0.0016    2.7570    1.1274   -0.1337
% end

% frame   72
% time 7.2000
% report aster:force
%    class  identity      posX      posY    forceX    forceY    torque
         1         1    3.9976   -0.0006   -0.1350    0.1836   -0.5974
% end

% frame   73
% time 7.3000
% report aster:force
%    class  identity      posX      posY    forceX    forceY    torque
         1         1    4.0018    0.0036   -0.2715    2.0395   -0.0281
% end

% frame   74
% time 7.4000
% report aster:force
%    class  identity      posX      posY    forceX    forceY    torque
         1         1    3.9978   -0.0012    0.1922    0.9475   -0.0768
% end

% frame   75
% time 7.5000
% report aster:force
%    class  identity      posX      posY    forceX    forceY    torque
         1         1    3.9996    0.0017    1.9236    1.0305   -0.2830
% end

% frame   76
% time 7.6000
% report aster:force
%    class  identity      posX      posY    forceX    forceY    torque
         1         1    4.0015   -0.0002    0.1200    0.7844    0.0655
% end

% frame   77
% time 7.7000
% report aster:force
%    class  identity      posX      posY    forceX    forceY    torque
         1         1    4.0052   -0.0025    3.2897   -2.1471   -0.8786
% end

% frame   78
% time 7.8000
% report aster:force
%    class  identity      posX      posY    forceX    forceY    torque
         1         1    3.9995   -0.0020   -1.3568    0.7828    0.3383
% end

% frame   79
% time 7.9000
% report aster:force
%    class  identity      posX      posY    forceX    forceY    torque
         1         1    4.0025    0.0023    2.2125    0.3568   -0.2969
% end

% frame   80
% time 8.0000
% report aster:force
%    class  identity      posX      posY    forceX    forceY    torque
         1         1    4.0012   -0.0012    0.8346    1.8948   -0.0817
% end

% frame   81
% time 8.1000
% report aster:force
%    class  identity      posX      posY    forceX    forceY    torque
         1         1    4.0005   -0.0036    0.7710   -0.9494   -0.5017
% end

% frame   82
% time 8.2000
% report aster:force
%    class  identity      posX      posY    forceX    forceY    torque
         1         1    3.9977    0.0045   -1.3613    2.4622   -0.1755
% end

% frame   83
% time 8.3000
% report aster:force
%    class  identity      posX      posY    forceX    forceY    torque
         1         1    4.0017    0.0028    1.3719    1.3841   -0.2248
% end

% frame   84
% time 8.4000
% report aster:force
%    class  identity      posX      posY    forceX    forceY    torque
         1         1    4.0011    0.0035    0.3537    0.5478   -0.0917
% end

% frame   85
% time 8.5000
% report aster:force
%    class  identity      posX      posY    forceX    forceY    torque
         1         1    3.9999   -0.0047   -0.8736   -2.1273   -0.4189
% end

% frame   86
% time 8.6000
% report aster:force
%    class  identity      posX      posY    forceX    forceY    torque
         1         1    3.9957    0.0001   -0.9869   -0.0020    0.2925
% end

% frame   87
% time 8.7000
% report aster:force
%    class  identity      posX      posY    forceX    forceY    torque
         1         1    3.9992    0.0054   -1.3275    2.5758    0.4763
% end

% frame   88
% time 8.8000
% report aster:force
%    class  identity      posX      posY    forceX    forceY    torque
         1         1    4.0006   -0.0023    0.8762   -1.0577   -0.2004
% end

% frame   89
% time 8.9000
% report aster:force
%    class  identity      posX      posY    forceX    forceY    torque
         1         1    4.0049   -0.0001    1.8159    0.3745    0.7517
% end

% frame   90
% time 9.0000
% report aster:force
%    class  identity      posX      posY    forceX    forceY    torque
         1         1    3.9997    0.0003    1.3634    0.4956    0.0083
% end

% frame   91
% time 9.1000
% report aster:force
%    class  identity      posX      posY    forceX    forceY    torque
         1         1    3.9995   -0.0002   -0.3456   -1.6492    0.1480
% end

% frame   92
% time 9.2000
% report aster:force
%    class  identity      posX      posY    forceX    forceY    torque
         1         1    4.0030   -0.0004    0.4646    1.3707    0.2454
% end

% frame   93
% time 9.3000
% report aster:force
%    class  identity      posX      posY    forceX    forceY    torque
         1         1    4.0037   -0.0033    2.6944   -2.2267   -0.4192
% end

% frame   94
% time 9.4000
% report aster:force
%    class  identity      posX      posY    forceX    forceY    torque
         1         1    4.0039   -0.0034    0.6322   -2.3899    0.4489
% end

% frame   95
% time 9.5000
% report aster:force
%    class  identity      posX      posY    forceX    forceY    torque
         1         1    3.9982   -0.0030    0.3125   -1.4264    0.0290
% end

% frame   96
% time 9.6000
% report aster:force
%    class  identity      posX      posY    forceX    forceY    torque
         1         1    4.0022    0.0026    0.6769    1.3366    0.2907
% end

% frame   97
% time 9.7000
% report aster:force
%    class  identity      posX      posY    forceX    forceY    torque
         1         1    4.0019   -0.0004    1.2533   -0.9613    0.0858
% end

% frame   98
% time 9.8000
% report aster:force
%    class  identity      posX      posY    forceX    forceY    torque
         1         1    3.9958   -0.0004   -1.3826   -0.5543   -0.0675
% end

% frame   99
% time 9.9000
% report aster:force
%    class  identity      posX      posY    forceX    forceY    torque
         1         1    4.0011   -0.0013    1.4646    0.9305   -0.0847
% end

% frame   100
% time 10.0000
% report aster:force
%    class  identity      posX      posY    forceX    forceY    torque
         1         1    3.9968    0.0008   -1.1389    1.9706   -0.4418
% end

% frame   101
% time 10.1000
% report aster:force
%    class  identity      posX      posY    forceX    forceY    torque
         1         1    3.9969   -0.0003   -2.7584   -1.0787    0.5672
% end

% frame   102
% time 10.2000
% report aster:force
%    class  identity      posX      posY    forceX    forceY    torque
         1         1    3.9975   -0.0013   -1.3666   -0.3410   -0.1686
% end

% frame   103
% time 10.3000
% report aster:force
%    class  identity      posX      posY    forceX    forceY    torque
         1         1    4.0002    0.0015   -1.0416    0.7740    0.2954
% end

% frame   104
% time 10.4000
% report aster:force
%    class  identity      posX      posY    forceX    forceY    torque
         1         1    3.9969   -0.0017   -1.9950   -0.9208   -0.1939
% end

% frame   105
% time 10.5000
% report aster:force
%    class  identity      posX      posY    forceX    forceY    torque
         1         1    3.9911   -0.0036   -5.5449   -0.0978    0.3702
% end

% frame   106
% time 10.6000
% report aster:force
%    class  identity      posX      posY    forceX    forceY    torque
         1         1    3.9858    0.0027   -6.0688    1.5253    0.3496
% end

% frame   107
% time 10.7000
% report aster:force
%    class  identity      posX      posY    forceX    forceY    torque
         1         1    3.9844    0.0024   -8.4693    1.1209   -0.2057
% end

% frame   108
% time 10.8000
% report aster:force
%    class  identity      posX      posY    forceX    forceY    torque
         1         1    3.9876   -0.0000   -6.7964    0.5213   -0.1927
% end

% frame   109
% time 10.9000
% report aster:force
%    class  identity      posX      posY    forceX    forceY    torque
         1         1    3.9815   -0.0002   -8.9470    0.7080    0.0317
% end

% frame   110
% time 11.0000
% report aster:force
%    class  identity      posX      posY    forceX    forceY    torque
         1         1    3.9816   -0.0013   -9.8539    0.5245   -0.2039
% end

% frame   111
% time 11.1000
% report aster:force
%    class  identity      posX      posY    forceX    forceY    torque
         1         1    3.9824   -0.0019   -9.0841   -0.5193    0.2949
% end

% frame   112
% time 11.2000
% report aster:force
%    class  identity      posX      posY    forceX    forceY    torque
         1         1    3.9818    0.0007   -8.9878   -0.0836    0.1300
% end

% frame   113
% time 11.3000
% report aster:force
%    class  identity      posX      posY    forceX    forceY    torque
         1         1    3.9817   -0.0015   -8.3495   -1.6935   -0.2862
% end

% frame   114
% time 11.4000
% report aster:force
%    class  identity      posX      posY    forceX    forceY    torque
         1         1    3.9863   -0.0038   -7.1847   -2.1389    0.2891
% end

% frame   115
% time 11.5000
% report aster:force
%    class  identity      posX      posY    forceX    forceY    torque
         1         1    3.9895    0.0005   -5.7952   -0.6771    0.3437
% end

% frame   116
% time 11.6000
% report aster:force
%    class  identity      posX      posY    forceX    forceY    torque
         1         1    3.9887    0.0014   -5.9163   -0.3104   -0.4742
% end

% frame   117
% time 11.7000
% report aster:force
%    class  identity      posX      posY    forceX    forceY    torque
         1         1    3.9827   -0.0001   -9.4033    0.5071   -0.2305
% end

% frame   118
% time 11.8000
% report aster:force
%    class  identity      posX      posY    forceX    forceY    torque
         1         1    3.9909   -0.0032   -6.3436   -0.8908    0.9020
% end

% frame   119
% time 11.9000
% report aster:force
%    class  identity      posX      posY    forceX    forceY    torque
         1         1    3.9852    0.0029   -6.9871    1.9388    0.1017
% end

% frame   120
% time 12.0000
% report aster:force
%    class  identity      posX      posY    forceX    forceY    torque
         1         1    3.9853    0.0038   -8.3417    2.6866    0.3149
% end

% frame   121
% time 12.1000
% report aster:force
%    class  identity      posX      posY    forceX    forceY    torque
         1         1    3.9832    0.0050   -9.4804    2.5504    0.4906
% end

% frame   122
% time 12.2000
% report aster:force
%    class  identity      posX      posY    forceX    forceY    torque
         1         1    3.9862    0.0055   -6.0985    3.9038    0.1667
% end

% frame   123
% time 12.3000
% report aster:force
%    class  identity      posX      posY    forceX    forceY    torque
         1         1    3.9878    0.0001   -5.4951    1.7388   -0.5164
% end

% frame   124
% time 12.4000
% report aster:force
%    class  identity      posX      posY    forceX    forceY    torque
         1         1    3.9852   -0.0006   -5.8206   -0.5198   -0.1747
% end

% frame   125
% time 12.5000
% report aster:force
%    class  identity      posX      posY    forceX    forceY    torque
         1         1    3.9863    0.0026   -5.3663    1.4406   -0.6918
% end

% frame   126
% time 12.6000
% report aster:force
%    class  identity      posX      posY    forceX    forceY    torque
         1         1    3.9861    0.0028   -5.4542    0.5187    0.0511
% end

% frame   127
% time 12.7000
% report aster:force
%    class  identity      posX      posY    forceX    forceY    torque
         1         1    3.9847    0.0065   -6.9699    3.1176   -0.3360
% end

% frame   128
% time 12.8000
% report aster:force
%    class  identity      posX      posY    forceX    forceY    torque
         1         1    3.9873    0.0047   -5.1355    2.4234   -0.1966
% end

% frame   129
% time 12.9000
% report aster:force
%    class  identity      posX      posY    forceX    forceY    torque
         1         1    3.9913    0.0004   -4.2946    1.6980   -0.1300
% end

% frame   130
% time 13.0000
% report aster:force
%    class  identity      posX      posY    forceX    forceY    torque
         1         1    3.9903    0.0044   -3.8379    1.3648   -0.3572
% end

% frame   131
% time 13.1000
% report aster:force
%    class  identity      posX      posY    forceX    forceY    torque
         1         1    3.9903   -0.0033   -4.3816   -1.2316   -0.4865
% end

% frame   132
% time 13.2000
% report aster:force
%    class  identity      posX      posY    forceX    forceY    torque
         1         1    3.9853    0.0061   -8.9877    4.1353    0.0049
% end

% frame   133
% time 13.3000
% report aster:force
%    class  identity      posX      posY    forceX    forceY    torque
         1         1    3.9856    0.0025   -7.0397    0.2564   -0.5611
% end

% frame   134
% time 13.4000
% report aster:force
%    class  identity      posX      posY    forceX    forceY    torque
         1         1    3.9837    0.0029   -7.7241    0.5070   -0.0908
% end

% frame   135
% time 13.5000
% report aster:force
%    class  identity      posX      posY    forceX    forceY    torque
         1         1    3.9901    0.0009   -4.8828    3.0758    0.1600
% end

% frame   136
% time 13.6000
% report aster:force
%    class  identity      posX      posY    forceX    forceY    torque
         1         1    3.9888    0.0008   -5.5375    0.3387   -0.0368
% end

% frame   137
% time 13.7000
% report aster:force
%    class  identity      posX      posY    forceX    forceY    torque
         1         1    3.9913    0.0005   -3.0357    0.0813   -0.3856
% end

% frame   138
% time 13.8000
% report aster:force
%    class  identity      posX      posY    forceX    forceY    torque
         1         1    3.9891    0.0042   -5.3439    2.7326   -0.2831
% end

% frame   139
% time 13.9000
% report aster:force
%    class  identity      posX      posY    forceX    forceY    torque
         1         1    3.9835   -0.0028   -8.7615   -0.9425    0.1845
% end

% frame   140
% time 14.0000
% report aster:force
%    class  identity      posX      posY    forceX    forceY    torque
         1         1    3.9860    0.0011   -6.9492    0.4747    0.1954
% end

% frame   141
% time 14.1000
% report aster:force
%    class  identity      posX      posY    forceX    forceY    torque
         1         1    3.9863   -0.0031   -8.3981   -2.7392    0.3583
% end

% frame   142
% time 14.2000
% report aster:force
%    class  identity      posX      posY    forceX    forceY    torque
         1         1    3.9846    0.0007   -7.6648    0.1030    0.2826
% end

% frame   143
% time 14.3000
% report aster:force
%    class  identity      posX      posY    forceX    forceY    torque
         1         1    3.9853    0.0049   -4.7849    2.2079   -0.5444
% end

% frame   144
% time 14.4000
% report aster:force
%    class  identity      posX      posY    forceX    forceY    torque
         1         1    3.9837    0.0026   -7.2948    2.4815   -0.2668
% end

% frame   145
% time 14.5000
% report aster:force
%    class  identity      posX      posY    forceX    forceY    torque
         1         1    3.9860   -0.0008   -7.1756    1.0200   -0.3723
% end

% frame   146
% time 14.6000
% report aster:force
%    class  identity      posX      posY    forceX    forceY    torque
         1         1    3.9850   -0.0051   -8.0971   -2.8985    0.2650
% end

% frame   147
% time 14.7000
% report aster:force
%    class  identity      posX      posY    forceX    forceY    torque
         1         1    3.9894   -0.0033   -5.5453   -1.6158   -0.4267
% end

% frame   148
% time 14.8000
% report aster:force
%    class  identity      posX      posY    forceX    forceY    torque
         1         1    3.9841    0.0029   -9.3478    1.1284    0.3137
% end

% frame   149
% time 14.9000
% report aster:force
%    class  identity      posX      posY    forceX    forceY    torque
         1         1    3.9859   -0.0003   -6.6390   -1.7244    0.2084
% end

% frame   150
% time 15.0000
% report aster:force
%    class  identity      posX      posY    forceX    forceY    torque
         1         1    3.9895   -0.0001   -4.8424    0.5291    0.2998
% end

% frame   151
% time 15.1000
% report aster:force
%    class  identity      posX      posY    forceX    forceY    torque
         1         1    3.9846    0.0020   -8.6736    1.9070    0.5632
% end

% frame   152
% time 15.2000
% report aster:force
%    class  identity      posX      posY    forceX    forceY    torque
         1         1    3.9873    0.0022   -6.2481    0.0142    0.2005
% end

% frame   153
% time 15.3000
% report aster:force
%    class  identity      posX      posY    forceX    forceY    torque
         1         1    3.9847   -0.0034   -7.6499   -2.6587   -0.4311
% end

% frame   154
% time 15.4000
% report aster:force
%    class  identity      posX      posY    forceX    forceY    torque
         1         1    3.9803    0.0004  -10.7116   -0.5215    0.2024
% end

% frame   155
% time 15.5000
% report aster:force
%    class  identity      posX      posY    forceX    forceY    torque
         1         1    3.9883    0.0007   -7.0561    0.7887    0.6018
% end

% frame   156
% time 15.6000
% report aster:force
%    class  identity      posX      posY    forceX    forceY    torque
         1         1    4.0022    0.0049    1.9864    1.7183    0.1106
% end

% frame   157
% time 15.7000
% report aster:force
%    class  identity      posX      posY    forceX    forceY    torque
         1         1    4.0011    0.0028    0.6260    1.3495   -0.1778
% end

% frame   158
% time 15.8000
% report aster:force
%    class  identity      posX      posY    forceX    forceY    torque
         1         1    3.9995    0.0020   -1.2394    0.3673    0.6996
% end

% frame   159
% time 15.9000
% report aster:force
%    class  identity      posX      posY    forceX    forceY    torque
         1         1    3.9919   -0.0010   -2.8865   -0.5011   -0.5072
% end

% frame   160
% time 16.0000
% report aster:force
%    class  identity      posX      posY    forceX    forceY    torque
         1         1    3.9944    0.0051   -3.7912    2.2553    0.0690
% end

% frame   161
% time 16.1000
% report aster:force
%    class  identity      posX      posY    forceX    forceY    torque
         1         1    3.9947   -0.0013   -2.4979   -2.5131   -0.6419
% end

% frame   162
% time 16.2000
% report aster:force
%    class  identity      posX      posY    forceX    forceY    torque
         1         1    3.9929    0.0047   -5.1124    3.0869    0.4030
% end

% frame   163
% time 16.3000
% report aster:force
%    class  identity      posX      posY    forceX    forceY    torque
         1         1    3.9957   -0.0024   -1.6888    0.1575    0.1591
% end

% frame   164
% time 16.4000
% report aster:force
%    class  identity      posX      posY    forceX    forceY    torque
         1         1    3.9966   -0.0006   -0.9105    0.0588   -0.4224
% end

% frame   165
% time 16.5000
% report aster:force
%    class  identity      posX      posY    forceX    forceY    torque
         1         1    4.0014    0.0002    1.1840    0.1095    0.1661
% end

% frame   166
% time 16.6000
% report aster:force
%    class  identity      posX      posY    forceX    forceY    torque
         1         1    3.9977   -0.0035   -1.4114   -0.9376   -0.2337
% end

% frame   167
% time 16.7000
% report aster:force
%    class  identity      posX      posY    forceX    forceY    torque
         1         1    3.9983   -0.0025   -0.6077   -0.8455    0.1569
% end

% frame   168
% time 16.8000
% report aster:force
%    class  identity      posX      posY    forceX    forceY    torque
         1         1    3.9972   -0.0047   -0.4945   -1.0368   -0.0253
% end

% frame   169
% time 16.9000
% report aster:force
%    class  identity      posX      posY    forceX    forceY    torque
         1         1    3.9967    0.0013   -2.1757    1.6123   -0.1893
% end

% frame   170
% time 17.0000
% report aster:force
%    class  identity      posX      posY    forceX    forceY    torque
         1         1    3.9987    0.0011    0.1518    0.5355    0.0988
% end

% frame   171
% time 17.1000
% report aster:force
%    class  identity      posX      posY    forceX    forceY    torque
         1         1    3.9972    0.0004   -1.6031    0.2049    0.2248
% end

% frame   172
% time 17.2000
% report aster:force
%    class  identity      posX      posY    forceX    forceY    torque
         1         1    3.9927    0.0025   -4.4797    0.5921    0.0691
% end

% frame   173
% time 17.3000
% report aster:force
%    class  identity      posX      posY    forceX    forceY    torque
         1         1    3.9920    0.0068   -4.2412    3.1152    0.3833
% end

% frame   174
% time 17.4000
% report aster:force
%    class  identity      posX      posY    forceX    forceY    torque
         1         1    3.9944    0.0054   -3.1429    3.3843   -0.1319
% end

% frame   175
% time 17.5000
% report aster:force
%    class  identity      posX      posY    forceX    forceY    torque
         1         1    3.9922   -0.0009   -3.3347    0.1652   -0.7011
% end

% frame   176
% time 17.6000
% report aster:force
%    class  identity      posX      posY    forceX    forceY    torque
         1         1    3.9958    0.0026   -2.1036    0.0541   -0.4005
% end

% frame   177
% time 17.7000
% report aster:force
%    class  identity      posX      posY    forceX    forceY    torque
         1         1    3.9925   -0.0027   -5.6225   -0.5120    0.5918
% end

% frame   178
% time 17.8000
% report aster:force
%    class  identity      posX      posY    forceX    forceY    torque
         1         1    3.9969    0.0013   -2.5340    0.7925    0.5984
% end

% frame   179
% time 17.9000
% report aster:force
%    class  identity      posX      posY    forceX    forceY    torque
         1         1    3.9958   -0.0010   -4.3686   -1.8535    0.7672
% end

% frame   180
% time 18.0000
% report aster:force
%    class  identity      posX      posY    forceX    forceY    torque
         1         1    3.9899   -0.0027   -3.8685   -0.8876   -0.1479
% end

% frame   181
% time 18.1000
% report aster:force
%    class  identity      posX      posY    forceX    forceY    torque
         1         1    3.9978    0.0038   -1.7249    1.1688    1.0597
% end

% frame   182
% time 18.2000
% report aster:force
%    class  identity      posX      posY    forceX    forceY    torque
         1         1    3.9978    0.0009   -2.2568    0.7056    0.3222
% end

% frame   183
% time 18.3000
% report aster:force
%    class  identity      posX      posY    forceX    forceY    torque
         1         1    3.9994   -0.0020   -1.2219    0.0752   -0.3893
% end

% frame   184
% time 18.4000
% report aster:force
%    class  identity      posX      posY    forceX    forceY    torque
         1         1    3.9948   -0.0017   -3.7510   -1.9355    0.2796
% end

% frame   185
% time 18.5000
% report aster:force
%    class  identity      posX      posY    forceX    forceY    torque
         1         1    3.9971   -0.0043   -1.3048   -3.5835    0.2588
% end

% frame   186
% time 18.6000
% report aster:force
%    class  identity      posX      posY    forceX    forceY    torque
         1         1    3.9975   -0.0044   -1.7892   -2.4010    0.5959
% end

% frame   187
% time 18.7000
% report aster:force
%    class  identity      posX      posY    forceX    forceY    torque
         1         1    3.9927   -0.0042   -4.8481   -2.5457    0.2545
% end

% frame   188
% time 18.8000
% report aster:force
%    class  identity      posX      posY    forceX    forceY    torque
         1         1    3.9954    0.0004   -3.9484    0.7231    0.2977
% end

% frame   189
% time 18.9000
% report aster:force
%    class  identity      posX      posY    forceX    forceY    torque
         1         1    3.9957    0.0014   -3.2247    0.8109    0.2574
% end

% frame   190
% time 19.0000
% report aster:force
%    class  identity      posX      posY    forceX    forceY    torque
         1         1    3.9988    0.0041   -1.4277    2.5974    0.1755
% end

% frame   191
% time 19.1000
% report aster:force
%    class  identity      posX      posY    forceX    forceY    torque
         1         1    3.9980   -0.0038   -1.0279   -2.0276    0.2486
% end

% frame   192
% time 19.2000
% report aster:force
%    class  identity      posX      posY    forceX    forceY    torque
         1         1    3.9946    0.0060   -3.2155    3.1911    0.0720
% end

% frame   193
% time 19.3000
% report aster:force
%    class  identity      posX      posY    forceX    forceY    torque
         1         1    3.9948    0.0023   -3.8623    1.8206    0.1823
% end

% frame   194
% time 19.4000
% report aster:force
%    class  identity      posX      posY    forceX    forceY    torque
         1         1    3.9975    0.0021   -1.3897    0.3958   -0.2779
% end

% frame   195
% time 19.5000
% report aster:force
%    class  identity      posX      posY    forceX    forceY    torque
         1         1    3.9999    0.0005    0.3487   -0.2857    0.3446
% end

% frame   196
% time 19.6000
% report aster:force
%    class  identity      posX      posY    forceX    forceY    torque
         1         1    3.9913    0.0018   -5.5931    1.4424    0.0411
% end

% frame   197
% time 19.7000
% report aster:force
%    class  identity      posX      posY    forceX    forceY    torque
         1         1    3.9951    0.0013   -2.5233   -0.0023   -0.8036
% end

% frame   198
% time 19.8000
% report aster:force
%    class  identity      posX      posY    forceX    forceY    torque
         1         1    3.9945    0.0024   -3.0629    1.3524   -0.2440
% end

% frame   199
% time 19.9000
% report aster:force
%    class  identity      posX      posY    forceX    forceY    torque
         1         1    3.9969   -0.0059   -1.1301   -3.1815    0.0737
% end

% frame   200
% time 20.0000
% report aster:force
%    class  identity      posX      posY    forceX    forceY    torque
         1         1    3.9944   -0.0026   -1.9833   -2.0403   -0.5318
% end

% frame   201
% time 20.1000
% report aster:force
%    class  identity      posX      posY    forceX    forceY    torque
         1         1    3.9959    0.0009   -3.0485    0.5402    0.2083
% end

% frame   202
% time 20.2000
% report aster:force
%    class  identity      posX      posY    forceX    forceY    torque
         1         1    3.9951   -0.0040   -3.2940   -0.8743   -0.3012
% end

% frame   203
% time 20.3000
% report aster:force
%    class  identity      posX      posY    forceX    forceY    torque
         1         1    3.9979   -0.0001   -1.5477    0.0611    0.8703
% end

% frame   204
% time 20.4000
% report aster:force
%    class  identity      posX      posY    forceX    forceY    torque
         1         1    4.0028    0.0004    2.6664    2.1206   -0.2367
% end

% frame   205
% time 20.5000
% report aster:force
%    class  identity      posX      posY    forceX    forceY    torque
         1         1    3.9963   -0.0016   -1.4562   -0.9050    0.0120
% end

% frame   206
% time 20.6000
% report aster:force
%    class  identity      posX      posY    forceX    forceY    torque
         1         1    3.9983   -0.0007   -1.5921   -0.6779    0.3849
% end

% frame   207
% time 20.7000
% report aster:force
%    class  identity      posX      posY    forceX    forceY    torque
         1         1    4.0008    0.0043   -0.5240    1.0556    0.2963
% end

% frame   208
% time 20.8000
% report aster:force
%    class  identity      posX      posY    forceX    forceY    torque
         1         1    3.9979    0.0026   -1.4081    1.3840   -0.1693
% end

% frame   209
% time 20.9000
% report aster:force
%    class  identity      posX      posY    forceX    forceY    torque
         1         1    3.9967    0.0029   -2.0518    0.7511    0.1096
% end

% frame   210
% time 21.0000
% report aster:force
%    class  identity      posX      posY    forceX    forceY    torque
         1         1    3.9964    0.0017   -1.3463    0.0122    0.1634
% end

% frame   211
% time 21.1000
% report aster:force
%    class  identity      posX      posY    forceX    forceY    torque
         1         1    3.9951    0.0036   -3.5455    0.7681    0.2915
% end

% frame   212
% time 21.2000
% report aster:force
%    class  identity      posX      posY    forceX    forceY    torque
         1         1    3.9933   -0.0037   -1.9632   -2.9343   -0.5160
% end

% frame   213
% time 21.3000
% report aster:force
%    class  identity      posX      posY    forceX    forceY    torque
         1         1    3.9940    0.0002   -3.2934   -0.7144   -0.5737
% end

% frame   214
% time 21.4000
% report aster:force
%    class  identity      posX      posY    forceX    forceY    torque
         1         1    3.9931    0.0037   -2.8786    2.5132   -0.8267
% end

% frame   215
% time 21.5000
% report aster:force
%    class  identity      posX      posY    forceX    forceY    torque
         1         1    3.9953   -0.0020   -3.4171    0.5830    0.0358
% end

% frame   216
% time 21.6000
% report aster:force
%    class  identity      posX      posY    forceX    forceY    torque
         1         1    3.9925    0.0023   -3.6025    2.2432   -0.2826
% end

% frame   217
% time 21.7000
% report aster:force
%    class  identity      posX      posY    forceX    forceY    torque
         1         1    3.9963    0.0035   -2.5577    0.9725    0.4867
% end

% frame   218
% time 21.8000
% report aster:force
%    class  identity      posX      posY    forceX    forceY    torque
         1         1    3.9961    0.0039   -2.9771    1.4465   -0.0834
% end

% frame   219
% time 21.9000
% report aster:force
%    class  identity      posX      posY    forceX    forceY    torque
         1         1    3.9987    0.0033   -2.5860    0.1013    0.3844
% end

% frame   220
% time 22.0000
% report aster:force
%    class  identity      posX      posY    forceX    forceY    torque
         1         1    3.9909    0.0007   -5.7503   -1.3206   -0.3043
% end

% frame   221
% time 22.1000
% report aster:force
%    class  identity      posX      posY    forceX    forceY    torque
         1         1    3.9964    0.0005   -2.3861    0.6270    0.0607
% end

% frame   222
% time 22.2000
% report aster:force
%    class  identity      posX      posY    forceX    forceY    torque
         1         1    3.9921   -0.0028   -3.4219   -1.0020   -0.2853
% end

% frame   223
% time 22.3000
% report aster:force
%    class  identity      posX      posY    forceX    forceY    torque
         1         1    3.9969   -0.0006   -1.5494   -1.0096    0.0831
% end

% frame   224
% time 22.4000
% report aster:force
%    class  identity      posX      posY    forceX    forceY    torque
         1         1    3.9956    0.0038   -1.3690    2.1541   -0.2018
% end

% frame   225
% time 22.5000
% report aster:force
%    class  identity      posX      posY    forceX    forceY    torque
         1         1    3.9930    0.0044   -3.3190    3.2021    0.0906
% end

% frame   226
% time 22.6000
% report aster:force
%    class  identity      posX      posY    forceX    forceY    torque
         1         1    3.9974    0.0078   -1.0581    3.8981    0.0247
% end

% frame   227
% time 22.7000
% report aster:force
%    class  identity      posX      posY    forceX    forceY    torque
         1         1    3.9985    0.0019   -2.3036    1.5045    0.0846
% end

% frame   228
% time 22.8000
% report aster:force
%    class  identity      posX      posY    forceX    forceY    torque
         1         1    3.9966   -0.0039   -2.6770   -1.1005    0.3284
% end

% frame   229
% time 22.9000
% report aster:force
%    class  identity      posX      posY    forceX    forceY    torque
         1         1    3.9936   -0.0013   -5.3976   -0.8287    0.4155
% end

% frame   230
% time 23.0000
% report aster:force
%    class  identity      posX      posY    forceX    forceY    torque
         1         1    3.9908    0.0029   -4.7195   -0.2230    0.3281
% end

% frame   231
% time 23.1000
% report aster:force
%    class  identity      posX      posY    forceX    forceY    torque
         1         1    3.9866    0.0078   -5.8950    2.7806   -0.0727
% end

% frame   232
% time 23.2000
% report aster:force
%    class  identity      posX      posY    forceX    forceY    torque
         1         1    3.9902   -0.0008   -4.7415    0.2576    0.4786
% end

% frame   233
% time 23.3000
% report aster:force
%    class  identity      posX      posY    forceX    forceY    torque
         1         1    3.9910   -0.0055   -6.1232   -4.3104    0.5725
% end

% frame   234
% time 23.4000
% report aster:force
%    class  identity      posX      posY    forceX    forceY    torque
         1         1    3.9926    0.0046   -3.7752    2.5686    0.0151
% end

% frame   235
% time 23.5000
% report aster:force
%    class  identity      posX      posY    forceX    forceY    torque
         1         1    3.9896    0.0015   -4.9493    1.2030   -0.2839
% end

% frame   236
% time 23.6000
% report aster:force
%    class  identity      posX      posY    forceX    forceY    torque
         1         1    3.9899    0.0003   -6.2287   -0.2018    0.7463
% end

% frame   237
% time 23.7000
% report aster:force
%    class  identity      posX      posY    forceX    forceY    torque
         1         1    3.9903    0.0022   -3.3962    2.1559   -0.4326
% end

% frame   238
% time 23.8000
% report aster:force
%    class  identity      posX      posY    forceX    forceY    torque
         1         1    3.9842   -0.0002   -5.7841    0.6038   -0.4136
% end

% frame   239
% time 23.9000
% report aster:force
%    class  identity      posX      posY    forceX    forceY    torque
         1         1    3.9873    0.0058   -5.2110    3.0775   -0.4396
% end

% frame   240
% time 24.0000
% report aster:force
%    class  identity      posX      posY    forceX    forceY    torque
         1         1    3.9916   -0.0034   -4.0622   -2.5613   -0.5171
% end

% frame   241
% time 24.1000
% report aster:force
%    class  identity      posX      posY    forceX    forceY    torque
         1         1    3.9872    0.0043   -6.2624    1.1064    0.3364
% end

% frame   242
% time 24.2000
% report aster:force
%    class  identity      posX      posY    forceX    forceY    torque
         1         1    3.9863    0.0015   -7.8646    0.2823    0.4282
% end

% frame   243
% time 24.3000
% report aster:force
%    class  identity      posX      posY    forceX    forceY    torque
         1         1    3.9903    0.0016   -3.4066   -0.7476   -0.2376
% end

% frame   244
% time 24.4000
% report aster:force
%    class  identity      posX      posY    forceX    forceY    torque
         1         1    3.9910    0.0025   -4.1163    0.1334   -0.1480
% end

% frame   245
% time 24.5000
% report aster:force
%    class  identity      posX      posY    forceX    forceY    torque
         1         1    3.9903    0.0038   -4.0626    1.3562   -0.2485
% end

% frame   246
% time 24.6000
% report aster:force
%    class  identity      posX      posY    forceX    forceY    torque
         1         1    3.9945   -0.0014   -3.5286   -1.7306    0.4096
% end

% frame   247
% time 24.7000
% report aster:force
%    class  identity      posX      posY    forceX    forceY    torque
         1         1    3.9892    0.0053   -4.7066    1.9344    0.2171
% end

% frame   248
% time 24.8000
% report aster:force
%    class  identity      posX      posY    forceX    forceY    torque
         1         1    3.9893   -0.0008   -5.5705    0.4733   -0.1473
% end

% frame   249
% time 24.9000
% report aster:force
%    class  identity      posX      posY    forceX    forceY    torque
         1         1    3.9923    0.0011   -3.9265    0.2275    0.3926
% end

% frame   250
% time 25.0000
% report aster:force
%    class  identity      posX      posY    forceX    forceY    torque
         1         1    3.9932   -0.0024   -3.3410   -0.0009    0.0865
% end

% frame   251
% time 25.1000
% report aster:force
%    class  identity      posX      posY    forceX    forceY    torque
         1         1    3.9927    0.0034   -2.9051    1.6834   -0.5058
% end

% frame   252
% time 25.2000
% report aster:force
%    class  identity      posX      posY    forceX    forceY    torque
         1         1    3.9884    0.0023   -6.2053    0.7935    0.2925
% end

% frame   253
% time 25.3000
% report aster:force
%    class  identity      posX      posY    forceX    forceY    torque
         1         1    3.9901   -0.0014   -6.8071   -0.2803   -0.1784
% end

% frame   254
% time 25.4000
% report aster:force
%    class  identity      posX      posY    forceX    forceY    torque
         1         1    3.9931    0.0027   -4.0194    1.2534    0.3658
% end

% frame   255
% time 25.5000
% report aster:force
%    class  identity      posX      posY    forceX    forceY    torque
         1         1    3.9946    0.0046   -2.4266    2.1134    0.0649
% end

% frame   256
% time 25.6000
% report aster:force
%    class  identity      posX      posY    forceX    forceY    torque
         1         1    3.9907    0.0019   -4.6244    0.1325   -0.3514
% end

% frame   257
% time 25.7000
% report aster:force
%    class  identity      posX      posY    forceX    forceY    torque
         1         1    3.9885    0.0058   -3.9561    3.6657   -0.7137
% end

% frame   258
% time 25.8000
% report aster:force
%    class  identity      posX      posY    forceX    forceY    torque
         1         1    3.9935    0.0003   -3.6980    0.9398   -0.1151
% end

% frame   259
% time 25.9000
% report aster:force
%    class  identity      posX      posY    forceX    forceY    torque
         1         1    3.9909    0.0042   -5.3223    2.8564    0.1612
% end

% frame   260
% time 26.0000
% report aster:force
%    class  identity      posX      posY    forceX    forceY    torque
         1         1    3.9926   -0.0036   -1.9680   -1.3057   -0.5079
% end

% frame   261
% time 26.1000
% report aster:force
%    class  identity      posX      posY    forceX    forceY    torque
         1         1    3.9894    0.0023   -6.4392    2.8915    0.2618
% end

% frame   262
% time 26.2000
% report aster:force
%    class  identity      posX      posY    forceX    forceY    torque
         1         1    3.9909    0.0023   -5.2000    1.2656   -0.0630
% end

% frame   263
% time 26.3000
% report aster:force
%    class  identity      posX      posY    forceX    forceY    torque
         1         1    3.9914   -0.0001   -5.3598    1.0111    0.7672
% end

% frame   264
% time 26.4000
% report aster:force
%    class  identity      posX      posY    forceX    forceY    torque
         1         1    3.9861    0.0011   -6.3212    0.9000   -0.5468
% end

% frame   265
% time 26.5000
% report aster:force
%    class  identity      posX      posY    forceX    forceY    torque
         1         1    3.9899    0.0042   -5.0319    2.1522   -0.2031
% end

% frame   266
% time 26.6000
% report aster:force
%    class  identity      posX      posY    forceX    forceY    torque
         1         1    3.9945   -0.0015   -2.3330   -1.8006   -0.4310
% end

% frame   267
% time 26.7000
% report aster:force
%    class  identity      posX      posY    forceX    forceY    torque
         1         1    3.9929    0.0021   -2.4205    2.5069    0.2947
% end

% frame   268
% time 26.8000
% report aster:force
%    class  identity      posX      posY    forceX    forceY    torque
         1         1    3.9943    0.0024   -3.6383    1.0198   -0.0260
% end

% frame   269
% time 26.9000
% report aster:force
%    class  identity      posX      posY    forceX    forceY    torque
         1         1    3.9892    0.0042   -5.0249    2.9679   -0.1527
% end

% frame   270
% time 27.0000
% report aster:force
%    class  identity      posX      posY    forceX    forceY    torque
         1         1    3.9955   -0.0009   -1.2367   -1.2380   -0.3902
% end

% frame   271
% time 27.1000
% report aster:force
%    class  identity      posX      posY    forceX    forceY    torque
         1         1    3.9984    0.0029   -0.9411    1.2292    0.1339
% end

% frame   272
% time 27.2000
% report aster:force
%    class  identity      posX      posY    forceX    forceY    torque
         1         1    3.9956    0.0020   -4.5861    0.8918    0.3573
% end

% frame   273
% time 27.3000
% report aster:force
%    class  identity      posX      posY    forceX    forceY    torque
         1         1    3.9956    0.0010   -3.5031    3.3642    0.5656
% end

% frame   274
% time 27.4000
% report aster:force
%    class  identity      posX      posY    forceX    forceY    torque
         1         1    3.9936    0.0002   -1.5213    0.4774   -0.4086
% end

% frame   275
% time 27.5000
% report aster:force
%    class  identity      posX      posY    forceX    forceY    torque
         1         1    3.9933    0.0013   -3.6792    0.0807   -0.1138
% end

% frame   276
% time 27.6000
% report aster:force
%    class  identity      posX      posY    forceX    forceY    torque
         1         1    3.9896   -0.0037   -2.1167   -2.7234   -1.3145
% end

% frame   277
% time 27.7000
% report aster:force
%    class  identity      posX      posY    forceX    forceY    torque
         1         1    3.9968   -0.0018   -2.0257    1.3476    0.2754
% end

% frame   278
% time 27.8000
% report aster:force
%    class  identity      posX      posY    forceX    forceY    torque
         1         1    4.0004   -0.0019   -0.1339    0.4781    0.8356
% end

% frame   279
% time 27.9000
% report aster:force
%    class  identity      posX      posY    forceX    forceY    torque
         1         1    3.9992    0.0032   -1.0817    0.4040    0.3936
% end

% frame   280
% time 28.0000
% report aster:force
%    class  identity      posX      posY    forceX    forceY    torque
         1         1    4.0023    0.0067    1.5916    2.1780    0.3325
% end

% frame   281
% time 28.1000
% report aster:force
%    class  identity      posX      posY    forceX    forceY    torque
         1         1    3.9929    0.0018   -3.1468    2.0600    0.0589
% end

% frame   282
% time 28.2000
% report aster:force
%    class  identity      posX      posY    forceX    forceY    torque
         1         1    3.9991    0.0011   -0.2074    0.3877    0.0617
% end

% frame   283
% time 28.3000
% report aster:force
%    class  identity      posX      posY    forceX    forceY    torque
         1         1    3.9987    0.0016    0.3256    0.1835    0.1521
% end

% frame   284
% time 28.4000
% report aster:force
%    class  identity      posX      posY    forceX    forceY    torque
         1         1    3.9993   -0.0003   -0.7646   -1.4181   -0.2659
% end

% frame   285
% time 28.5000
% report aster:force
%    class  identity      posX      posY    forceX    forceY    torque
         1         1    3.9968   -0.0008   -1.8293   -1.4213   -0.3621
% end

% frame   286
% time 28.6000
% report aster:force
%    class  identity      posX      posY    forceX    forceY    torque
         1         1    3.9945   -0.0022   -2.1307   -1.1651    0.4294
% end

% frame   287
% time 28.7000
% report aster:force
%    class  identity      posX      posY    forceX    forceY    torque
         1         1    4.0011    0.0038    1.2416    1.5871   -0.2739
% end

% frame   288
% time 28.8000
% report aster:force
%    class  identity      posX      posY    forceX    forceY    torque
         1         1    4.0020   -0.0016   -0.9388   -0.9938    0.4351
% end

% frame   289
% time 28.9000
% report aster:force
%    class  identity      posX      posY    forceX    forceY    torque
         1         1    3.9982    0.0044   -2.8303    2.7805    0.4020
% end

% frame   290
% time 29.0000
% report aster:force
%    class  identity      posX      posY    forceX    forceY    torque
         1         1    3.9976   -0.0020   -1.9149   -1.8743   -0.0003
% end

% frame   291
% time 29.1000
% report aster:force
%    class  identity      posX      posY    forceX    forceY    torque
         1         1    3.9964    0.0034   -1.4796    4.6135   -0.1430
% end

% frame   292
% time 29.2000
% report aster:force
%    class  identity      posX      posY    forceX    forceY    torque
         1         1    3.9991   -0.0008   -1.1723   -1.0295    0.0711
% end

% frame   293
% time 29.3000
% report aster:force
%    class  identity      posX      posY    forceX    forceY    torque
         1         1    4.0013    0.0005    1.0584    1.1117    0.1710
% end

% frame   294
% time 29.4000
% report aster:force
%    class  identity      posX      posY    forceX    forceY    torque
         1         1    3.9963   -0.0008   -0.9836   -0.4042    0.0177
% end

% frame   295
% time 29.5000
% report aster:force
%    class  identity      posX      posY    forceX    forceY    torque
         1         1    3.9984   -0.0020   -1.2331   -1.4077    0.2047
% end

% frame   296
% time 29.6000
% report aster:force
%    class  identity      posX      posY    forceX    forceY    torque
         1         1    4.0027    0.0024    0.9903    1.3840    0.2823
% end

% frame   297
% time 29.7000
% report aster:force
%    class  identity      posX      posY    forceX    forceY    torque
         1         1    4.0010    0.0025    1.3892    0.1450   -0.0603
% end

% frame   298
% time 29.8000
% report aster:force
%    class  identity      posX      posY    forceX    forceY    torque
         1         1    3.9955    0.0005   -2.3047    0.0095   -0.5770
% end

% frame   299
% time 29.9000
% report aster:force
%    class  identity      posX      posY    forceX    forceY    torque
         1         1    3.9951    0.0052   -4.4964    1.6098    0.7216
% end

% frame   300
% time 30.0000
% report aster:force
%    class  identity      posX      posY    forceX    forceY    torque
         1         1    3.9988    0.0025   -0.8060    0.2425    0.1479
% end
