
% frame   0
% time 0.0000
% report space:tweezers
   tweezer         2   tweezer
% tweezer position
0.0000 -2.4375
% tweezer frequency
0.0000
% tweezer amplitude
10.0000

% end

% frame   1
% time 0.1000
% report space:tweezers
   tweezer         2   tweezer
% tweezer position
-nan -2.4375
% tweezer frequency
0.0000
% tweezer amplitude
10.0000

% end

% frame   2
% time 0.2000
% report space:tweezers
   tweezer         2   tweezer
% tweezer position
-nan -2.4375
% tweezer frequency
0.0000
% tweezer amplitude
10.0000

% end

% frame   3
% time 0.3000
% report space:tweezers
   tweezer         2   tweezer
% tweezer position
-nan -2.4375
% tweezer frequency
0.0000
% tweezer amplitude
10.0000

% end

% frame   4
% time 0.4000
% report space:tweezers
   tweezer         2   tweezer
% tweezer position
-nan -2.4375
% tweezer frequency
0.0000
% tweezer amplitude
10.0000

% end

% frame   5
% time 0.5000
% report space:tweezers
   tweezer         2   tweezer
% tweezer position
-nan -2.4375
% tweezer frequency
0.0000
% tweezer amplitude
10.0000

% end

% frame   6
% time 0.6000
% report space:tweezers
   tweezer         2   tweezer
% tweezer position
-nan -2.4375
% tweezer frequency
0.0000
% tweezer amplitude
10.0000

% end

% frame   7
% time 0.7000
% report space:tweezers
   tweezer         2   tweezer
% tweezer position
-nan -2.4375
% tweezer frequency
0.0000
% tweezer amplitude
10.0000

% end

% frame   8
% time 0.8000
% report space:tweezers
   tweezer         2   tweezer
% tweezer position
-nan -2.4375
% tweezer frequency
0.0000
% tweezer amplitude
10.0000

% end

% frame   9
% time 0.9000
% report space:tweezers
   tweezer         2   tweezer
% tweezer position
-nan -2.4375
% tweezer frequency
0.0000
% tweezer amplitude
10.0000

% end

% frame   10
% time 1.0000
% report space:tweezers
   tweezer         2   tweezer
% tweezer position
-nan -2.4375
% tweezer frequency
0.0000
% tweezer amplitude
10.0000

% end

% frame   11
% time 1.1000
% report space:tweezers
   tweezer         2   tweezer
% tweezer position
-nan -2.4375
% tweezer frequency
0.0000
% tweezer amplitude
10.0000

% end

% frame   12
% time 1.2000
% report space:tweezers
   tweezer         2   tweezer
% tweezer position
-nan -2.4375
% tweezer frequency
0.0000
% tweezer amplitude
10.0000

% end

% frame   13
% time 1.3000
% report space:tweezers
   tweezer         2   tweezer
% tweezer position
-nan -2.4375
% tweezer frequency
0.0000
% tweezer amplitude
10.0000

% end

% frame   14
% time 1.4000
% report space:tweezers
   tweezer         2   tweezer
% tweezer position
-nan -2.4375
% tweezer frequency
0.0000
% tweezer amplitude
10.0000

% end

% frame   15
% time 1.5000
% report space:tweezers
   tweezer         2   tweezer
% tweezer position
-nan -2.4375
% tweezer frequency
0.0000
% tweezer amplitude
10.0000

% end

% frame   16
% time 1.6000
% report space:tweezers
   tweezer         2   tweezer
% tweezer position
-nan -2.4375
% tweezer frequency
0.0000
% tweezer amplitude
10.0000

% end

% frame   17
% time 1.7000
% report space:tweezers
   tweezer         2   tweezer
% tweezer position
-nan -2.4375
% tweezer frequency
0.0000
% tweezer amplitude
10.0000

% end

% frame   18
% time 1.8000
% report space:tweezers
   tweezer         2   tweezer
% tweezer position
-nan -2.4375
% tweezer frequency
0.0000
% tweezer amplitude
10.0000

% end

% frame   19
% time 1.9000
% report space:tweezers
   tweezer         2   tweezer
% tweezer position
-nan -2.4375
% tweezer frequency
0.0000
% tweezer amplitude
10.0000

% end

% frame   20
% time 2.0000
% report space:tweezers
   tweezer         2   tweezer
% tweezer position
-nan -2.4375
% tweezer frequency
0.0000
% tweezer amplitude
10.0000

% end

% frame   21
% time 2.1000
% report space:tweezers
   tweezer         2   tweezer
% tweezer position
-nan -2.4375
% tweezer frequency
0.0000
% tweezer amplitude
10.0000

% end

% frame   22
% time 2.2000
% report space:tweezers
   tweezer         2   tweezer
% tweezer position
-nan -2.4375
% tweezer frequency
0.0000
% tweezer amplitude
10.0000

% end

% frame   23
% time 2.3000
% report space:tweezers
   tweezer         2   tweezer
% tweezer position
-nan -2.4375
% tweezer frequency
0.0000
% tweezer amplitude
10.0000

% end

% frame   24
% time 2.4000
% report space:tweezers
   tweezer         2   tweezer
% tweezer position
-nan -2.4375
% tweezer frequency
0.0000
% tweezer amplitude
10.0000

% end

% frame   25
% time 2.5000
% report space:tweezers
   tweezer         2   tweezer
% tweezer position
-nan -2.4375
% tweezer frequency
0.0000
% tweezer amplitude
10.0000

% end

% frame   26
% time 2.6000
% report space:tweezers
   tweezer         2   tweezer
% tweezer position
-nan -2.4375
% tweezer frequency
0.0000
% tweezer amplitude
10.0000

% end

% frame   27
% time 2.7000
% report space:tweezers
   tweezer         2   tweezer
% tweezer position
-nan -2.4375
% tweezer frequency
0.0000
% tweezer amplitude
10.0000

% end

% frame   28
% time 2.8000
% report space:tweezers
   tweezer         2   tweezer
% tweezer position
-nan -2.4375
% tweezer frequency
0.0000
% tweezer amplitude
10.0000

% end

% frame   29
% time 2.9000
% report space:tweezers
   tweezer         2   tweezer
% tweezer position
-nan -2.4375
% tweezer frequency
0.0000
% tweezer amplitude
10.0000

% end

% frame   30
% time 3.0000
% report space:tweezers
   tweezer         2   tweezer
% tweezer position
-nan -2.4375
% tweezer frequency
0.0000
% tweezer amplitude
10.0000

% end

% frame   31
% time 3.1000
% report space:tweezers
   tweezer         2   tweezer
% tweezer position
-nan -2.4375
% tweezer frequency
0.0000
% tweezer amplitude
10.0000

% end

% frame   32
% time 3.2000
% report space:tweezers
   tweezer         2   tweezer
% tweezer position
-nan -2.4375
% tweezer frequency
0.0000
% tweezer amplitude
10.0000

% end

% frame   33
% time 3.3000
% report space:tweezers
   tweezer         2   tweezer
% tweezer position
-nan -2.4375
% tweezer frequency
0.0000
% tweezer amplitude
10.0000

% end

% frame   34
% time 3.4000
% report space:tweezers
   tweezer         2   tweezer
% tweezer position
-nan -2.4375
% tweezer frequency
0.0000
% tweezer amplitude
10.0000

% end

% frame   35
% time 3.5000
% report space:tweezers
   tweezer         2   tweezer
% tweezer position
-nan -2.4375
% tweezer frequency
0.0000
% tweezer amplitude
10.0000

% end

% frame   36
% time 3.6000
% report space:tweezers
   tweezer         2   tweezer
% tweezer position
-nan -2.4375
% tweezer frequency
0.0000
% tweezer amplitude
10.0000

% end

% frame   37
% time 3.7000
% report space:tweezers
   tweezer         2   tweezer
% tweezer position
-nan -2.4375
% tweezer frequency
0.0000
% tweezer amplitude
10.0000

% end

% frame   38
% time 3.8000
% report space:tweezers
   tweezer         2   tweezer
% tweezer position
-nan -2.4375
% tweezer frequency
0.0000
% tweezer amplitude
10.0000

% end

% frame   39
% time 3.9000
% report space:tweezers
   tweezer         2   tweezer
% tweezer position
-nan -2.4375
% tweezer frequency
0.0000
% tweezer amplitude
10.0000

% end

% frame   40
% time 4.0000
% report space:tweezers
   tweezer         2   tweezer
% tweezer position
-nan -2.4375
% tweezer frequency
0.0000
% tweezer amplitude
10.0000

% end

% frame   41
% time 4.1000
% report space:tweezers
   tweezer         2   tweezer
% tweezer position
-nan -2.4375
% tweezer frequency
0.0000
% tweezer amplitude
10.0000

% end

% frame   42
% time 4.2000
% report space:tweezers
   tweezer         2   tweezer
% tweezer position
-nan -2.4375
% tweezer frequency
0.0000
% tweezer amplitude
10.0000

% end

% frame   43
% time 4.3000
% report space:tweezers
   tweezer         2   tweezer
% tweezer position
-nan -2.4375
% tweezer frequency
0.0000
% tweezer amplitude
10.0000

% end

% frame   44
% time 4.4000
% report space:tweezers
   tweezer         2   tweezer
% tweezer position
-nan -2.4375
% tweezer frequency
0.0000
% tweezer amplitude
10.0000

% end

% frame   45
% time 4.5000
% report space:tweezers
   tweezer         2   tweezer
% tweezer position
-nan -2.4375
% tweezer frequency
0.0000
% tweezer amplitude
10.0000

% end

% frame   46
% time 4.6000
% report space:tweezers
   tweezer         2   tweezer
% tweezer position
-nan -2.4375
% tweezer frequency
0.0000
% tweezer amplitude
10.0000

% end

% frame   47
% time 4.7000
% report space:tweezers
   tweezer         2   tweezer
% tweezer position
-nan -2.4375
% tweezer frequency
0.0000
% tweezer amplitude
10.0000

% end

% frame   48
% time 4.8000
% report space:tweezers
   tweezer         2   tweezer
% tweezer position
-nan -2.4375
% tweezer frequency
0.0000
% tweezer amplitude
10.0000

% end

% frame   49
% time 4.9000
% report space:tweezers
   tweezer         2   tweezer
% tweezer position
-nan -2.4375
% tweezer frequency
0.0000
% tweezer amplitude
10.0000

% end

% frame   50
% time 5.0000
% report space:tweezers
   tweezer         2   tweezer
% tweezer position
-nan -2.4375
% tweezer frequency
0.0000
% tweezer amplitude
10.0000

% end

% frame   51
% time 5.1000
% report space:tweezers
   tweezer         2   tweezer
% tweezer position
-nan -2.4375
% tweezer frequency
0.0000
% tweezer amplitude
10.0000

% end

% frame   52
% time 5.2000
% report space:tweezers
   tweezer         2   tweezer
% tweezer position
-nan -2.4375
% tweezer frequency
0.0000
% tweezer amplitude
10.0000

% end

% frame   53
% time 5.3000
% report space:tweezers
   tweezer         2   tweezer
% tweezer position
-nan -2.4375
% tweezer frequency
0.0000
% tweezer amplitude
10.0000

% end

% frame   54
% time 5.4000
% report space:tweezers
   tweezer         2   tweezer
% tweezer position
-nan -2.4375
% tweezer frequency
0.0000
% tweezer amplitude
10.0000

% end

% frame   55
% time 5.5000
% report space:tweezers
   tweezer         2   tweezer
% tweezer position
-nan -2.4375
% tweezer frequency
0.0000
% tweezer amplitude
10.0000

% end

% frame   56
% time 5.6000
% report space:tweezers
   tweezer         2   tweezer
% tweezer position
-nan -2.4375
% tweezer frequency
0.0000
% tweezer amplitude
10.0000

% end

% frame   57
% time 5.7000
% report space:tweezers
   tweezer         2   tweezer
% tweezer position
-nan -2.4375
% tweezer frequency
0.0000
% tweezer amplitude
10.0000

% end

% frame   58
% time 5.8000
% report space:tweezers
   tweezer         2   tweezer
% tweezer position
-nan -2.4375
% tweezer frequency
0.0000
% tweezer amplitude
10.0000

% end

% frame   59
% time 5.9000
% report space:tweezers
   tweezer         2   tweezer
% tweezer position
-nan -2.4375
% tweezer frequency
0.0000
% tweezer amplitude
10.0000

% end

% frame   60
% time 6.0000
% report space:tweezers
   tweezer         2   tweezer
% tweezer position
-nan -2.4375
% tweezer frequency
0.0000
% tweezer amplitude
10.0000

% end

% frame   61
% time 6.1000
% report space:tweezers
   tweezer         2   tweezer
% tweezer position
-nan -2.4375
% tweezer frequency
0.0000
% tweezer amplitude
10.0000

% end

% frame   62
% time 6.2000
% report space:tweezers
   tweezer         2   tweezer
% tweezer position
-nan -2.4375
% tweezer frequency
0.0000
% tweezer amplitude
10.0000

% end

% frame   63
% time 6.3000
% report space:tweezers
   tweezer         2   tweezer
% tweezer position
-nan -2.4375
% tweezer frequency
0.0000
% tweezer amplitude
10.0000

% end

% frame   64
% time 6.4000
% report space:tweezers
   tweezer         2   tweezer
% tweezer position
-nan -2.4375
% tweezer frequency
0.0000
% tweezer amplitude
10.0000

% end

% frame   65
% time 6.5000
% report space:tweezers
   tweezer         2   tweezer
% tweezer position
-nan -2.4375
% tweezer frequency
0.0000
% tweezer amplitude
10.0000

% end

% frame   66
% time 6.6000
% report space:tweezers
   tweezer         2   tweezer
% tweezer position
-nan -2.4375
% tweezer frequency
0.0000
% tweezer amplitude
10.0000

% end

% frame   67
% time 6.7000
% report space:tweezers
   tweezer         2   tweezer
% tweezer position
-nan -2.4375
% tweezer frequency
0.0000
% tweezer amplitude
10.0000

% end

% frame   68
% time 6.8000
% report space:tweezers
   tweezer         2   tweezer
% tweezer position
-nan -2.4375
% tweezer frequency
0.0000
% tweezer amplitude
10.0000

% end

% frame   69
% time 6.9000
% report space:tweezers
   tweezer         2   tweezer
% tweezer position
-nan -2.4375
% tweezer frequency
0.0000
% tweezer amplitude
10.0000

% end

% frame   70
% time 7.0000
% report space:tweezers
   tweezer         2   tweezer
% tweezer position
-nan -2.4375
% tweezer frequency
0.0000
% tweezer amplitude
10.0000

% end

% frame   71
% time 7.1000
% report space:tweezers
   tweezer         2   tweezer
% tweezer position
-nan -2.4375
% tweezer frequency
0.0000
% tweezer amplitude
10.0000

% end

% frame   72
% time 7.2000
% report space:tweezers
   tweezer         2   tweezer
% tweezer position
-nan -2.4375
% tweezer frequency
0.0000
% tweezer amplitude
10.0000

% end

% frame   73
% time 7.3000
% report space:tweezers
   tweezer         2   tweezer
% tweezer position
-nan -2.4375
% tweezer frequency
0.0000
% tweezer amplitude
10.0000

% end

% frame   74
% time 7.4000
% report space:tweezers
   tweezer         2   tweezer
% tweezer position
-nan -2.4375
% tweezer frequency
0.0000
% tweezer amplitude
10.0000

% end

% frame   75
% time 7.5000
% report space:tweezers
   tweezer         2   tweezer
% tweezer position
-nan -2.4375
% tweezer frequency
0.0000
% tweezer amplitude
10.0000

% end

% frame   76
% time 7.6000
% report space:tweezers
   tweezer         2   tweezer
% tweezer position
-nan -2.4375
% tweezer frequency
0.0000
% tweezer amplitude
10.0000

% end

% frame   77
% time 7.7000
% report space:tweezers
   tweezer         2   tweezer
% tweezer position
-nan -2.4375
% tweezer frequency
0.0000
% tweezer amplitude
10.0000

% end

% frame   78
% time 7.8000
% report space:tweezers
   tweezer         2   tweezer
% tweezer position
-nan -2.4375
% tweezer frequency
0.0000
% tweezer amplitude
10.0000

% end

% frame   79
% time 7.9000
% report space:tweezers
   tweezer         2   tweezer
% tweezer position
-nan -2.4375
% tweezer frequency
0.0000
% tweezer amplitude
10.0000

% end

% frame   80
% time 8.0000
% report space:tweezers
   tweezer         2   tweezer
% tweezer position
-nan -2.4375
% tweezer frequency
0.0000
% tweezer amplitude
10.0000

% end

% frame   81
% time 8.1000
% report space:tweezers
   tweezer         2   tweezer
% tweezer position
-nan -2.4375
% tweezer frequency
0.0000
% tweezer amplitude
10.0000

% end

% frame   82
% time 8.2000
% report space:tweezers
   tweezer         2   tweezer
% tweezer position
-nan -2.4375
% tweezer frequency
0.0000
% tweezer amplitude
10.0000

% end

% frame   83
% time 8.3000
% report space:tweezers
   tweezer         2   tweezer
% tweezer position
-nan -2.4375
% tweezer frequency
0.0000
% tweezer amplitude
10.0000

% end

% frame   84
% time 8.4000
% report space:tweezers
   tweezer         2   tweezer
% tweezer position
-nan -2.4375
% tweezer frequency
0.0000
% tweezer amplitude
10.0000

% end

% frame   85
% time 8.5000
% report space:tweezers
   tweezer         2   tweezer
% tweezer position
-nan -2.4375
% tweezer frequency
0.0000
% tweezer amplitude
10.0000

% end

% frame   86
% time 8.6000
% report space:tweezers
   tweezer         2   tweezer
% tweezer position
-nan -2.4375
% tweezer frequency
0.0000
% tweezer amplitude
10.0000

% end

% frame   87
% time 8.7000
% report space:tweezers
   tweezer         2   tweezer
% tweezer position
-nan -2.4375
% tweezer frequency
0.0000
% tweezer amplitude
10.0000

% end

% frame   88
% time 8.8000
% report space:tweezers
   tweezer         2   tweezer
% tweezer position
-nan -2.4375
% tweezer frequency
0.0000
% tweezer amplitude
10.0000

% end

% frame   89
% time 8.9000
% report space:tweezers
   tweezer         2   tweezer
% tweezer position
-nan -2.4375
% tweezer frequency
0.0000
% tweezer amplitude
10.0000

% end

% frame   90
% time 9.0000
% report space:tweezers
   tweezer         2   tweezer
% tweezer position
-nan -2.4375
% tweezer frequency
0.0000
% tweezer amplitude
10.0000

% end

% frame   91
% time 9.1000
% report space:tweezers
   tweezer         2   tweezer
% tweezer position
-nan -2.4375
% tweezer frequency
0.0000
% tweezer amplitude
10.0000

% end

% frame   92
% time 9.2000
% report space:tweezers
   tweezer         2   tweezer
% tweezer position
-nan -2.4375
% tweezer frequency
0.0000
% tweezer amplitude
10.0000

% end

% frame   93
% time 9.3000
% report space:tweezers
   tweezer         2   tweezer
% tweezer position
-nan -2.4375
% tweezer frequency
0.0000
% tweezer amplitude
10.0000

% end

% frame   94
% time 9.4000
% report space:tweezers
   tweezer         2   tweezer
% tweezer position
-nan -2.4375
% tweezer frequency
0.0000
% tweezer amplitude
10.0000

% end

% frame   95
% time 9.5000
% report space:tweezers
   tweezer         2   tweezer
% tweezer position
-nan -2.4375
% tweezer frequency
0.0000
% tweezer amplitude
10.0000

% end

% frame   96
% time 9.6000
% report space:tweezers
   tweezer         2   tweezer
% tweezer position
-nan -2.4375
% tweezer frequency
0.0000
% tweezer amplitude
10.0000

% end

% frame   97
% time 9.7000
% report space:tweezers
   tweezer         2   tweezer
% tweezer position
-nan -2.4375
% tweezer frequency
0.0000
% tweezer amplitude
10.0000

% end

% frame   98
% time 9.8000
% report space:tweezers
   tweezer         2   tweezer
% tweezer position
-nan -2.4375
% tweezer frequency
0.0000
% tweezer amplitude
10.0000

% end

% frame   99
% time 9.9000
% report space:tweezers
   tweezer         2   tweezer
% tweezer position
-nan -2.4375
% tweezer frequency
0.0000
% tweezer amplitude
10.0000

% end

% frame   100
% time 10.0000
% report space:tweezers
   tweezer         2   tweezer
% tweezer position
-nan -2.4375
% tweezer frequency
0.0000
% tweezer amplitude
10.0000

% end

% frame   101
% time 10.1000
% report space:tweezers
   tweezer         2   tweezer
% tweezer position
-nan -2.4375
% tweezer frequency
0.0000
% tweezer amplitude
10.0000

% end

% frame   102
% time 10.2000
% report space:tweezers
   tweezer         2   tweezer
% tweezer position
-nan -2.4375
% tweezer frequency
0.0000
% tweezer amplitude
10.0000

% end

% frame   103
% time 10.3000
% report space:tweezers
   tweezer         2   tweezer
% tweezer position
-nan -2.4375
% tweezer frequency
0.0000
% tweezer amplitude
10.0000

% end

% frame   104
% time 10.4000
% report space:tweezers
   tweezer         2   tweezer
% tweezer position
-nan -2.4375
% tweezer frequency
0.0000
% tweezer amplitude
10.0000

% end

% frame   105
% time 10.5000
% report space:tweezers
   tweezer         2   tweezer
% tweezer position
-nan -2.4375
% tweezer frequency
0.0000
% tweezer amplitude
10.0000

% end

% frame   106
% time 10.6000
% report space:tweezers
   tweezer         2   tweezer
% tweezer position
-nan -2.4375
% tweezer frequency
0.0000
% tweezer amplitude
10.0000

% end

% frame   107
% time 10.7000
% report space:tweezers
   tweezer         2   tweezer
% tweezer position
-nan -2.4375
% tweezer frequency
0.0000
% tweezer amplitude
10.0000

% end

% frame   108
% time 10.8000
% report space:tweezers
   tweezer         2   tweezer
% tweezer position
-nan -2.4375
% tweezer frequency
0.0000
% tweezer amplitude
10.0000

% end

% frame   109
% time 10.9000
% report space:tweezers
   tweezer         2   tweezer
% tweezer position
-nan -2.4375
% tweezer frequency
0.0000
% tweezer amplitude
10.0000

% end

% frame   110
% time 11.0000
% report space:tweezers
   tweezer         2   tweezer
% tweezer position
-nan -2.4375
% tweezer frequency
0.0000
% tweezer amplitude
10.0000

% end

% frame   111
% time 11.1000
% report space:tweezers
   tweezer         2   tweezer
% tweezer position
-nan -2.4375
% tweezer frequency
0.0000
% tweezer amplitude
10.0000

% end

% frame   112
% time 11.2000
% report space:tweezers
   tweezer         2   tweezer
% tweezer position
-nan -2.4375
% tweezer frequency
0.0000
% tweezer amplitude
10.0000

% end

% frame   113
% time 11.3000
% report space:tweezers
   tweezer         2   tweezer
% tweezer position
-nan -2.4375
% tweezer frequency
0.0000
% tweezer amplitude
10.0000

% end

% frame   114
% time 11.4000
% report space:tweezers
   tweezer         2   tweezer
% tweezer position
-nan -2.4375
% tweezer frequency
0.0000
% tweezer amplitude
10.0000

% end

% frame   115
% time 11.5000
% report space:tweezers
   tweezer         2   tweezer
% tweezer position
-nan -2.4375
% tweezer frequency
0.0000
% tweezer amplitude
10.0000

% end

% frame   116
% time 11.6000
% report space:tweezers
   tweezer         2   tweezer
% tweezer position
-nan -2.4375
% tweezer frequency
0.0000
% tweezer amplitude
10.0000

% end

% frame   117
% time 11.7000
% report space:tweezers
   tweezer         2   tweezer
% tweezer position
-nan -2.4375
% tweezer frequency
0.0000
% tweezer amplitude
10.0000

% end

% frame   118
% time 11.8000
% report space:tweezers
   tweezer         2   tweezer
% tweezer position
-nan -2.4375
% tweezer frequency
0.0000
% tweezer amplitude
10.0000

% end

% frame   119
% time 11.9000
% report space:tweezers
   tweezer         2   tweezer
% tweezer position
-nan -2.4375
% tweezer frequency
0.0000
% tweezer amplitude
10.0000

% end

% frame   120
% time 12.0000
% report space:tweezers
   tweezer         2   tweezer
% tweezer position
-nan -2.4375
% tweezer frequency
0.0000
% tweezer amplitude
10.0000

% end

% frame   121
% time 12.1000
% report space:tweezers
   tweezer         2   tweezer
% tweezer position
-nan -2.4375
% tweezer frequency
0.0000
% tweezer amplitude
10.0000

% end

% frame   122
% time 12.2000
% report space:tweezers
   tweezer         2   tweezer
% tweezer position
-nan -2.4375
% tweezer frequency
0.0000
% tweezer amplitude
10.0000

% end

% frame   123
% time 12.3000
% report space:tweezers
   tweezer         2   tweezer
% tweezer position
-nan -2.4375
% tweezer frequency
0.0000
% tweezer amplitude
10.0000

% end

% frame   124
% time 12.4000
% report space:tweezers
   tweezer         2   tweezer
% tweezer position
-nan -2.4375
% tweezer frequency
0.0000
% tweezer amplitude
10.0000

% end

% frame   125
% time 12.5000
% report space:tweezers
   tweezer         2   tweezer
% tweezer position
-nan -2.4375
% tweezer frequency
0.0000
% tweezer amplitude
10.0000

% end

% frame   126
% time 12.6000
% report space:tweezers
   tweezer         2   tweezer
% tweezer position
-nan -2.4375
% tweezer frequency
0.0000
% tweezer amplitude
10.0000

% end

% frame   127
% time 12.7000
% report space:tweezers
   tweezer         2   tweezer
% tweezer position
-nan -2.4375
% tweezer frequency
0.0000
% tweezer amplitude
10.0000

% end

% frame   128
% time 12.8000
% report space:tweezers
   tweezer         2   tweezer
% tweezer position
-nan -2.4375
% tweezer frequency
0.0000
% tweezer amplitude
10.0000

% end

% frame   129
% time 12.9000
% report space:tweezers
   tweezer         2   tweezer
% tweezer position
-nan -2.4375
% tweezer frequency
0.0000
% tweezer amplitude
10.0000

% end

% frame   130
% time 13.0000
% report space:tweezers
   tweezer         2   tweezer
% tweezer position
-nan -2.4375
% tweezer frequency
0.0000
% tweezer amplitude
10.0000

% end

% frame   131
% time 13.1000
% report space:tweezers
   tweezer         2   tweezer
% tweezer position
-nan -2.4375
% tweezer frequency
0.0000
% tweezer amplitude
10.0000

% end

% frame   132
% time 13.2000
% report space:tweezers
   tweezer         2   tweezer
% tweezer position
-nan -2.4375
% tweezer frequency
0.0000
% tweezer amplitude
10.0000

% end

% frame   133
% time 13.3000
% report space:tweezers
   tweezer         2   tweezer
% tweezer position
-nan -2.4375
% tweezer frequency
0.0000
% tweezer amplitude
10.0000

% end

% frame   134
% time 13.4000
% report space:tweezers
   tweezer         2   tweezer
% tweezer position
-nan -2.4375
% tweezer frequency
0.0000
% tweezer amplitude
10.0000

% end

% frame   135
% time 13.5000
% report space:tweezers
   tweezer         2   tweezer
% tweezer position
-nan -2.4375
% tweezer frequency
0.0000
% tweezer amplitude
10.0000

% end

% frame   136
% time 13.6000
% report space:tweezers
   tweezer         2   tweezer
% tweezer position
-nan -2.4375
% tweezer frequency
0.0000
% tweezer amplitude
10.0000

% end

% frame   137
% time 13.7000
% report space:tweezers
   tweezer         2   tweezer
% tweezer position
-nan -2.4375
% tweezer frequency
0.0000
% tweezer amplitude
10.0000

% end

% frame   138
% time 13.8000
% report space:tweezers
   tweezer         2   tweezer
% tweezer position
-nan -2.4375
% tweezer frequency
0.0000
% tweezer amplitude
10.0000

% end

% frame   139
% time 13.9000
% report space:tweezers
   tweezer         2   tweezer
% tweezer position
-nan -2.4375
% tweezer frequency
0.0000
% tweezer amplitude
10.0000

% end

% frame   140
% time 14.0000
% report space:tweezers
   tweezer         2   tweezer
% tweezer position
-nan -2.4375
% tweezer frequency
0.0000
% tweezer amplitude
10.0000

% end

% frame   141
% time 14.1000
% report space:tweezers
   tweezer         2   tweezer
% tweezer position
-nan -2.4375
% tweezer frequency
0.0000
% tweezer amplitude
10.0000

% end

% frame   142
% time 14.2000
% report space:tweezers
   tweezer         2   tweezer
% tweezer position
-nan -2.4375
% tweezer frequency
0.0000
% tweezer amplitude
10.0000

% end

% frame   143
% time 14.3000
% report space:tweezers
   tweezer         2   tweezer
% tweezer position
-nan -2.4375
% tweezer frequency
0.0000
% tweezer amplitude
10.0000

% end

% frame   144
% time 14.4000
% report space:tweezers
   tweezer         2   tweezer
% tweezer position
-nan -2.4375
% tweezer frequency
0.0000
% tweezer amplitude
10.0000

% end

% frame   145
% time 14.5000
% report space:tweezers
   tweezer         2   tweezer
% tweezer position
-nan -2.4375
% tweezer frequency
0.0000
% tweezer amplitude
10.0000

% end

% frame   146
% time 14.6000
% report space:tweezers
   tweezer         2   tweezer
% tweezer position
-nan -2.4375
% tweezer frequency
0.0000
% tweezer amplitude
10.0000

% end

% frame   147
% time 14.7000
% report space:tweezers
   tweezer         2   tweezer
% tweezer position
-nan -2.4375
% tweezer frequency
0.0000
% tweezer amplitude
10.0000

% end

% frame   148
% time 14.8000
% report space:tweezers
   tweezer         2   tweezer
% tweezer position
-nan -2.4375
% tweezer frequency
0.0000
% tweezer amplitude
10.0000

% end

% frame   149
% time 14.9000
% report space:tweezers
   tweezer         2   tweezer
% tweezer position
-nan -2.4375
% tweezer frequency
0.0000
% tweezer amplitude
10.0000

% end

% frame   150
% time 15.0000
% report space:tweezers
   tweezer         2   tweezer
% tweezer position
-nan -2.4375
% tweezer frequency
0.0000
% tweezer amplitude
10.0000

% end

% frame   151
% time 15.1000
% report space:tweezers
   tweezer         2   tweezer
% tweezer position
-nan -2.4375
% tweezer frequency
0.0000
% tweezer amplitude
10.0000

% end

% frame   152
% time 15.2000
% report space:tweezers
   tweezer         2   tweezer
% tweezer position
-nan -2.4375
% tweezer frequency
0.0000
% tweezer amplitude
10.0000

% end

% frame   153
% time 15.3000
% report space:tweezers
   tweezer         2   tweezer
% tweezer position
-nan -2.4375
% tweezer frequency
0.0000
% tweezer amplitude
10.0000

% end

% frame   154
% time 15.4000
% report space:tweezers
   tweezer         2   tweezer
% tweezer position
-nan -2.4375
% tweezer frequency
0.0000
% tweezer amplitude
10.0000

% end

% frame   155
% time 15.5000
% report space:tweezers
   tweezer         2   tweezer
% tweezer position
-nan -2.4375
% tweezer frequency
0.0000
% tweezer amplitude
10.0000

% end

% frame   156
% time 15.6000
% report space:tweezers
   tweezer         2   tweezer
% tweezer position
-nan -2.4375
% tweezer frequency
0.0000
% tweezer amplitude
10.0000

% end

% frame   157
% time 15.7000
% report space:tweezers
   tweezer         2   tweezer
% tweezer position
-nan -2.4375
% tweezer frequency
0.0000
% tweezer amplitude
10.0000

% end

% frame   158
% time 15.8000
% report space:tweezers
   tweezer         2   tweezer
% tweezer position
-nan -2.4375
% tweezer frequency
0.0000
% tweezer amplitude
10.0000

% end

% frame   159
% time 15.9000
% report space:tweezers
   tweezer         2   tweezer
% tweezer position
-nan -2.4375
% tweezer frequency
0.0000
% tweezer amplitude
10.0000

% end

% frame   160
% time 16.0000
% report space:tweezers
   tweezer         2   tweezer
% tweezer position
-nan -2.4375
% tweezer frequency
0.0000
% tweezer amplitude
10.0000

% end

% frame   161
% time 16.1000
% report space:tweezers
   tweezer         2   tweezer
% tweezer position
-nan -2.4375
% tweezer frequency
0.0000
% tweezer amplitude
10.0000

% end

% frame   162
% time 16.2000
% report space:tweezers
   tweezer         2   tweezer
% tweezer position
-nan -2.4375
% tweezer frequency
0.0000
% tweezer amplitude
10.0000

% end

% frame   163
% time 16.3000
% report space:tweezers
   tweezer         2   tweezer
% tweezer position
-nan -2.4375
% tweezer frequency
0.0000
% tweezer amplitude
10.0000

% end

% frame   164
% time 16.4000
% report space:tweezers
   tweezer         2   tweezer
% tweezer position
-nan -2.4375
% tweezer frequency
0.0000
% tweezer amplitude
10.0000

% end

% frame   165
% time 16.5000
% report space:tweezers
   tweezer         2   tweezer
% tweezer position
-nan -2.4375
% tweezer frequency
0.0000
% tweezer amplitude
10.0000

% end

% frame   166
% time 16.6000
% report space:tweezers
   tweezer         2   tweezer
% tweezer position
-nan -2.4375
% tweezer frequency
0.0000
% tweezer amplitude
10.0000

% end

% frame   167
% time 16.7000
% report space:tweezers
   tweezer         2   tweezer
% tweezer position
-nan -2.4375
% tweezer frequency
0.0000
% tweezer amplitude
10.0000

% end

% frame   168
% time 16.8000
% report space:tweezers
   tweezer         2   tweezer
% tweezer position
-nan -2.4375
% tweezer frequency
0.0000
% tweezer amplitude
10.0000

% end

% frame   169
% time 16.9000
% report space:tweezers
   tweezer         2   tweezer
% tweezer position
-nan -2.4375
% tweezer frequency
0.0000
% tweezer amplitude
10.0000

% end

% frame   170
% time 17.0000
% report space:tweezers
   tweezer         2   tweezer
% tweezer position
-nan -2.4375
% tweezer frequency
0.0000
% tweezer amplitude
10.0000

% end

% frame   171
% time 17.1000
% report space:tweezers
   tweezer         2   tweezer
% tweezer position
-nan -2.4375
% tweezer frequency
0.0000
% tweezer amplitude
10.0000

% end

% frame   172
% time 17.2000
% report space:tweezers
   tweezer         2   tweezer
% tweezer position
-nan -2.4375
% tweezer frequency
0.0000
% tweezer amplitude
10.0000

% end

% frame   173
% time 17.3000
% report space:tweezers
   tweezer         2   tweezer
% tweezer position
-nan -2.4375
% tweezer frequency
0.0000
% tweezer amplitude
10.0000

% end

% frame   174
% time 17.4000
% report space:tweezers
   tweezer         2   tweezer
% tweezer position
-nan -2.4375
% tweezer frequency
0.0000
% tweezer amplitude
10.0000

% end

% frame   175
% time 17.5000
% report space:tweezers
   tweezer         2   tweezer
% tweezer position
-nan -2.4375
% tweezer frequency
0.0000
% tweezer amplitude
10.0000

% end

% frame   176
% time 17.6000
% report space:tweezers
   tweezer         2   tweezer
% tweezer position
-nan -2.4375
% tweezer frequency
0.0000
% tweezer amplitude
10.0000

% end

% frame   177
% time 17.7000
% report space:tweezers
   tweezer         2   tweezer
% tweezer position
-nan -2.4375
% tweezer frequency
0.0000
% tweezer amplitude
10.0000

% end

% frame   178
% time 17.8000
% report space:tweezers
   tweezer         2   tweezer
% tweezer position
-nan -2.4375
% tweezer frequency
0.0000
% tweezer amplitude
10.0000

% end

% frame   179
% time 17.9000
% report space:tweezers
   tweezer         2   tweezer
% tweezer position
-nan -2.4375
% tweezer frequency
0.0000
% tweezer amplitude
10.0000

% end

% frame   180
% time 18.0000
% report space:tweezers
   tweezer         2   tweezer
% tweezer position
-nan -2.4375
% tweezer frequency
0.0000
% tweezer amplitude
10.0000

% end

% frame   181
% time 18.1000
% report space:tweezers
   tweezer         2   tweezer
% tweezer position
-nan -2.4375
% tweezer frequency
0.0000
% tweezer amplitude
10.0000

% end

% frame   182
% time 18.2000
% report space:tweezers
   tweezer         2   tweezer
% tweezer position
-nan -2.4375
% tweezer frequency
0.0000
% tweezer amplitude
10.0000

% end

% frame   183
% time 18.3000
% report space:tweezers
   tweezer         2   tweezer
% tweezer position
-nan -2.4375
% tweezer frequency
0.0000
% tweezer amplitude
10.0000

% end

% frame   184
% time 18.4000
% report space:tweezers
   tweezer         2   tweezer
% tweezer position
-nan -2.4375
% tweezer frequency
0.0000
% tweezer amplitude
10.0000

% end

% frame   185
% time 18.5000
% report space:tweezers
   tweezer         2   tweezer
% tweezer position
-nan -2.4375
% tweezer frequency
0.0000
% tweezer amplitude
10.0000

% end

% frame   186
% time 18.6000
% report space:tweezers
   tweezer         2   tweezer
% tweezer position
-nan -2.4375
% tweezer frequency
0.0000
% tweezer amplitude
10.0000

% end

% frame   187
% time 18.7000
% report space:tweezers
   tweezer         2   tweezer
% tweezer position
-nan -2.4375
% tweezer frequency
0.0000
% tweezer amplitude
10.0000

% end

% frame   188
% time 18.8000
% report space:tweezers
   tweezer         2   tweezer
% tweezer position
-nan -2.4375
% tweezer frequency
0.0000
% tweezer amplitude
10.0000

% end

% frame   189
% time 18.9000
% report space:tweezers
   tweezer         2   tweezer
% tweezer position
-nan -2.4375
% tweezer frequency
0.0000
% tweezer amplitude
10.0000

% end

% frame   190
% time 19.0000
% report space:tweezers
   tweezer         2   tweezer
% tweezer position
-nan -2.4375
% tweezer frequency
0.0000
% tweezer amplitude
10.0000

% end

% frame   191
% time 19.1000
% report space:tweezers
   tweezer         2   tweezer
% tweezer position
-nan -2.4375
% tweezer frequency
0.0000
% tweezer amplitude
10.0000

% end

% frame   192
% time 19.2000
% report space:tweezers
   tweezer         2   tweezer
% tweezer position
-nan -2.4375
% tweezer frequency
0.0000
% tweezer amplitude
10.0000

% end

% frame   193
% time 19.3000
% report space:tweezers
   tweezer         2   tweezer
% tweezer position
-nan -2.4375
% tweezer frequency
0.0000
% tweezer amplitude
10.0000

% end

% frame   194
% time 19.4000
% report space:tweezers
   tweezer         2   tweezer
% tweezer position
-nan -2.4375
% tweezer frequency
0.0000
% tweezer amplitude
10.0000

% end

% frame   195
% time 19.5000
% report space:tweezers
   tweezer         2   tweezer
% tweezer position
-nan -2.4375
% tweezer frequency
0.0000
% tweezer amplitude
10.0000

% end

% frame   196
% time 19.6000
% report space:tweezers
   tweezer         2   tweezer
% tweezer position
-nan -2.4375
% tweezer frequency
0.0000
% tweezer amplitude
10.0000

% end

% frame   197
% time 19.7000
% report space:tweezers
   tweezer         2   tweezer
% tweezer position
-nan -2.4375
% tweezer frequency
0.0000
% tweezer amplitude
10.0000

% end

% frame   198
% time 19.8000
% report space:tweezers
   tweezer         2   tweezer
% tweezer position
-nan -2.4375
% tweezer frequency
0.0000
% tweezer amplitude
10.0000

% end

% frame   199
% time 19.9000
% report space:tweezers
   tweezer         2   tweezer
% tweezer position
-nan -2.4375
% tweezer frequency
0.0000
% tweezer amplitude
10.0000

% end

% frame   200
% time 20.0000
% report space:tweezers
   tweezer         2   tweezer
% tweezer position
-nan -2.4375
% tweezer frequency
0.0000
% tweezer amplitude
10.0000

% end

% frame   201
% time 20.1000
% report space:tweezers
   tweezer         2   tweezer
% tweezer position
-nan -2.4375
% tweezer frequency
0.0000
% tweezer amplitude
10.0000

% end

% frame   202
% time 20.2000
% report space:tweezers
   tweezer         2   tweezer
% tweezer position
-nan -2.4375
% tweezer frequency
0.0000
% tweezer amplitude
10.0000

% end

% frame   203
% time 20.3000
% report space:tweezers
   tweezer         2   tweezer
% tweezer position
-nan -2.4375
% tweezer frequency
0.0000
% tweezer amplitude
10.0000

% end

% frame   204
% time 20.4000
% report space:tweezers
   tweezer         2   tweezer
% tweezer position
-nan -2.4375
% tweezer frequency
0.0000
% tweezer amplitude
10.0000

% end

% frame   205
% time 20.5000
% report space:tweezers
   tweezer         2   tweezer
% tweezer position
-nan -2.4375
% tweezer frequency
0.0000
% tweezer amplitude
10.0000

% end

% frame   206
% time 20.6000
% report space:tweezers
   tweezer         2   tweezer
% tweezer position
-nan -2.4375
% tweezer frequency
0.0000
% tweezer amplitude
10.0000

% end

% frame   207
% time 20.7000
% report space:tweezers
   tweezer         2   tweezer
% tweezer position
-nan -2.4375
% tweezer frequency
0.0000
% tweezer amplitude
10.0000

% end

% frame   208
% time 20.8000
% report space:tweezers
   tweezer         2   tweezer
% tweezer position
-nan -2.4375
% tweezer frequency
0.0000
% tweezer amplitude
10.0000

% end

% frame   209
% time 20.9000
% report space:tweezers
   tweezer         2   tweezer
% tweezer position
-nan -2.4375
% tweezer frequency
0.0000
% tweezer amplitude
10.0000

% end

% frame   210
% time 21.0000
% report space:tweezers
   tweezer         2   tweezer
% tweezer position
-nan -2.4375
% tweezer frequency
0.0000
% tweezer amplitude
10.0000

% end

% frame   211
% time 21.1000
% report space:tweezers
   tweezer         2   tweezer
% tweezer position
-nan -2.4375
% tweezer frequency
0.0000
% tweezer amplitude
10.0000

% end

% frame   212
% time 21.2000
% report space:tweezers
   tweezer         2   tweezer
% tweezer position
-nan -2.4375
% tweezer frequency
0.0000
% tweezer amplitude
10.0000

% end

% frame   213
% time 21.3000
% report space:tweezers
   tweezer         2   tweezer
% tweezer position
-nan -2.4375
% tweezer frequency
0.0000
% tweezer amplitude
10.0000

% end

% frame   214
% time 21.4000
% report space:tweezers
   tweezer         2   tweezer
% tweezer position
-nan -2.4375
% tweezer frequency
0.0000
% tweezer amplitude
10.0000

% end

% frame   215
% time 21.5000
% report space:tweezers
   tweezer         2   tweezer
% tweezer position
-nan -2.4375
% tweezer frequency
0.0000
% tweezer amplitude
10.0000

% end

% frame   216
% time 21.6000
% report space:tweezers
   tweezer         2   tweezer
% tweezer position
-nan -2.4375
% tweezer frequency
0.0000
% tweezer amplitude
10.0000

% end

% frame   217
% time 21.7000
% report space:tweezers
   tweezer         2   tweezer
% tweezer position
-nan -2.4375
% tweezer frequency
0.0000
% tweezer amplitude
10.0000

% end

% frame   218
% time 21.8000
% report space:tweezers
   tweezer         2   tweezer
% tweezer position
-nan -2.4375
% tweezer frequency
0.0000
% tweezer amplitude
10.0000

% end

% frame   219
% time 21.9000
% report space:tweezers
   tweezer         2   tweezer
% tweezer position
-nan -2.4375
% tweezer frequency
0.0000
% tweezer amplitude
10.0000

% end

% frame   220
% time 22.0000
% report space:tweezers
   tweezer         2   tweezer
% tweezer position
-nan -2.4375
% tweezer frequency
0.0000
% tweezer amplitude
10.0000

% end

% frame   221
% time 22.1000
% report space:tweezers
   tweezer         2   tweezer
% tweezer position
-nan -2.4375
% tweezer frequency
0.0000
% tweezer amplitude
10.0000

% end

% frame   222
% time 22.2000
% report space:tweezers
   tweezer         2   tweezer
% tweezer position
-nan -2.4375
% tweezer frequency
0.0000
% tweezer amplitude
10.0000

% end

% frame   223
% time 22.3000
% report space:tweezers
   tweezer         2   tweezer
% tweezer position
-nan -2.4375
% tweezer frequency
0.0000
% tweezer amplitude
10.0000

% end

% frame   224
% time 22.4000
% report space:tweezers
   tweezer         2   tweezer
% tweezer position
-nan -2.4375
% tweezer frequency
0.0000
% tweezer amplitude
10.0000

% end

% frame   225
% time 22.5000
% report space:tweezers
   tweezer         2   tweezer
% tweezer position
-nan -2.4375
% tweezer frequency
0.0000
% tweezer amplitude
10.0000

% end

% frame   226
% time 22.6000
% report space:tweezers
   tweezer         2   tweezer
% tweezer position
-nan -2.4375
% tweezer frequency
0.0000
% tweezer amplitude
10.0000

% end

% frame   227
% time 22.7000
% report space:tweezers
   tweezer         2   tweezer
% tweezer position
-nan -2.4375
% tweezer frequency
0.0000
% tweezer amplitude
10.0000

% end

% frame   228
% time 22.8000
% report space:tweezers
   tweezer         2   tweezer
% tweezer position
-nan -2.4375
% tweezer frequency
0.0000
% tweezer amplitude
10.0000

% end

% frame   229
% time 22.9000
% report space:tweezers
   tweezer         2   tweezer
% tweezer position
-nan -2.4375
% tweezer frequency
0.0000
% tweezer amplitude
10.0000

% end

% frame   230
% time 23.0000
% report space:tweezers
   tweezer         2   tweezer
% tweezer position
-nan -2.4375
% tweezer frequency
0.0000
% tweezer amplitude
10.0000

% end

% frame   231
% time 23.1000
% report space:tweezers
   tweezer         2   tweezer
% tweezer position
-nan -2.4375
% tweezer frequency
0.0000
% tweezer amplitude
10.0000

% end

% frame   232
% time 23.2000
% report space:tweezers
   tweezer         2   tweezer
% tweezer position
-nan -2.4375
% tweezer frequency
0.0000
% tweezer amplitude
10.0000

% end

% frame   233
% time 23.3000
% report space:tweezers
   tweezer         2   tweezer
% tweezer position
-nan -2.4375
% tweezer frequency
0.0000
% tweezer amplitude
10.0000

% end

% frame   234
% time 23.4000
% report space:tweezers
   tweezer         2   tweezer
% tweezer position
-nan -2.4375
% tweezer frequency
0.0000
% tweezer amplitude
10.0000

% end

% frame   235
% time 23.5000
% report space:tweezers
   tweezer         2   tweezer
% tweezer position
-nan -2.4375
% tweezer frequency
0.0000
% tweezer amplitude
10.0000

% end

% frame   236
% time 23.6000
% report space:tweezers
   tweezer         2   tweezer
% tweezer position
-nan -2.4375
% tweezer frequency
0.0000
% tweezer amplitude
10.0000

% end

% frame   237
% time 23.7000
% report space:tweezers
   tweezer         2   tweezer
% tweezer position
-nan -2.4375
% tweezer frequency
0.0000
% tweezer amplitude
10.0000

% end

% frame   238
% time 23.8000
% report space:tweezers
   tweezer         2   tweezer
% tweezer position
-nan -2.4375
% tweezer frequency
0.0000
% tweezer amplitude
10.0000

% end

% frame   239
% time 23.9000
% report space:tweezers
   tweezer         2   tweezer
% tweezer position
-nan -2.4375
% tweezer frequency
0.0000
% tweezer amplitude
10.0000

% end

% frame   240
% time 24.0000
% report space:tweezers
   tweezer         2   tweezer
% tweezer position
-nan -2.4375
% tweezer frequency
0.0000
% tweezer amplitude
10.0000

% end

% frame   241
% time 24.1000
% report space:tweezers
   tweezer         2   tweezer
% tweezer position
-nan -2.4375
% tweezer frequency
0.0000
% tweezer amplitude
10.0000

% end

% frame   242
% time 24.2000
% report space:tweezers
   tweezer         2   tweezer
% tweezer position
-nan -2.4375
% tweezer frequency
0.0000
% tweezer amplitude
10.0000

% end

% frame   243
% time 24.3000
% report space:tweezers
   tweezer         2   tweezer
% tweezer position
-nan -2.4375
% tweezer frequency
0.0000
% tweezer amplitude
10.0000

% end

% frame   244
% time 24.4000
% report space:tweezers
   tweezer         2   tweezer
% tweezer position
-nan -2.4375
% tweezer frequency
0.0000
% tweezer amplitude
10.0000

% end

% frame   245
% time 24.5000
% report space:tweezers
   tweezer         2   tweezer
% tweezer position
-nan -2.4375
% tweezer frequency
0.0000
% tweezer amplitude
10.0000

% end

% frame   246
% time 24.6000
% report space:tweezers
   tweezer         2   tweezer
% tweezer position
-nan -2.4375
% tweezer frequency
0.0000
% tweezer amplitude
10.0000

% end

% frame   247
% time 24.7000
% report space:tweezers
   tweezer         2   tweezer
% tweezer position
-nan -2.4375
% tweezer frequency
0.0000
% tweezer amplitude
10.0000

% end

% frame   248
% time 24.8000
% report space:tweezers
   tweezer         2   tweezer
% tweezer position
-nan -2.4375
% tweezer frequency
0.0000
% tweezer amplitude
10.0000

% end

% frame   249
% time 24.9000
% report space:tweezers
   tweezer         2   tweezer
% tweezer position
-nan -2.4375
% tweezer frequency
0.0000
% tweezer amplitude
10.0000

% end

% frame   250
% time 25.0000
% report space:tweezers
   tweezer         2   tweezer
% tweezer position
-nan -2.4375
% tweezer frequency
0.0000
% tweezer amplitude
10.0000

% end

% frame   251
% time 25.1000
% report space:tweezers
   tweezer         2   tweezer
% tweezer position
-nan -2.4375
% tweezer frequency
0.0000
% tweezer amplitude
10.0000

% end

% frame   252
% time 25.2000
% report space:tweezers
   tweezer         2   tweezer
% tweezer position
-nan -2.4375
% tweezer frequency
0.0000
% tweezer amplitude
10.0000

% end

% frame   253
% time 25.3000
% report space:tweezers
   tweezer         2   tweezer
% tweezer position
-nan -2.4375
% tweezer frequency
0.0000
% tweezer amplitude
10.0000

% end

% frame   254
% time 25.4000
% report space:tweezers
   tweezer         2   tweezer
% tweezer position
-nan -2.4375
% tweezer frequency
0.0000
% tweezer amplitude
10.0000

% end

% frame   255
% time 25.5000
% report space:tweezers
   tweezer         2   tweezer
% tweezer position
-nan -2.4375
% tweezer frequency
0.0000
% tweezer amplitude
10.0000

% end

% frame   256
% time 25.6000
% report space:tweezers
   tweezer         2   tweezer
% tweezer position
-nan -2.4375
% tweezer frequency
0.0000
% tweezer amplitude
10.0000

% end

% frame   257
% time 25.7000
% report space:tweezers
   tweezer         2   tweezer
% tweezer position
-nan -2.4375
% tweezer frequency
0.0000
% tweezer amplitude
10.0000

% end

% frame   258
% time 25.8000
% report space:tweezers
   tweezer         2   tweezer
% tweezer position
-nan -2.4375
% tweezer frequency
0.0000
% tweezer amplitude
10.0000

% end

% frame   259
% time 25.9000
% report space:tweezers
   tweezer         2   tweezer
% tweezer position
-nan -2.4375
% tweezer frequency
0.0000
% tweezer amplitude
10.0000

% end

% frame   260
% time 26.0000
% report space:tweezers
   tweezer         2   tweezer
% tweezer position
-nan -2.4375
% tweezer frequency
0.0000
% tweezer amplitude
10.0000

% end

% frame   261
% time 26.1000
% report space:tweezers
   tweezer         2   tweezer
% tweezer position
-nan -2.4375
% tweezer frequency
0.0000
% tweezer amplitude
10.0000

% end

% frame   262
% time 26.2000
% report space:tweezers
   tweezer         2   tweezer
% tweezer position
-nan -2.4375
% tweezer frequency
0.0000
% tweezer amplitude
10.0000

% end

% frame   263
% time 26.3000
% report space:tweezers
   tweezer         2   tweezer
% tweezer position
-nan -2.4375
% tweezer frequency
0.0000
% tweezer amplitude
10.0000

% end

% frame   264
% time 26.4000
% report space:tweezers
   tweezer         2   tweezer
% tweezer position
-nan -2.4375
% tweezer frequency
0.0000
% tweezer amplitude
10.0000

% end

% frame   265
% time 26.5000
% report space:tweezers
   tweezer         2   tweezer
% tweezer position
-nan -2.4375
% tweezer frequency
0.0000
% tweezer amplitude
10.0000

% end

% frame   266
% time 26.6000
% report space:tweezers
   tweezer         2   tweezer
% tweezer position
-nan -2.4375
% tweezer frequency
0.0000
% tweezer amplitude
10.0000

% end

% frame   267
% time 26.7000
% report space:tweezers
   tweezer         2   tweezer
% tweezer position
-nan -2.4375
% tweezer frequency
0.0000
% tweezer amplitude
10.0000

% end

% frame   268
% time 26.8000
% report space:tweezers
   tweezer         2   tweezer
% tweezer position
-nan -2.4375
% tweezer frequency
0.0000
% tweezer amplitude
10.0000

% end

% frame   269
% time 26.9000
% report space:tweezers
   tweezer         2   tweezer
% tweezer position
-nan -2.4375
% tweezer frequency
0.0000
% tweezer amplitude
10.0000

% end

% frame   270
% time 27.0000
% report space:tweezers
   tweezer         2   tweezer
% tweezer position
-nan -2.4375
% tweezer frequency
0.0000
% tweezer amplitude
10.0000

% end

% frame   271
% time 27.1000
% report space:tweezers
   tweezer         2   tweezer
% tweezer position
-nan -2.4375
% tweezer frequency
0.0000
% tweezer amplitude
10.0000

% end

% frame   272
% time 27.2000
% report space:tweezers
   tweezer         2   tweezer
% tweezer position
-nan -2.4375
% tweezer frequency
0.0000
% tweezer amplitude
10.0000

% end

% frame   273
% time 27.3000
% report space:tweezers
   tweezer         2   tweezer
% tweezer position
-nan -2.4375
% tweezer frequency
0.0000
% tweezer amplitude
10.0000

% end

% frame   274
% time 27.4000
% report space:tweezers
   tweezer         2   tweezer
% tweezer position
-nan -2.4375
% tweezer frequency
0.0000
% tweezer amplitude
10.0000

% end

% frame   275
% time 27.5000
% report space:tweezers
   tweezer         2   tweezer
% tweezer position
-nan -2.4375
% tweezer frequency
0.0000
% tweezer amplitude
10.0000

% end

% frame   276
% time 27.6000
% report space:tweezers
   tweezer         2   tweezer
% tweezer position
-nan -2.4375
% tweezer frequency
0.0000
% tweezer amplitude
10.0000

% end

% frame   277
% time 27.7000
% report space:tweezers
   tweezer         2   tweezer
% tweezer position
-nan -2.4375
% tweezer frequency
0.0000
% tweezer amplitude
10.0000

% end

% frame   278
% time 27.8000
% report space:tweezers
   tweezer         2   tweezer
% tweezer position
-nan -2.4375
% tweezer frequency
0.0000
% tweezer amplitude
10.0000

% end

% frame   279
% time 27.9000
% report space:tweezers
   tweezer         2   tweezer
% tweezer position
-nan -2.4375
% tweezer frequency
0.0000
% tweezer amplitude
10.0000

% end

% frame   280
% time 28.0000
% report space:tweezers
   tweezer         2   tweezer
% tweezer position
-nan -2.4375
% tweezer frequency
0.0000
% tweezer amplitude
10.0000

% end

% frame   281
% time 28.1000
% report space:tweezers
   tweezer         2   tweezer
% tweezer position
-nan -2.4375
% tweezer frequency
0.0000
% tweezer amplitude
10.0000

% end

% frame   282
% time 28.2000
% report space:tweezers
   tweezer         2   tweezer
% tweezer position
-nan -2.4375
% tweezer frequency
0.0000
% tweezer amplitude
10.0000

% end

% frame   283
% time 28.3000
% report space:tweezers
   tweezer         2   tweezer
% tweezer position
-nan -2.4375
% tweezer frequency
0.0000
% tweezer amplitude
10.0000

% end

% frame   284
% time 28.4000
% report space:tweezers
   tweezer         2   tweezer
% tweezer position
-nan -2.4375
% tweezer frequency
0.0000
% tweezer amplitude
10.0000

% end

% frame   285
% time 28.5000
% report space:tweezers
   tweezer         2   tweezer
% tweezer position
-nan -2.4375
% tweezer frequency
0.0000
% tweezer amplitude
10.0000

% end

% frame   286
% time 28.6000
% report space:tweezers
   tweezer         2   tweezer
% tweezer position
-nan -2.4375
% tweezer frequency
0.0000
% tweezer amplitude
10.0000

% end

% frame   287
% time 28.7000
% report space:tweezers
   tweezer         2   tweezer
% tweezer position
-nan -2.4375
% tweezer frequency
0.0000
% tweezer amplitude
10.0000

% end

% frame   288
% time 28.8000
% report space:tweezers
   tweezer         2   tweezer
% tweezer position
-nan -2.4375
% tweezer frequency
0.0000
% tweezer amplitude
10.0000

% end

% frame   289
% time 28.9000
% report space:tweezers
   tweezer         2   tweezer
% tweezer position
-nan -2.4375
% tweezer frequency
0.0000
% tweezer amplitude
10.0000

% end

% frame   290
% time 29.0000
% report space:tweezers
   tweezer         2   tweezer
% tweezer position
-nan -2.4375
% tweezer frequency
0.0000
% tweezer amplitude
10.0000

% end

% frame   291
% time 29.1000
% report space:tweezers
   tweezer         2   tweezer
% tweezer position
-nan -2.4375
% tweezer frequency
0.0000
% tweezer amplitude
10.0000

% end

% frame   292
% time 29.2000
% report space:tweezers
   tweezer         2   tweezer
% tweezer position
-nan -2.4375
% tweezer frequency
0.0000
% tweezer amplitude
10.0000

% end

% frame   293
% time 29.3000
% report space:tweezers
   tweezer         2   tweezer
% tweezer position
-nan -2.4375
% tweezer frequency
0.0000
% tweezer amplitude
10.0000

% end

% frame   294
% time 29.4000
% report space:tweezers
   tweezer         2   tweezer
% tweezer position
-nan -2.4375
% tweezer frequency
0.0000
% tweezer amplitude
10.0000

% end

% frame   295
% time 29.5000
% report space:tweezers
   tweezer         2   tweezer
% tweezer position
-nan -2.4375
% tweezer frequency
0.0000
% tweezer amplitude
10.0000

% end

% frame   296
% time 29.6000
% report space:tweezers
   tweezer         2   tweezer
% tweezer position
-nan -2.4375
% tweezer frequency
0.0000
% tweezer amplitude
10.0000

% end

% frame   297
% time 29.7000
% report space:tweezers
   tweezer         2   tweezer
% tweezer position
-nan -2.4375
% tweezer frequency
0.0000
% tweezer amplitude
10.0000

% end

% frame   298
% time 29.8000
% report space:tweezers
   tweezer         2   tweezer
% tweezer position
-nan -2.4375
% tweezer frequency
0.0000
% tweezer amplitude
10.0000

% end

% frame   299
% time 29.9000
% report space:tweezers
   tweezer         2   tweezer
% tweezer position
-nan -2.4375
% tweezer frequency
0.0000
% tweezer amplitude
10.0000

% end

% frame   300
% time 30.0000
% report space:tweezers
   tweezer         2   tweezer
% tweezer position
-nan -2.4375
% tweezer frequency
0.0000
% tweezer amplitude
10.0000

% end
