
% frame   0
% time 0.0000
% report aster:force
%    class  identity      posX      posY    forceX    forceY    torque
         1         1    5.0000    0.0000   -0.0004    0.0000    0.0002
% end

% frame   1
% time 0.1000
% report aster:force
%    class  identity      posX      posY    forceX    forceY    torque
         1         1    6.0010   -0.0008   -0.0147    0.0016    0.0669
% end

% frame   2
% time 0.2000
% report aster:force
%    class  identity      posX      posY    forceX    forceY    torque
         1         1    5.9978   -0.0011   -1.7557   -0.0295   -0.2533
% end

% frame   3
% time 0.3000
% report aster:force
%    class  identity      posX      posY    forceX    forceY    torque
         1         1    6.0026   -0.0001    2.1973    0.1082   -0.3395
% end

% frame   4
% time 0.4000
% report aster:force
%    class  identity      posX      posY    forceX    forceY    torque
         1         1    6.0019    0.0008    1.3734    0.8883   -0.5142
% end

% frame   5
% time 0.5000
% report aster:force
%    class  identity      posX      posY    forceX    forceY    torque
         1         1    6.0045    0.0030    2.4524    1.1013    0.2495
% end

% frame   6
% time 0.6000
% report aster:force
%    class  identity      posX      posY    forceX    forceY    torque
         1         1    5.9983   -0.0003   -0.2336   -0.4101    0.0778
% end

% frame   7
% time 0.7000
% report aster:force
%    class  identity      posX      posY    forceX    forceY    torque
         1         1    5.9996    0.0015    0.7611    1.8708   -0.1192
% end

% frame   8
% time 0.8000
% report aster:force
%    class  identity      posX      posY    forceX    forceY    torque
         1         1    5.9992    0.0006   -0.6269    2.6973   -0.2840
% end

% frame   9
% time 0.9000
% report aster:force
%    class  identity      posX      posY    forceX    forceY    torque
         1         1    6.0031   -0.0044    1.3197   -1.6938    0.2555
% end

% frame   10
% time 1.0000
% report aster:force
%    class  identity      posX      posY    forceX    forceY    torque
         1         1    5.9968    0.0008   -2.9751    0.2877    0.0319
% end

% frame   11
% time 1.1000
% report aster:force
%    class  identity      posX      posY    forceX    forceY    torque
         1         1    6.0001   -0.0003    0.0165    1.7179   -0.5740
% end

% frame   12
% time 1.2000
% report aster:force
%    class  identity      posX      posY    forceX    forceY    torque
         1         1    5.9963    0.0018   -2.1870    0.3693    0.5413
% end

% frame   13
% time 1.3000
% report aster:force
%    class  identity      posX      posY    forceX    forceY    torque
         1         1    5.9979   -0.0026   -2.0833   -2.0867    0.4757
% end

% frame   14
% time 1.4000
% report aster:force
%    class  identity      posX      posY    forceX    forceY    torque
         1         1    5.9982    0.0030   -0.3217   -0.4181    0.0271
% end

% frame   15
% time 1.5000
% report aster:force
%    class  identity      posX      posY    forceX    forceY    torque
         1         1    6.0021    0.0006   -0.3743    0.3099    0.2307
% end

% frame   16
% time 1.6000
% report aster:force
%    class  identity      posX      posY    forceX    forceY    torque
         1         1    5.9992    0.0029    0.1525    3.0170    0.1100
% end

% frame   17
% time 1.7000
% report aster:force
%    class  identity      posX      posY    forceX    forceY    torque
         1         1    6.0032   -0.0018    1.5408   -0.3799   -0.0635
% end

% frame   18
% time 1.8000
% report aster:force
%    class  identity      posX      posY    forceX    forceY    torque
         1         1    5.9978    0.0001   -1.9406    1.1988   -0.0940
% end

% frame   19
% time 1.9000
% report aster:force
%    class  identity      posX      posY    forceX    forceY    torque
         1         1    6.0019    0.0069    1.0585    2.5701    0.1999
% end

% frame   20
% time 2.0000
% report aster:force
%    class  identity      posX      posY    forceX    forceY    torque
         1         1    5.9987    0.0067    0.0005    2.7431   -0.6203
% end

% frame   21
% time 2.1000
% report aster:force
%    class  identity      posX      posY    forceX    forceY    torque
         1         1    6.0009   -0.0008    0.6253   -0.3410    0.0898
% end

% frame   22
% time 2.2000
% report aster:force
%    class  identity      posX      posY    forceX    forceY    torque
         1         1    5.9974    0.0068   -1.1337    3.8095    0.4423
% end

% frame   23
% time 2.3000
% report aster:force
%    class  identity      posX      posY    forceX    forceY    torque
         1         1    6.0087    0.0018    3.8085    1.6137   -0.3367
% end

% frame   24
% time 2.4000
% report aster:force
%    class  identity      posX      posY    forceX    forceY    torque
         1         1    6.0020   -0.0016   -0.2527   -0.5555    0.2285
% end

% frame   25
% time 2.5000
% report aster:force
%    class  identity      posX      posY    forceX    forceY    torque
         1         1    5.9930   -0.0001   -2.2018    0.1037   -0.4017
% end

% frame   26
% time 2.6000
% report aster:force
%    class  identity      posX      posY    forceX    forceY    torque
         1         1    6.0007    0.0008   -0.0630   -0.1464    0.3752
% end

% frame   27
% time 2.7000
% report aster:force
%    class  identity      posX      posY    forceX    forceY    torque
         1         1    5.9991   -0.0025   -0.4680    0.1152    0.5503
% end

% frame   28
% time 2.8000
% report aster:force
%    class  identity      posX      posY    forceX    forceY    torque
         1         1    5.9982    0.0011   -0.2303   -0.1179    0.0234
% end

% frame   29
% time 2.9000
% report aster:force
%    class  identity      posX      posY    forceX    forceY    torque
         1         1    6.0065    0.0019    2.5843    1.6815   -0.3120
% end

% frame   30
% time 3.0000
% report aster:force
%    class  identity      posX      posY    forceX    forceY    torque
         1         1    5.9954    0.0035   -1.2197    1.0179   -0.0075
% end

% frame   31
% time 3.1000
% report aster:force
%    class  identity      posX      posY    forceX    forceY    torque
         1         1    5.9959   -0.0021   -2.1547   -1.8889    0.0700
% end

% frame   32
% time 3.2000
% report aster:force
%    class  identity      posX      posY    forceX    forceY    torque
         1         1    5.9970   -0.0054   -0.9607   -3.0395    0.2382
% end

% frame   33
% time 3.3000
% report aster:force
%    class  identity      posX      posY    forceX    forceY    torque
         1         1    6.0037   -0.0052    0.6100   -2.7731    0.5367
% end

% frame   34
% time 3.4000
% report aster:force
%    class  identity      posX      posY    forceX    forceY    torque
         1         1    6.0008    0.0003    0.6136   -0.3491    0.3050
% end

% frame   35
% time 3.5000
% report aster:force
%    class  identity      posX      posY    forceX    forceY    torque
         1         1    5.9990    0.0004   -0.5938    0.3693   -0.0599
% end

% frame   36
% time 3.6000
% report aster:force
%    class  identity      posX      posY    forceX    forceY    torque
         1         1    5.9983    0.0023   -1.9269    2.3537   -0.0278
% end

% frame   37
% time 3.7000
% report aster:force
%    class  identity      posX      posY    forceX    forceY    torque
         1         1    5.9986   -0.0033    0.1749   -1.8749   -0.2624
% end

% frame   38
% time 3.8000
% report aster:force
%    class  identity      posX      posY    forceX    forceY    torque
         1         1    5.9997    0.0000    0.5293    0.0750   -0.4220
% end

% frame   39
% time 3.9000
% report aster:force
%    class  identity      posX      posY    forceX    forceY    torque
         1         1    6.0001   -0.0005    1.0505   -0.7282   -0.6474
% end

% frame   40
% time 4.0000
% report aster:force
%    class  identity      posX      posY    forceX    forceY    torque
         1         1    6.0018    0.0006    1.1765    1.0415    0.2972
% end

% frame   41
% time 4.1000
% report aster:force
%    class  identity      posX      posY    forceX    forceY    torque
         1         1    6.0024   -0.0012    0.7294    0.4225   -0.2485
% end

% frame   42
% time 4.2000
% report aster:force
%    class  identity      posX      posY    forceX    forceY    torque
         1         1    6.0006   -0.0018    0.7072   -1.6183   -0.5067
% end

% frame   43
% time 4.3000
% report aster:force
%    class  identity      posX      posY    forceX    forceY    torque
         1         1    5.9996   -0.0013    0.3154    0.2914   -0.1726
% end

% frame   44
% time 4.4000
% report aster:force
%    class  identity      posX      posY    forceX    forceY    torque
         1         1    5.9984    0.0050   -1.6628    2.6545    0.3570
% end

% frame   45
% time 4.5000
% report aster:force
%    class  identity      posX      posY    forceX    forceY    torque
         1         1    6.0022    0.0009    1.4533    0.6506   -0.5293
% end

% frame   46
% time 4.6000
% report aster:force
%    class  identity      posX      posY    forceX    forceY    torque
         1         1    6.0025   -0.0040    1.6568   -2.3920    0.0568
% end

% frame   47
% time 4.7000
% report aster:force
%    class  identity      posX      posY    forceX    forceY    torque
         1         1    6.0055    0.0000    3.0221   -0.5603    0.3306
% end

% frame   48
% time 4.8000
% report aster:force
%    class  identity      posX      posY    forceX    forceY    torque
         1         1    6.0019    0.0005    1.5266   -0.4751    0.2949
% end

% frame   49
% time 4.9000
% report aster:force
%    class  identity      posX      posY    forceX    forceY    torque
         1         1    6.0007   -0.0044    0.7862   -2.4792    0.2201
% end

% frame   50
% time 5.0000
% report aster:force
%    class  identity      posX      posY    forceX    forceY    torque
         1         1    5.9967    0.0003   -2.9526    0.1250    0.1751
% end

% frame   51
% time 5.1000
% report aster:force
%    class  identity      posX      posY    forceX    forceY    torque
         1         1    5.9988   -0.0001   -1.0577    0.3483   -0.3964
% end

% frame   52
% time 5.2000
% report aster:force
%    class  identity      posX      posY    forceX    forceY    torque
         1         1    6.0000    0.0011    0.4305   -0.6520    0.0113
% end

% frame   53
% time 5.3000
% report aster:force
%    class  identity      posX      posY    forceX    forceY    torque
         1         1    5.9995   -0.0005   -0.2649   -0.8287    0.2927
% end

% frame   54
% time 5.4000
% report aster:force
%    class  identity      posX      posY    forceX    forceY    torque
         1         1    5.9981   -0.0089   -1.8057   -5.2530    0.3012
% end

% frame   55
% time 5.5000
% report aster:force
%    class  identity      posX      posY    forceX    forceY    torque
         1         1    5.9967    0.0006   -1.8024    0.4672    0.5453
% end

% frame   56
% time 5.6000
% report aster:force
%    class  identity      posX      posY    forceX    forceY    torque
         1         1    5.9945    0.0019   -3.5584    1.4168   -0.0488
% end

% frame   57
% time 5.7000
% report aster:force
%    class  identity      posX      posY    forceX    forceY    torque
         1         1    6.0038   -0.0002    2.4333   -0.4322    0.2971
% end

% frame   58
% time 5.8000
% report aster:force
%    class  identity      posX      posY    forceX    forceY    torque
         1         1    5.9978   -0.0013   -0.7985    1.5235   -0.0573
% end

% frame   59
% time 5.9000
% report aster:force
%    class  identity      posX      posY    forceX    forceY    torque
         1         1    5.9948   -0.0002   -3.5510   -0.2458    0.1642
% end

% frame   60
% time 6.0000
% report aster:force
%    class  identity      posX      posY    forceX    forceY    torque
         1         1    6.0022    0.0000    0.3677    0.7373    0.0835
% end

% frame   61
% time 6.1000
% report aster:force
%    class  identity      posX      posY    forceX    forceY    torque
         1         1    6.0003    0.0018    0.1128    1.2140   -0.0131
% end

% frame   62
% time 6.2000
% report aster:force
%    class  identity      posX      posY    forceX    forceY    torque
         1         1    6.0017    0.0012   -0.2150   -0.9546    0.8956
% end

% frame   63
% time 6.3000
% report aster:force
%    class  identity      posX      posY    forceX    forceY    torque
         1         1    6.0001    0.0017    0.3294    1.3293    0.0057
% end

% frame   64
% time 6.4000
% report aster:force
%    class  identity      posX      posY    forceX    forceY    torque
         1         1    5.9980   -0.0024   -1.8583   -1.7421    0.0043
% end

% frame   65
% time 6.5000
% report aster:force
%    class  identity      posX      posY    forceX    forceY    torque
         1         1    5.9970    0.0038   -1.5596    1.6188    0.3267
% end

% frame   66
% time 6.6000
% report aster:force
%    class  identity      posX      posY    forceX    forceY    torque
         1         1    5.9927    0.0015   -5.4222    0.5480    0.3406
% end

% frame   67
% time 6.7000
% report aster:force
%    class  identity      posX      posY    forceX    forceY    torque
         1         1    5.9925   -0.0015   -4.2530   -1.5437    0.4034
% end

% frame   68
% time 6.8000
% report aster:force
%    class  identity      posX      posY    forceX    forceY    torque
         1         1    5.9883   -0.0012   -5.8429   -0.6924    0.0664
% end

% frame   69
% time 6.9000
% report aster:force
%    class  identity      posX      posY    forceX    forceY    torque
         1         1    5.9902   -0.0019   -5.4077   -2.0419   -0.4496
% end

% frame   70
% time 7.0000
% report aster:force
%    class  identity      posX      posY    forceX    forceY    torque
         1         1    5.9840    0.0020   -8.7777    1.3388    0.4294
% end

% frame   71
% time 7.1000
% report aster:force
%    class  identity      posX      posY    forceX    forceY    torque
         1         1    5.9860    0.0001   -8.2707    0.4678   -0.2656
% end

% frame   72
% time 7.2000
% report aster:force
%    class  identity      posX      posY    forceX    forceY    torque
         1         1    5.9848    0.0018   -6.3912   -0.1527   -0.3046
% end

% frame   73
% time 7.3000
% report aster:force
%    class  identity      posX      posY    forceX    forceY    torque
         1         1    5.9783   -0.0003  -11.0823    0.7440   -0.1475
% end

% frame   74
% time 7.4000
% report aster:force
%    class  identity      posX      posY    forceX    forceY    torque
         1         1    5.9817    0.0026  -10.6847    1.2445    0.6740
% end

% frame   75
% time 7.5000
% report aster:force
%    class  identity      posX      posY    forceX    forceY    torque
         1         1    5.9827   -0.0005   -9.0634   -3.1033    0.5722
% end

% frame   76
% time 7.6000
% report aster:force
%    class  identity      posX      posY    forceX    forceY    torque
         1         1    5.9849   -0.0006   -7.9777   -1.1191    0.2101
% end

% frame   77
% time 7.7000
% report aster:force
%    class  identity      posX      posY    forceX    forceY    torque
         1         1    5.9797   -0.0052   -9.5945   -2.2532   -0.3016
% end

% frame   78
% time 7.8000
% report aster:force
%    class  identity      posX      posY    forceX    forceY    torque
         1         1    5.9808   -0.0003  -10.7771    0.1705    0.4670
% end

% frame   79
% time 7.9000
% report aster:force
%    class  identity      posX      posY    forceX    forceY    torque
         1         1    5.9765   -0.0012  -10.0770   -0.7475   -0.2560
% end

% frame   80
% time 8.0000
% report aster:force
%    class  identity      posX      posY    forceX    forceY    torque
         1         1    5.9829    0.0021   -9.1069    1.8194   -0.2125
% end

% frame   81
% time 8.1000
% report aster:force
%    class  identity      posX      posY    forceX    forceY    torque
         1         1    5.9763    0.0010  -12.8553    0.6729   -0.0504
% end

% frame   82
% time 8.2000
% report aster:force
%    class  identity      posX      posY    forceX    forceY    torque
         1         1    5.9743   -0.0021  -14.9352    1.6518   -0.6642
% end

% frame   83
% time 8.3000
% report aster:force
%    class  identity      posX      posY    forceX    forceY    torque
         1         1    5.9811    0.0039   -7.8486    1.0227    0.1560
% end

% frame   84
% time 8.4000
% report aster:force
%    class  identity      posX      posY    forceX    forceY    torque
         1         1    5.9793    0.0001   -9.7830   -0.3979   -0.1112
% end

% frame   85
% time 8.5000
% report aster:force
%    class  identity      posX      posY    forceX    forceY    torque
         1         1    5.9816    0.0028   -9.5455    0.2385   -0.0014
% end

% frame   86
% time 8.6000
% report aster:force
%    class  identity      posX      posY    forceX    forceY    torque
         1         1    5.9773   -0.0018  -11.6348   -1.4144   -0.4367
% end

% frame   87
% time 8.7000
% report aster:force
%    class  identity      posX      posY    forceX    forceY    torque
         1         1    5.9750   -0.0022  -11.5172   -1.1674   -0.5095
% end

% frame   88
% time 8.8000
% report aster:force
%    class  identity      posX      posY    forceX    forceY    torque
         1         1    5.9796   -0.0034   -9.4739   -1.8255   -0.6568
% end

% frame   89
% time 8.9000
% report aster:force
%    class  identity      posX      posY    forceX    forceY    torque
         1         1    5.9813    0.0033   -9.0333    2.0540   -0.7731
% end

% frame   90
% time 9.0000
% report aster:force
%    class  identity      posX      posY    forceX    forceY    torque
         1         1    5.9749    0.0018  -12.7290    0.9921   -0.2377
% end

% frame   91
% time 9.1000
% report aster:force
%    class  identity      posX      posY    forceX    forceY    torque
         1         1    5.9785   -0.0012  -11.7131    0.0651    0.3026
% end

% frame   92
% time 9.2000
% report aster:force
%    class  identity      posX      posY    forceX    forceY    torque
         1         1    5.9802   -0.0077  -10.7423   -3.1675   -0.6549
% end

% frame   93
% time 9.3000
% report aster:force
%    class  identity      posX      posY    forceX    forceY    torque
         1         1    5.9808   -0.0037  -10.9036   -1.7843    0.1777
% end

% frame   94
% time 9.4000
% report aster:force
%    class  identity      posX      posY    forceX    forceY    torque
         1         1    5.9809   -0.0015  -10.3793    0.0276   -0.0592
% end

% frame   95
% time 9.5000
% report aster:force
%    class  identity      posX      posY    forceX    forceY    torque
         1         1    5.9780    0.0013  -12.0977    0.5302   -0.3699
% end

% frame   96
% time 9.6000
% report aster:force
%    class  identity      posX      posY    forceX    forceY    torque
         1         1    5.9817   -0.0015   -8.6782   -0.9096   -0.1414
% end

% frame   97
% time 9.7000
% report aster:force
%    class  identity      posX      posY    forceX    forceY    torque
         1         1    5.9807    0.0000   -9.7807    2.0357   -0.2818
% end

% frame   98
% time 9.8000
% report aster:force
%    class  identity      posX      posY    forceX    forceY    torque
         1         1    5.9782   -0.0026  -11.8759   -1.1249   -0.2714
% end

% frame   99
% time 9.9000
% report aster:force
%    class  identity      posX      posY    forceX    forceY    torque
         1         1    5.9763    0.0022  -11.4509    1.7937   -0.3077
% end

% frame   100
% time 10.0000
% report aster:force
%    class  identity      posX      posY    forceX    forceY    torque
         1         1    5.9824    0.0010   -8.2330    0.3336    0.0651
% end

% frame   101
% time 10.1000
% report aster:force
%    class  identity      posX      posY    forceX    forceY    torque
         1         1    5.9819   -0.0058   -8.5085   -1.4412    0.4215
% end

% frame   102
% time 10.2000
% report aster:force
%    class  identity      posX      posY    forceX    forceY    torque
         1         1    5.9781    0.0001   -9.6405    1.5882   -0.5678
% end

% frame   103
% time 10.3000
% report aster:force
%    class  identity      posX      posY    forceX    forceY    torque
         1         1    5.9800    0.0050   -9.8848    3.2134   -0.1320
% end

% frame   104
% time 10.4000
% report aster:force
%    class  identity      posX      posY    forceX    forceY    torque
         1         1    5.9768    0.0049  -11.8116    3.3154    0.2461
% end

% frame   105
% time 10.5000
% report aster:force
%    class  identity      posX      posY    forceX    forceY    torque
         1         1    5.9794   -0.0006  -10.7084   -0.5403    0.1296
% end

% frame   106
% time 10.6000
% report aster:force
%    class  identity      posX      posY    forceX    forceY    torque
         1         1    5.9825   -0.0011   -7.7205   -0.0350   -0.4715
% end

% frame   107
% time 10.7000
% report aster:force
%    class  identity      posX      posY    forceX    forceY    torque
         1         1    5.9833   -0.0004   -6.9974    0.2309    0.0689
% end

% frame   108
% time 10.8000
% report aster:force
%    class  identity      posX      posY    forceX    forceY    torque
         1         1    5.9820   -0.0019   -8.6567   -1.2609    0.2473
% end

% frame   109
% time 10.9000
% report aster:force
%    class  identity      posX      posY    forceX    forceY    torque
         1         1    5.9811    0.0020   -8.3483    2.3476   -0.3011
% end

% frame   110
% time 11.0000
% report aster:force
%    class  identity      posX      posY    forceX    forceY    torque
         1         1    5.9742    0.0017  -14.2567    1.0625    0.4973
% end

% frame   111
% time 11.1000
% report aster:force
%    class  identity      posX      posY    forceX    forceY    torque
         1         1    5.9801    0.0025   -9.0518    1.7470   -0.3184
% end

% frame   112
% time 11.2000
% report aster:force
%    class  identity      posX      posY    forceX    forceY    torque
         1         1    5.9817   -0.0029   -9.5067   -2.2245    0.0125
% end

% frame   113
% time 11.3000
% report aster:force
%    class  identity      posX      posY    forceX    forceY    torque
         1         1    5.9817    0.0034   -9.4485    2.7811   -0.2475
% end

% frame   114
% time 11.4000
% report aster:force
%    class  identity      posX      posY    forceX    forceY    torque
         1         1    5.9786    0.0017  -10.3611    0.7871   -0.2269
% end

% frame   115
% time 11.5000
% report aster:force
%    class  identity      posX      posY    forceX    forceY    torque
         1         1    5.9796   -0.0007   -8.8334    0.0026    0.0010
% end

% frame   116
% time 11.6000
% report aster:force
%    class  identity      posX      posY    forceX    forceY    torque
         1         1    5.9817    0.0014  -11.5788    1.6756   -0.4222
% end

% frame   117
% time 11.7000
% report aster:force
%    class  identity      posX      posY    forceX    forceY    torque
         1         1    5.9858    0.0020   -8.0792    1.4261   -0.0876
% end

% frame   118
% time 11.8000
% report aster:force
%    class  identity      posX      posY    forceX    forceY    torque
         1         1    5.9784    0.0002  -11.5954   -1.2863    0.5621
% end

% frame   119
% time 11.9000
% report aster:force
%    class  identity      posX      posY    forceX    forceY    torque
         1         1    5.9850   -0.0057   -6.8863   -3.1744   -0.4798
% end

% frame   120
% time 12.0000
% report aster:force
%    class  identity      posX      posY    forceX    forceY    torque
         1         1    5.9800    0.0018   -9.3450    1.6746    0.1145
% end

% frame   121
% time 12.1000
% report aster:force
%    class  identity      posX      posY    forceX    forceY    torque
         1         1    5.9760    0.0001  -12.0816    0.0783    0.1353
% end

% frame   122
% time 12.2000
% report aster:force
%    class  identity      posX      posY    forceX    forceY    torque
         1         1    5.9720   -0.0019  -13.5497   -0.4289   -0.1552
% end

% frame   123
% time 12.3000
% report aster:force
%    class  identity      posX      posY    forceX    forceY    torque
         1         1    5.9772   -0.0014  -12.0172   -1.3580    0.4603
% end

% frame   124
% time 12.4000
% report aster:force
%    class  identity      posX      posY    forceX    forceY    torque
         1         1    5.9752   -0.0030  -14.3867   -0.8596    0.0338
% end

% frame   125
% time 12.5000
% report aster:force
%    class  identity      posX      posY    forceX    forceY    torque
         1         1    5.9792   -0.0044  -10.6214   -1.6674   -0.2220
% end

% frame   126
% time 12.6000
% report aster:force
%    class  identity      posX      posY    forceX    forceY    torque
         1         1    5.9782    0.0011  -11.2691    1.1464    0.2478
% end

% frame   127
% time 12.7000
% report aster:force
%    class  identity      posX      posY    forceX    forceY    torque
         1         1    5.9732   -0.0039  -13.4890   -3.4101   -0.1914
% end

% frame   128
% time 12.8000
% report aster:force
%    class  identity      posX      posY    forceX    forceY    torque
         1         1    5.9764    0.0012  -13.2632    1.0515    0.5042
% end

% frame   129
% time 12.9000
% report aster:force
%    class  identity      posX      posY    forceX    forceY    torque
         1         1    5.9744    0.0044  -13.1034    1.8808   -0.0996
% end

% frame   130
% time 13.0000
% report aster:force
%    class  identity      posX      posY    forceX    forceY    torque
         1         1    5.9790   -0.0047  -11.4351   -1.4931   -0.1691
% end

% frame   131
% time 13.1000
% report aster:force
%    class  identity      posX      posY    forceX    forceY    torque
         1         1    5.9788    0.0011  -11.1648    0.8053   -0.3258
% end

% frame   132
% time 13.2000
% report aster:force
%    class  identity      posX      posY    forceX    forceY    torque
         1         1    5.9789    0.0049  -12.8880    2.0463    0.9544
% end

% frame   133
% time 13.3000
% report aster:force
%    class  identity      posX      posY    forceX    forceY    torque
         1         1    5.9779    0.0039  -11.8915    2.4089    0.3204
% end

% frame   134
% time 13.4000
% report aster:force
%    class  identity      posX      posY    forceX    forceY    torque
         1         1    5.9741    0.0051  -13.4797    3.0397    0.5385
% end

% frame   135
% time 13.5000
% report aster:force
%    class  identity      posX      posY    forceX    forceY    torque
         1         1    5.9779    0.0022  -11.1733   -0.0031    0.4843
% end

% frame   136
% time 13.6000
% report aster:force
%    class  identity      posX      posY    forceX    forceY    torque
         1         1    5.9751   -0.0001  -12.4952    0.7510   -0.9661
% end

% frame   137
% time 13.7000
% report aster:force
%    class  identity      posX      posY    forceX    forceY    torque
         1         1    5.9750   -0.0003  -11.4985    0.8947   -0.0362
% end

% frame   138
% time 13.8000
% report aster:force
%    class  identity      posX      posY    forceX    forceY    torque
         1         1    5.9740   -0.0023  -12.5673   -1.2656    0.8836
% end

% frame   139
% time 13.9000
% report aster:force
%    class  identity      posX      posY    forceX    forceY    torque
         1         1    5.9726    0.0076  -13.1498    4.9366   -0.7572
% end

% frame   140
% time 14.0000
% report aster:force
%    class  identity      posX      posY    forceX    forceY    torque
         1         1    5.9789   -0.0022  -11.5168   -3.0994    0.0842
% end

% frame   141
% time 14.1000
% report aster:force
%    class  identity      posX      posY    forceX    forceY    torque
         1         1    5.9753    0.0006  -12.6896   -0.4183    0.0605
% end

% frame   142
% time 14.2000
% report aster:force
%    class  identity      posX      posY    forceX    forceY    torque
         1         1    5.9794   -0.0031  -10.5366   -1.7369    0.3118
% end

% frame   143
% time 14.3000
% report aster:force
%    class  identity      posX      posY    forceX    forceY    torque
         1         1    5.9796   -0.0004   -9.9847   -1.4525    0.1763
% end

% frame   144
% time 14.4000
% report aster:force
%    class  identity      posX      posY    forceX    forceY    torque
         1         1    5.9749   -0.0006  -11.9423    0.0609   -0.1371
% end

% frame   145
% time 14.5000
% report aster:force
%    class  identity      posX      posY    forceX    forceY    torque
         1         1    5.9717    0.0004  -14.8727   -0.3074    0.3490
% end

% frame   146
% time 14.6000
% report aster:force
%    class  identity      posX      posY    forceX    forceY    torque
         1         1    5.9750    0.0033  -13.6083    3.0595   -0.0033
% end

% frame   147
% time 14.7000
% report aster:force
%    class  identity      posX      posY    forceX    forceY    torque
         1         1    5.9740    0.0014  -13.0045    1.2088    0.0897
% end

% frame   148
% time 14.8000
% report aster:force
%    class  identity      posX      posY    forceX    forceY    torque
         1         1    5.9745    0.0004  -13.3309    1.5486   -0.2814
% end

% frame   149
% time 14.9000
% report aster:force
%    class  identity      posX      posY    forceX    forceY    torque
         1         1    5.9762   -0.0001  -11.6100   -0.5430   -0.1701
% end

% frame   150
% time 15.0000
% report aster:force
%    class  identity      posX      posY    forceX    forceY    torque
         1         1    5.9739   -0.0029  -13.1278   -1.0824    0.2580
% end

% frame   151
% time 15.1000
% report aster:force
%    class  identity      posX      posY    forceX    forceY    torque
         1         1    5.9795   -0.0077  -11.7128   -4.1799    0.7270
% end

% frame   152
% time 15.2000
% report aster:force
%    class  identity      posX      posY    forceX    forceY    torque
         1         1    5.9696   -0.0012  -15.9549   -0.5283   -0.1498
% end

% frame   153
% time 15.3000
% report aster:force
%    class  identity      posX      posY    forceX    forceY    torque
         1         1    5.9807    0.0015  -10.6308    0.9555    0.0721
% end

% frame   154
% time 15.4000
% report aster:force
%    class  identity      posX      posY    forceX    forceY    torque
         1         1    5.9809   -0.0020   -8.7774   -2.8625    0.2915
% end

% frame   155
% time 15.5000
% report aster:force
%    class  identity      posX      posY    forceX    forceY    torque
         1         1    5.9857   -0.0041   -7.5951   -2.9825    0.4091
% end

% frame   156
% time 15.6000
% report aster:force
%    class  identity      posX      posY    forceX    forceY    torque
         1         1    5.9771   -0.0004  -11.8024    1.1375   -0.0052
% end

% frame   157
% time 15.7000
% report aster:force
%    class  identity      posX      posY    forceX    forceY    torque
         1         1    5.9757   -0.0008  -11.3685   -0.0643   -0.1072
% end

% frame   158
% time 15.8000
% report aster:force
%    class  identity      posX      posY    forceX    forceY    torque
         1         1    5.9742    0.0022  -13.5981    0.6655    0.4034
% end

% frame   159
% time 15.9000
% report aster:force
%    class  identity      posX      posY    forceX    forceY    torque
         1         1    5.9719    0.0044  -15.1704    1.2642    0.4231
% end

% frame   160
% time 16.0000
% report aster:force
%    class  identity      posX      posY    forceX    forceY    torque
         1         1    5.9760   -0.0006  -10.2130    0.4619    0.1023
% end

% frame   161
% time 16.1000
% report aster:force
%    class  identity      posX      posY    forceX    forceY    torque
         1         1    5.9728    0.0049  -16.3949    2.1468    0.6899
% end

% frame   162
% time 16.2000
% report aster:force
%    class  identity      posX      posY    forceX    forceY    torque
         1         1    5.9737    0.0016  -12.2811    0.3180   -0.2143
% end

% frame   163
% time 16.3000
% report aster:force
%    class  identity      posX      posY    forceX    forceY    torque
         1         1    5.9741    0.0012  -13.2300    0.2989   -0.5026
% end

% frame   164
% time 16.4000
% report aster:force
%    class  identity      posX      posY    forceX    forceY    torque
         1         1    5.9732    0.0068  -14.9669    3.1864   -0.0303
% end

% frame   165
% time 16.5000
% report aster:force
%    class  identity      posX      posY    forceX    forceY    torque
         1         1    5.9681    0.0025  -16.7018    0.8565    0.9264
% end

% frame   166
% time 16.6000
% report aster:force
%    class  identity      posX      posY    forceX    forceY    torque
         1         1    5.9734    0.0034  -15.6196    1.7627    0.7407
% end

% frame   167
% time 16.7000
% report aster:force
%    class  identity      posX      posY    forceX    forceY    torque
         1         1    5.9783    0.0054  -11.0593    2.5501    0.6794
% end

% frame   168
% time 16.8000
% report aster:force
%    class  identity      posX      posY    forceX    forceY    torque
         1         1    5.9756   -0.0026  -12.8272   -1.7402    0.0368
% end

% frame   169
% time 16.9000
% report aster:force
%    class  identity      posX      posY    forceX    forceY    torque
         1         1    5.9738   -0.0013  -12.9287   -0.8965    1.0567
% end

% frame   170
% time 17.0000
% report aster:force
%    class  identity      posX      posY    forceX    forceY    torque
         1         1    5.9739   -0.0039  -12.9430   -0.7766   -0.7451
% end

% frame   171
% time 17.1000
% report aster:force
%    class  identity      posX      posY    forceX    forceY    torque
         1         1    5.9680    0.0039  -15.6838    2.6266   -0.0888
% end

% frame   172
% time 17.2000
% report aster:force
%    class  identity      posX      posY    forceX    forceY    torque
         1         1    5.9692    0.0006  -16.0275    1.0769   -0.2364
% end

% frame   173
% time 17.3000
% report aster:force
%    class  identity      posX      posY    forceX    forceY    torque
         1         1    5.9731   -0.0004  -13.3785   -0.6329    0.2114
% end

% frame   174
% time 17.4000
% report aster:force
%    class  identity      posX      posY    forceX    forceY    torque
         1         1    5.9683    0.0039  -14.6095    2.6410   -0.1376
% end

% frame   175
% time 17.5000
% report aster:force
%    class  identity      posX      posY    forceX    forceY    torque
         1         1    5.9662    0.0044  -18.2439    1.6456    0.5362
% end

% frame   176
% time 17.6000
% report aster:force
%    class  identity      posX      posY    forceX    forceY    torque
         1         1    5.9722   -0.0055  -14.6366   -2.6170    0.1669
% end

% frame   177
% time 17.7000
% report aster:force
%    class  identity      posX      posY    forceX    forceY    torque
         1         1    5.9663    0.0020  -16.4950    0.5885   -0.0964
% end

% frame   178
% time 17.8000
% report aster:force
%    class  identity      posX      posY    forceX    forceY    torque
         1         1    5.9681    0.0007  -17.3319   -0.2402    0.6559
% end

% frame   179
% time 17.9000
% report aster:force
%    class  identity      posX      posY    forceX    forceY    torque
         1         1    5.9724   -0.0019  -15.0283   -1.0274    0.2932
% end

% frame   180
% time 18.0000
% report aster:force
%    class  identity      posX      posY    forceX    forceY    torque
         1         1    5.9658   -0.0001  -17.3223   -1.4759    0.1658
% end

% frame   181
% time 18.1000
% report aster:force
%    class  identity      posX      posY    forceX    forceY    torque
         1         1    5.9692    0.0034  -16.3049    1.5311   -0.1310
% end

% frame   182
% time 18.2000
% report aster:force
%    class  identity      posX      posY    forceX    forceY    torque
         1         1    5.9708   -0.0006  -15.0890    0.4960   -0.1608
% end

% frame   183
% time 18.3000
% report aster:force
%    class  identity      posX      posY    forceX    forceY    torque
         1         1    5.9673   -0.0023  -16.3575    0.1140   -0.0698
% end

% frame   184
% time 18.4000
% report aster:force
%    class  identity      posX      posY    forceX    forceY    torque
         1         1    5.9673   -0.0009  -16.6291    0.6131    0.3061
% end

% frame   185
% time 18.5000
% report aster:force
%    class  identity      posX      posY    forceX    forceY    torque
         1         1    5.9603   -0.0003  -20.1560   -1.3091    1.1153
% end

% frame   186
% time 18.6000
% report aster:force
%    class  identity      posX      posY    forceX    forceY    torque
         1         1    5.9573   -0.0022  -20.9039   -0.1718   -0.2334
% end

% frame   187
% time 18.7000
% report aster:force
%    class  identity      posX      posY    forceX    forceY    torque
         1         1    5.9607    0.0062  -19.2752    3.5998    0.0447
% end

% frame   188
% time 18.8000
% report aster:force
%    class  identity      posX      posY    forceX    forceY    torque
         1         1    5.9625    0.0010  -18.1867    0.2275   -0.4061
% end

% frame   189
% time 18.9000
% report aster:force
%    class  identity      posX      posY    forceX    forceY    torque
         1         1    5.9597   -0.0021  -19.8324   -1.2592   -0.2177
% end

% frame   190
% time 19.0000
% report aster:force
%    class  identity      posX      posY    forceX    forceY    torque
         1         1    5.9572    0.0006  -21.6733    0.6570   -0.1615
% end

% frame   191
% time 19.1000
% report aster:force
%    class  identity      posX      posY    forceX    forceY    torque
         1         1    5.9546   -0.0010  -22.6539   -1.0031   -0.2590
% end

% frame   192
% time 19.2000
% report aster:force
%    class  identity      posX      posY    forceX    forceY    torque
         1         1    5.9610    0.0018  -21.1862    2.0446   -0.7199
% end

% frame   193
% time 19.3000
% report aster:force
%    class  identity      posX      posY    forceX    forceY    torque
         1         1    5.9591   -0.0002  -21.8057    0.6925    0.0064
% end

% frame   194
% time 19.4000
% report aster:force
%    class  identity      posX      posY    forceX    forceY    torque
         1         1    5.9589    0.0042  -20.4599    3.1623   -0.0232
% end

% frame   195
% time 19.5000
% report aster:force
%    class  identity      posX      posY    forceX    forceY    torque
         1         1    5.9607    0.0065  -19.4305    3.1014   -0.3129
% end

% frame   196
% time 19.6000
% report aster:force
%    class  identity      posX      posY    forceX    forceY    torque
         1         1    5.9584   -0.0005  -21.1954    0.3346    0.1123
% end

% frame   197
% time 19.7000
% report aster:force
%    class  identity      posX      posY    forceX    forceY    torque
         1         1    5.9686    0.0040  -15.8733    1.8052    0.1699
% end

% frame   198
% time 19.8000
% report aster:force
%    class  identity      posX      posY    forceX    forceY    torque
         1         1    5.9643    0.0049  -18.0391    2.8933    0.1883
% end

% frame   199
% time 19.9000
% report aster:force
%    class  identity      posX      posY    forceX    forceY    torque
         1         1    5.9675    0.0020  -16.1785   -0.3279    0.1849
% end

% frame   200
% time 20.0000
% report aster:force
%    class  identity      posX      posY    forceX    forceY    torque
         1         1    5.9731    0.0052  -12.2709    2.2827   -0.5261
% end

% frame   201
% time 20.1000
% report aster:force
%    class  identity      posX      posY    forceX    forceY    torque
         1         1    5.9726    0.0047  -13.2898    2.7254   -0.3717
% end

% frame   202
% time 20.2000
% report aster:force
%    class  identity      posX      posY    forceX    forceY    torque
         1         1    5.9736   -0.0008  -12.7320   -0.7248    0.5822
% end

% frame   203
% time 20.3000
% report aster:force
%    class  identity      posX      posY    forceX    forceY    torque
         1         1    5.9679    0.0040  -16.4660    2.8259   -1.2311
% end

% frame   204
% time 20.4000
% report aster:force
%    class  identity      posX      posY    forceX    forceY    torque
         1         1    5.9713    0.0003  -15.1733    0.8485    0.1418
% end

% frame   205
% time 20.5000
% report aster:force
%    class  identity      posX      posY    forceX    forceY    torque
         1         1    5.9763   -0.0055  -14.3882   -1.6413    0.1411
% end

% frame   206
% time 20.6000
% report aster:force
%    class  identity      posX      posY    forceX    forceY    torque
         1         1    5.9881    0.0016   -5.5904    0.7158    0.0705
% end

% frame   207
% time 20.7000
% report aster:force
%    class  identity      posX      posY    forceX    forceY    torque
         1         1    5.9905    0.0013   -4.9435    0.9348    0.2850
% end

% frame   208
% time 20.8000
% report aster:force
%    class  identity      posX      posY    forceX    forceY    torque
         1         1    5.9878   -0.0012   -6.5297   -0.9866   -0.0271
% end

% frame   209
% time 20.9000
% report aster:force
%    class  identity      posX      posY    forceX    forceY    torque
         1         1    5.9833   -0.0008   -8.7337    0.5396   -0.0273
% end

% frame   210
% time 21.0000
% report aster:force
%    class  identity      posX      posY    forceX    forceY    torque
         1         1    5.9860    0.0009   -7.5635    1.2687    0.0223
% end

% frame   211
% time 21.1000
% report aster:force
%    class  identity      posX      posY    forceX    forceY    torque
         1         1    5.9846    0.0013   -8.1186    0.3811    0.1178
% end

% frame   212
% time 21.2000
% report aster:force
%    class  identity      posX      posY    forceX    forceY    torque
         1         1    5.9853   -0.0011   -7.6400   -0.1382   -0.2071
% end

% frame   213
% time 21.3000
% report aster:force
%    class  identity      posX      posY    forceX    forceY    torque
         1         1    5.9863   -0.0028   -7.2522   -3.4874    0.4494
% end

% frame   214
% time 21.4000
% report aster:force
%    class  identity      posX      posY    forceX    forceY    torque
         1         1    5.9841   -0.0035   -7.8513    0.1950   -0.8973
% end

% frame   215
% time 21.5000
% report aster:force
%    class  identity      posX      posY    forceX    forceY    torque
         1         1    5.9833   -0.0041   -7.4745   -3.0760   -0.2022
% end

% frame   216
% time 21.6000
% report aster:force
%    class  identity      posX      posY    forceX    forceY    torque
         1         1    5.9830   -0.0003   -9.0536    0.5980   -0.2248
% end

% frame   217
% time 21.7000
% report aster:force
%    class  identity      posX      posY    forceX    forceY    torque
         1         1    5.9808    0.0026   -8.3969   -0.3385   -0.0736
% end

% frame   218
% time 21.8000
% report aster:force
%    class  identity      posX      posY    forceX    forceY    torque
         1         1    5.9793   -0.0019  -10.4181   -1.5285    0.0379
% end

% frame   219
% time 21.9000
% report aster:force
%    class  identity      posX      posY    forceX    forceY    torque
         1         1    5.9788    0.0009  -11.2276    0.0321    0.0114
% end

% frame   220
% time 22.0000
% report aster:force
%    class  identity      posX      posY    forceX    forceY    torque
         1         1    5.9868   -0.0001   -6.5558   -0.1951    0.6667
% end

% frame   221
% time 22.1000
% report aster:force
%    class  identity      posX      posY    forceX    forceY    torque
         1         1    5.9793   -0.0003  -10.1803   -0.9807    0.1727
% end

% frame   222
% time 22.2000
% report aster:force
%    class  identity      posX      posY    forceX    forceY    torque
         1         1    5.9831    0.0026  -10.8076    0.6599    0.1395
% end

% frame   223
% time 22.3000
% report aster:force
%    class  identity      posX      posY    forceX    forceY    torque
         1         1    5.9821    0.0024   -9.1715    2.4377   -0.0756
% end

% frame   224
% time 22.4000
% report aster:force
%    class  identity      posX      posY    forceX    forceY    torque
         1         1    5.9859   -0.0051   -8.4960   -1.9621    0.1219
% end

% frame   225
% time 22.5000
% report aster:force
%    class  identity      posX      posY    forceX    forceY    torque
         1         1    5.9894   -0.0016   -5.9522    0.4210   -0.4346
% end

% frame   226
% time 22.6000
% report aster:force
%    class  identity      posX      posY    forceX    forceY    torque
         1         1    5.9795   -0.0009   -9.4164   -0.9204    0.4006
% end

% frame   227
% time 22.7000
% report aster:force
%    class  identity      posX      posY    forceX    forceY    torque
         1         1    5.9802    0.0014  -11.0325    1.2917    0.2796
% end

% frame   228
% time 22.8000
% report aster:force
%    class  identity      posX      posY    forceX    forceY    torque
         1         1    5.9821   -0.0052   -9.5738   -2.5577   -0.1114
% end

% frame   229
% time 22.9000
% report aster:force
%    class  identity      posX      posY    forceX    forceY    torque
         1         1    5.9829   -0.0037   -8.6096   -2.6947   -0.0312
% end

% frame   230
% time 23.0000
% report aster:force
%    class  identity      posX      posY    forceX    forceY    torque
         1         1    5.9752   -0.0020  -12.0869   -1.4406    0.9119
% end

% frame   231
% time 23.1000
% report aster:force
%    class  identity      posX      posY    forceX    forceY    torque
         1         1    5.9835    0.0029   -5.9879    0.8811    0.7805
% end

% frame   232
% time 23.2000
% report aster:force
%    class  identity      posX      posY    forceX    forceY    torque
         1         1    5.9831   -0.0067   -8.9762   -2.9302    0.0919
% end

% frame   233
% time 23.3000
% report aster:force
%    class  identity      posX      posY    forceX    forceY    torque
         1         1    5.9932   -0.0036   -3.2816   -2.0786   -0.5162
% end

% frame   234
% time 23.4000
% report aster:force
%    class  identity      posX      posY    forceX    forceY    torque
         1         1    5.9842   -0.0064   -8.2082   -3.1705   -0.1130
% end

% frame   235
% time 23.5000
% report aster:force
%    class  identity      posX      posY    forceX    forceY    torque
         1         1    5.9874   -0.0024   -5.5017    0.2254   -0.5762
% end

% frame   236
% time 23.6000
% report aster:force
%    class  identity      posX      posY    forceX    forceY    torque
         1         1    5.9873    0.0050   -7.2695    0.4349    0.6087
% end

% frame   237
% time 23.7000
% report aster:force
%    class  identity      posX      posY    forceX    forceY    torque
         1         1    5.9848   -0.0033   -8.9978   -1.8707    0.4432
% end

% frame   238
% time 23.8000
% report aster:force
%    class  identity      posX      posY    forceX    forceY    torque
         1         1    5.9821   -0.0037   -9.4915   -2.1960   -0.3130
% end

% frame   239
% time 23.9000
% report aster:force
%    class  identity      posX      posY    forceX    forceY    torque
         1         1    5.9793   -0.0009   -9.8538   -1.2449   -0.1381
% end

% frame   240
% time 24.0000
% report aster:force
%    class  identity      posX      posY    forceX    forceY    torque
         1         1    5.9774   -0.0004  -12.1681   -0.2972   -0.4920
% end

% frame   241
% time 24.1000
% report aster:force
%    class  identity      posX      posY    forceX    forceY    torque
         1         1    5.9772   -0.0038  -10.1440   -1.4435   -0.0321
% end

% frame   242
% time 24.2000
% report aster:force
%    class  identity      posX      posY    forceX    forceY    torque
         1         1    5.9770    0.0035  -11.3469    1.1898    0.3595
% end

% frame   243
% time 24.3000
% report aster:force
%    class  identity      posX      posY    forceX    forceY    torque
         1         1    5.9744   -0.0040  -13.3637   -1.1186   -0.0958
% end

% frame   244
% time 24.4000
% report aster:force
%    class  identity      posX      posY    forceX    forceY    torque
         1         1    5.9785   -0.0030   -8.8763   -0.5987   -0.9516
% end

% frame   245
% time 24.5000
% report aster:force
%    class  identity      posX      posY    forceX    forceY    torque
         1         1    5.9752    0.0065  -13.4948    2.8924    0.2482
% end

% frame   246
% time 24.6000
% report aster:force
%    class  identity      posX      posY    forceX    forceY    torque
         1         1    5.9784    0.0015  -11.8674    0.2184    0.1841
% end

% frame   247
% time 24.7000
% report aster:force
%    class  identity      posX      posY    forceX    forceY    torque
         1         1    5.9774   -0.0020  -11.7327   -0.9662    0.0583
% end

% frame   248
% time 24.8000
% report aster:force
%    class  identity      posX      posY    forceX    forceY    torque
         1         1    5.9784   -0.0007  -11.5908   -0.5257   -0.2572
% end

% frame   249
% time 24.9000
% report aster:force
%    class  identity      posX      posY    forceX    forceY    torque
         1         1    5.9769    0.0013  -12.6214   -0.6675    0.3529
% end

% frame   250
% time 25.0000
% report aster:force
%    class  identity      posX      posY    forceX    forceY    torque
         1         1    5.9762    0.0041  -11.9804    0.7780    0.0687
% end

% frame   251
% time 25.1000
% report aster:force
%    class  identity      posX      posY    forceX    forceY    torque
         1         1    5.9737   -0.0007  -12.4624   -0.7501   -0.4548
% end

% frame   252
% time 25.2000
% report aster:force
%    class  identity      posX      posY    forceX    forceY    torque
         1         1    5.9728   -0.0034  -15.5567   -2.5951    0.6088
% end

% frame   253
% time 25.3000
% report aster:force
%    class  identity      posX      posY    forceX    forceY    torque
         1         1    5.9813    0.0002  -12.2876   -1.2675    0.3377
% end

% frame   254
% time 25.4000
% report aster:force
%    class  identity      posX      posY    forceX    forceY    torque
         1         1    5.9771   -0.0005  -11.5309   -1.2262   -0.7070
% end

% frame   255
% time 25.5000
% report aster:force
%    class  identity      posX      posY    forceX    forceY    torque
         1         1    5.9757    0.0003  -12.3282    1.0882   -0.1516
% end

% frame   256
% time 25.6000
% report aster:force
%    class  identity      posX      posY    forceX    forceY    torque
         1         1    5.9768    0.0040  -12.7163    2.3576    0.2072
% end

% frame   257
% time 25.7000
% report aster:force
%    class  identity      posX      posY    forceX    forceY    torque
         1         1    5.9805   -0.0042   -8.8680   -3.4463    0.0356
% end

% frame   258
% time 25.8000
% report aster:force
%    class  identity      posX      posY    forceX    forceY    torque
         1         1    5.9776    0.0021  -11.2963    1.1222   -0.5497
% end

% frame   259
% time 25.9000
% report aster:force
%    class  identity      posX      posY    forceX    forceY    torque
         1         1    5.9812    0.0046   -8.9714    2.3467   -0.3190
% end

% frame   260
% time 26.0000
% report aster:force
%    class  identity      posX      posY    forceX    forceY    torque
         1         1    5.9862    0.0030   -7.4635    0.1214    0.7469
% end

% frame   261
% time 26.1000
% report aster:force
%    class  identity      posX      posY    forceX    forceY    torque
         1         1    5.9798    0.0008  -10.5939    0.3988    0.4229
% end

% frame   262
% time 26.2000
% report aster:force
%    class  identity      posX      posY    forceX    forceY    torque
         1         1    5.9814   -0.0003   -7.5986    0.3823   -0.0380
% end

% frame   263
% time 26.3000
% report aster:force
%    class  identity      posX      posY    forceX    forceY    torque
         1         1    5.9780   -0.0041  -11.2076   -1.2399   -0.1038
% end

% frame   264
% time 26.4000
% report aster:force
%    class  identity      posX      posY    forceX    forceY    torque
         1         1    5.9817    0.0018   -9.6218   -0.8557    0.1526
% end

% frame   265
% time 26.5000
% report aster:force
%    class  identity      posX      posY    forceX    forceY    torque
         1         1    5.9788    0.0036  -11.3186    1.5897    0.0066
% end

% frame   266
% time 26.6000
% report aster:force
%    class  identity      posX      posY    forceX    forceY    torque
         1         1    5.9758   -0.0022  -12.3761   -0.1184   -0.1972
% end

% frame   267
% time 26.7000
% report aster:force
%    class  identity      posX      posY    forceX    forceY    torque
         1         1    5.9826    0.0001  -10.2427    0.7063    0.0839
% end

% frame   268
% time 26.8000
% report aster:force
%    class  identity      posX      posY    forceX    forceY    torque
         1         1    5.9813   -0.0052   -9.6175   -2.2731   -0.2341
% end

% frame   269
% time 26.9000
% report aster:force
%    class  identity      posX      posY    forceX    forceY    torque
         1         1    5.9780    0.0048  -10.9158    1.9898   -0.0811
% end

% frame   270
% time 27.0000
% report aster:force
%    class  identity      posX      posY    forceX    forceY    torque
         1         1    5.9824    0.0033  -10.4903    2.3418   -0.0617
% end

% frame   271
% time 27.1000
% report aster:force
%    class  identity      posX      posY    forceX    forceY    torque
         1         1    5.9804    0.0043   -9.5102    2.2337   -0.0322
% end

% frame   272
% time 27.2000
% report aster:force
%    class  identity      posX      posY    forceX    forceY    torque
         1         1    5.9834    0.0044   -8.4741    2.7216   -0.2279
% end

% frame   273
% time 27.3000
% report aster:force
%    class  identity      posX      posY    forceX    forceY    torque
         1         1    5.9814    0.0014  -10.1490    0.4345   -0.1165
% end

% frame   274
% time 27.4000
% report aster:force
%    class  identity      posX      posY    forceX    forceY    torque
         1         1    5.9781    0.0037   -9.6749    1.4225    0.0864
% end

% frame   275
% time 27.5000
% report aster:force
%    class  identity      posX      posY    forceX    forceY    torque
         1         1    5.9867   -0.0035   -6.0694   -2.0043   -0.2215
% end

% frame   276
% time 27.6000
% report aster:force
%    class  identity      posX      posY    forceX    forceY    torque
         1         1    5.9838   -0.0005   -8.2954   -1.0900    0.5534
% end

% frame   277
% time 27.7000
% report aster:force
%    class  identity      posX      posY    forceX    forceY    torque
         1         1    5.9879    0.0020   -6.6456    1.8332    0.3090
% end

% frame   278
% time 27.8000
% report aster:force
%    class  identity      posX      posY    forceX    forceY    torque
         1         1    5.9835   -0.0017   -8.7120   -1.5540    0.1647
% end

% frame   279
% time 27.9000
% report aster:force
%    class  identity      posX      posY    forceX    forceY    torque
         1         1    5.9774   -0.0006  -11.7836   -0.4696   -0.4860
% end

% frame   280
% time 28.0000
% report aster:force
%    class  identity      posX      posY    forceX    forceY    torque
         1         1    5.9824    0.0041   -9.1666    2.5670    0.3339
% end

% frame   281
% time 28.1000
% report aster:force
%    class  identity      posX      posY    forceX    forceY    torque
         1         1    5.9835    0.0006   -9.5314    1.6631   -0.4248
% end

% frame   282
% time 28.2000
% report aster:force
%    class  identity      posX      posY    forceX    forceY    torque
         1         1    5.9858   -0.0000   -9.4720   -1.3266    0.7359
% end

% frame   283
% time 28.3000
% report aster:force
%    class  identity      posX      posY    forceX    forceY    torque
         1         1    5.9891   -0.0021   -6.0728   -2.4181    0.3342
% end

% frame   284
% time 28.4000
% report aster:force
%    class  identity      posX      posY    forceX    forceY    torque
         1         1    5.9807    0.0021   -9.6098    1.3904   -0.0572
% end

% frame   285
% time 28.5000
% report aster:force
%    class  identity      posX      posY    forceX    forceY    torque
         1         1    5.9841    0.0015  -10.5053    0.3845    0.3774
% end

% frame   286
% time 28.6000
% report aster:force
%    class  identity      posX      posY    forceX    forceY    torque
         1         1    5.9848   -0.0002   -5.3662   -0.6335    0.0326
% end

% frame   287
% time 28.7000
% report aster:force
%    class  identity      posX      posY    forceX    forceY    torque
         1         1    5.9778   -0.0005  -11.1295   -0.0135   -0.2267
% end

% frame   288
% time 28.8000
% report aster:force
%    class  identity      posX      posY    forceX    forceY    torque
         1         1    5.9812   -0.0024   -9.7880   -1.2636    0.0979
% end

% frame   289
% time 28.9000
% report aster:force
%    class  identity      posX      posY    forceX    forceY    torque
         1         1    5.9817   -0.0027  -10.8892   -0.7611    0.3046
% end

% frame   290
% time 29.0000
% report aster:force
%    class  identity      posX      posY    forceX    forceY    torque
         1         1    5.9809    0.0009   -8.7407   -0.4077   -0.2306
% end

% frame   291
% time 29.1000
% report aster:force
%    class  identity      posX      posY    forceX    forceY    torque
         1         1    5.9891    0.0004   -6.0584    1.4106   -0.2894
% end

% frame   292
% time 29.2000
% report aster:force
%    class  identity      posX      posY    forceX    forceY    torque
         1         1    5.9854    0.0020   -7.6239    1.1309    0.4370
% end

% frame   293
% time 29.3000
% report aster:force
%    class  identity      posX      posY    forceX    forceY    torque
         1         1    5.9863   -0.0026   -6.4204   -0.3650   -0.3905
% end

% frame   294
% time 29.4000
% report aster:force
%    class  identity      posX      posY    forceX    forceY    torque
         1         1    5.9850   -0.0044   -6.9203   -1.6001   -0.1485
% end

% frame   295
% time 29.5000
% report aster:force
%    class  identity      posX      posY    forceX    forceY    torque
         1         1    5.9861   -0.0015   -6.9826   -2.4388    0.5229
% end

% frame   296
% time 29.6000
% report aster:force
%    class  identity      posX      posY    forceX    forceY    torque
         1         1    5.9824   -0.0024   -7.8630   -1.0492   -0.2969
% end

% frame   297
% time 29.7000
% report aster:force
%    class  identity      posX      posY    forceX    forceY    torque
         1         1    5.9839    0.0006   -7.1343    1.3870   -0.5623
% end

% frame   298
% time 29.8000
% report aster:force
%    class  identity      posX      posY    forceX    forceY    torque
         1         1    5.9876    0.0054   -6.5112    3.1352    0.3738
% end

% frame   299
% time 29.9000
% report aster:force
%    class  identity      posX      posY    forceX    forceY    torque
         1         1    5.9849   -0.0058   -8.0977   -2.9911   -0.0613
% end

% frame   300
% time 30.0000
% report aster:force
%    class  identity      posX      posY    forceX    forceY    torque
         1         1    5.9843   -0.0021   -7.9508   -0.6761    0.1539
% end
