
% frame   0
% time 0.0000
% report aster:force
%    class  identity      posX      posY    forceX    forceY    torque
         1         1    5.0000    0.0000   -0.0010   -0.0003   -0.0001
% end

% frame   1
% time 0.1000
% report aster:force
%    class  identity      posX      posY    forceX    forceY    torque
         1         1   -2.9964   -0.0006    1.7610    1.4817   -0.2341
% end

% frame   2
% time 0.2000
% report aster:force
%    class  identity      posX      posY    forceX    forceY    torque
         1         1   -2.9980   -0.0006    1.4035   -0.2419   -0.0222
% end

% frame   3
% time 0.3000
% report aster:force
%    class  identity      posX      posY    forceX    forceY    torque
         1         1   -3.0025   -0.0012   -0.3733   -0.2792   -0.3367
% end

% frame   4
% time 0.4000
% report aster:force
%    class  identity      posX      posY    forceX    forceY    torque
         1         1   -2.9990   -0.0042    1.7490   -3.8188   -0.8686
% end

% frame   5
% time 0.5000
% report aster:force
%    class  identity      posX      posY    forceX    forceY    torque
         1         1   -2.9982    0.0036    1.7071    0.3410   -0.8303
% end

% frame   6
% time 0.6000
% report aster:force
%    class  identity      posX      posY    forceX    forceY    torque
         1         1   -3.0000    0.0015   -1.3092    0.1729   -0.0880
% end

% frame   7
% time 0.7000
% report aster:force
%    class  identity      posX      posY    forceX    forceY    torque
         1         1   -3.0002    0.0019   -0.8009   -0.1203   -0.0688
% end

% frame   8
% time 0.8000
% report aster:force
%    class  identity      posX      posY    forceX    forceY    torque
         1         1   -3.0006   -0.0007   -0.0042    0.1328    0.0307
% end

% frame   9
% time 0.9000
% report aster:force
%    class  identity      posX      posY    forceX    forceY    torque
         1         1   -2.9980    0.0009    1.2690    1.5750   -0.1605
% end

% frame   10
% time 1.0000
% report aster:force
%    class  identity      posX      posY    forceX    forceY    torque
         1         1   -2.9963   -0.0022    1.4511   -1.5496    0.1648
% end

% frame   11
% time 1.1000
% report aster:force
%    class  identity      posX      posY    forceX    forceY    torque
         1         1   -2.9975   -0.0009    0.2921   -0.7950    0.4036
% end

% frame   12
% time 1.2000
% report aster:force
%    class  identity      posX      posY    forceX    forceY    torque
         1         1   -3.0007   -0.0019   -1.9170   -2.5999    0.2231
% end

% frame   13
% time 1.3000
% report aster:force
%    class  identity      posX      posY    forceX    forceY    torque
         1         1   -3.0030   -0.0002   -1.0901   -0.7482    0.3081
% end

% frame   14
% time 1.4000
% report aster:force
%    class  identity      posX      posY    forceX    forceY    torque
         1         1   -3.0000   -0.0002    0.1285   -0.3636   -0.4024
% end

% frame   15
% time 1.5000
% report aster:force
%    class  identity      posX      posY    forceX    forceY    torque
         1         1   -3.0039    0.0015   -0.3612    0.6400   -0.8344
% end

% frame   16
% time 1.6000
% report aster:force
%    class  identity      posX      posY    forceX    forceY    torque
         1         1   -2.9995   -0.0036   -1.2929   -2.8190    0.0183
% end

% frame   17
% time 1.7000
% report aster:force
%    class  identity      posX      posY    forceX    forceY    torque
         1         1   -3.0031    0.0005   -0.2805   -0.9247   -0.5870
% end

% frame   18
% time 1.8000
% report aster:force
%    class  identity      posX      posY    forceX    forceY    torque
         1         1   -2.9983    0.0003   -0.3236   -0.7061    0.0862
% end

% frame   19
% time 1.9000
% report aster:force
%    class  identity      posX      posY    forceX    forceY    torque
         1         1   -3.0017   -0.0022    0.1021   -0.6533   -0.0554
% end

% frame   20
% time 2.0000
% report aster:force
%    class  identity      posX      posY    forceX    forceY    torque
         1         1   -3.0032   -0.0015   -0.4033   -0.6259   -0.5744
% end

% frame   21
% time 2.1000
% report aster:force
%    class  identity      posX      posY    forceX    forceY    torque
         1         1   -3.0008    0.0017   -0.3755    1.1871   -0.1037
% end

% frame   22
% time 2.2000
% report aster:force
%    class  identity      posX      posY    forceX    forceY    torque
         1         1   -2.9998   -0.0013    0.2527   -0.7919   -0.0212
% end

% frame   23
% time 2.3000
% report aster:force
%    class  identity      posX      posY    forceX    forceY    torque
         1         1   -3.0001   -0.0028   -0.0903   -1.0337   -0.2701
% end

% frame   24
% time 2.4000
% report aster:force
%    class  identity      posX      posY    forceX    forceY    torque
         1         1   -3.0017   -0.0067    0.2998   -2.4801   -0.1742
% end

% frame   25
% time 2.5000
% report aster:force
%    class  identity      posX      posY    forceX    forceY    torque
         1         1   -2.9987    0.0028   -0.5754    1.6326    0.7080
% end

% frame   26
% time 2.6000
% report aster:force
%    class  identity      posX      posY    forceX    forceY    torque
         1         1   -3.0007    0.0035   -0.3311    1.6559    0.2866
% end

% frame   27
% time 2.7000
% report aster:force
%    class  identity      posX      posY    forceX    forceY    torque
         1         1   -2.9978   -0.0037    1.1593   -0.8766   -0.0053
% end

% frame   28
% time 2.8000
% report aster:force
%    class  identity      posX      posY    forceX    forceY    torque
         1         1   -2.9987    0.0033    0.1039   -0.9042   -0.2412
% end

% frame   29
% time 2.9000
% report aster:force
%    class  identity      posX      posY    forceX    forceY    torque
         1         1   -3.0019   -0.0018   -0.9770   -2.5188   -0.5999
% end

% frame   30
% time 3.0000
% report aster:force
%    class  identity      posX      posY    forceX    forceY    torque
         1         1   -2.9963    0.0012    1.6120   -0.1425    0.3554
% end

% frame   31
% time 3.1000
% report aster:force
%    class  identity      posX      posY    forceX    forceY    torque
         1         1   -3.0008   -0.0022    0.3858   -4.0535   -0.4007
% end

% frame   32
% time 3.2000
% report aster:force
%    class  identity      posX      posY    forceX    forceY    torque
         1         1   -2.9976    0.0005    0.9328    0.3533    0.2969
% end

% frame   33
% time 3.3000
% report aster:force
%    class  identity      posX      posY    forceX    forceY    torque
         1         1   -3.0007   -0.0006   -0.4425    0.3258    0.1952
% end

% frame   34
% time 3.4000
% report aster:force
%    class  identity      posX      posY    forceX    forceY    torque
         1         1   -3.0037   -0.0011   -1.8794    0.8448    0.0749
% end

% frame   35
% time 3.5000
% report aster:force
%    class  identity      posX      posY    forceX    forceY    torque
         1         1   -2.9927   -0.0033    2.7731   -2.8379    0.4596
% end

% frame   36
% time 3.6000
% report aster:force
%    class  identity      posX      posY    forceX    forceY    torque
         1         1   -3.0004   -0.0015   -0.0242   -1.6971   -0.0509
% end

% frame   37
% time 3.7000
% report aster:force
%    class  identity      posX      posY    forceX    forceY    torque
         1         1   -3.0017    0.0008   -1.0045   -0.1068   -0.0779
% end

% frame   38
% time 3.8000
% report aster:force
%    class  identity      posX      posY    forceX    forceY    torque
         1         1   -3.0042   -0.0021   -2.0386   -2.0070   -0.7999
% end

% frame   39
% time 3.9000
% report aster:force
%    class  identity      posX      posY    forceX    forceY    torque
         1         1   -3.0015    0.0030    0.1111   -0.0782   -0.3264
% end

% frame   40
% time 4.0000
% report aster:force
%    class  identity      posX      posY    forceX    forceY    torque
         1         1   -2.9990    0.0004    0.4422    1.2547    0.1158
% end

% frame   41
% time 4.1000
% report aster:force
%    class  identity      posX      posY    forceX    forceY    torque
         1         1   -3.0007   -0.0018   -0.6039   -0.2542    0.1889
% end

% frame   42
% time 4.2000
% report aster:force
%    class  identity      posX      posY    forceX    forceY    torque
         1         1   -3.0014    0.0010   -0.5889    0.1136    0.0711
% end

% frame   43
% time 4.3000
% report aster:force
%    class  identity      posX      posY    forceX    forceY    torque
         1         1   -2.9957    0.0014    1.6325   -0.3674   -0.0061
% end

% frame   44
% time 4.4000
% report aster:force
%    class  identity      posX      posY    forceX    forceY    torque
         1         1   -3.0039    0.0043   -2.2615    2.9860    0.4649
% end

% frame   45
% time 4.5000
% report aster:force
%    class  identity      posX      posY    forceX    forceY    torque
         1         1   -2.9957    0.0007    4.6698   -0.5432   -0.4666
% end

% frame   46
% time 4.6000
% report aster:force
%    class  identity      posX      posY    forceX    forceY    torque
         1         1   -3.0002   -0.0006   -0.0527   -0.9721   -0.0343
% end

% frame   47
% time 4.7000
% report aster:force
%    class  identity      posX      posY    forceX    forceY    torque
         1         1   -3.0014   -0.0017   -0.2478   -0.2700   -0.2951
% end

% frame   48
% time 4.8000
% report aster:force
%    class  identity      posX      posY    forceX    forceY    torque
         1         1   -2.9945    0.0013    2.6534    0.8715    0.1580
% end

% frame   49
% time 4.9000
% report aster:force
%    class  identity      posX      posY    forceX    forceY    torque
         1         1   -2.9968    0.0026    0.2031    0.3227    0.2659
% end

% frame   50
% time 5.0000
% report aster:force
%    class  identity      posX      posY    forceX    forceY    torque
         1         1   -2.9965    0.0039    1.1911    4.0665    1.0290
% end

% frame   51
% time 5.1000
% report aster:force
%    class  identity      posX      posY    forceX    forceY    torque
         1         1   -3.0003   -0.0043    0.7898   -1.7360    0.4834
% end

% frame   52
% time 5.2000
% report aster:force
%    class  identity      posX      posY    forceX    forceY    torque
         1         1   -3.0003   -0.0030   -0.8400   -0.9301   -0.6784
% end

% frame   53
% time 5.3000
% report aster:force
%    class  identity      posX      posY    forceX    forceY    torque
         1         1   -3.0042    0.0001   -1.6413   -0.5944   -0.2973
% end

% frame   54
% time 5.4000
% report aster:force
%    class  identity      posX      posY    forceX    forceY    torque
         1         1   -2.9945    0.0001    3.6818    0.2280    0.0999
% end

% frame   55
% time 5.5000
% report aster:force
%    class  identity      posX      posY    forceX    forceY    torque
         1         1   -2.9997   -0.0025   -0.3710   -0.7378   -0.0220
% end

% frame   56
% time 5.6000
% report aster:force
%    class  identity      posX      posY    forceX    forceY    torque
         1         1   -2.9972    0.0017    1.4272    1.9504    0.0219
% end

% frame   57
% time 5.7000
% report aster:force
%    class  identity      posX      posY    forceX    forceY    torque
         1         1   -3.0044   -0.0045   -2.2330   -1.4092    0.1659
% end

% frame   58
% time 5.8000
% report aster:force
%    class  identity      posX      posY    forceX    forceY    torque
         1         1   -2.9959   -0.0040    1.0314   -1.9321    0.1713
% end

% frame   59
% time 5.9000
% report aster:force
%    class  identity      posX      posY    forceX    forceY    torque
         1         1   -3.0028    0.0006   -1.0533    1.0533   -0.0037
% end

% frame   60
% time 6.0000
% report aster:force
%    class  identity      posX      posY    forceX    forceY    torque
         1         1   -2.9994   -0.0043   -0.2786   -2.6174    0.0863
% end

% frame   61
% time 6.1000
% report aster:force
%    class  identity      posX      posY    forceX    forceY    torque
         1         1   -2.9969    0.0014    1.3154    0.3676   -0.1227
% end

% frame   62
% time 6.2000
% report aster:force
%    class  identity      posX      posY    forceX    forceY    torque
         1         1   -3.0008    0.0005   -0.0270   -0.8181    0.1534
% end

% frame   63
% time 6.3000
% report aster:force
%    class  identity      posX      posY    forceX    forceY    torque
         1         1   -3.0040    0.0063   -1.6279    1.8903   -0.2746
% end

% frame   64
% time 6.4000
% report aster:force
%    class  identity      posX      posY    forceX    forceY    torque
         1         1   -2.9976   -0.0028    2.0597   -2.0009    0.0159
% end

% frame   65
% time 6.5000
% report aster:force
%    class  identity      posX      posY    forceX    forceY    torque
         1         1   -3.0018    0.0008   -1.1079   -0.8330   -0.3860
% end

% frame   66
% time 6.6000
% report aster:force
%    class  identity      posX      posY    forceX    forceY    torque
         1         1   -2.9991    0.0002    0.2903    0.2031    0.0846
% end

% frame   67
% time 6.7000
% report aster:force
%    class  identity      posX      posY    forceX    forceY    torque
         1         1   -3.0046    0.0004   -1.4457   -0.2727   -0.2369
% end

% frame   68
% time 6.8000
% report aster:force
%    class  identity      posX      posY    forceX    forceY    torque
         1         1   -3.0035   -0.0037   -2.1978   -2.6674    0.0330
% end

% frame   69
% time 6.9000
% report aster:force
%    class  identity      posX      posY    forceX    forceY    torque
         1         1   -3.0017    0.0001    0.2535    1.6458   -0.2172
% end

% frame   70
% time 7.0000
% report aster:force
%    class  identity      posX      posY    forceX    forceY    torque
         1         1   -3.0002   -0.0022   -1.0155   -0.6218    0.3000
% end

% frame   71
% time 7.1000
% report aster:force
%    class  identity      posX      posY    forceX    forceY    torque
         1         1   -2.9952    0.0018    0.7574   -0.0613    0.2778
% end

% frame   72
% time 7.2000
% report aster:force
%    class  identity      posX      posY    forceX    forceY    torque
         1         1   -2.9926   -0.0041    4.9097   -1.7043   -1.0735
% end

% frame   73
% time 7.3000
% report aster:force
%    class  identity      posX      posY    forceX    forceY    torque
         1         1   -3.0005    0.0001    0.1392    1.2796    0.2365
% end

% frame   74
% time 7.4000
% report aster:force
%    class  identity      posX      posY    forceX    forceY    torque
         1         1   -2.9997    0.0019   -0.5138   -1.0468    0.1781
% end

% frame   75
% time 7.5000
% report aster:force
%    class  identity      posX      posY    forceX    forceY    torque
         1         1   -3.0014   -0.0011   -0.1845    0.9004    0.0236
% end

% frame   76
% time 7.6000
% report aster:force
%    class  identity      posX      posY    forceX    forceY    torque
         1         1   -3.0017    0.0003    0.1735   -1.0958   -0.2775
% end

% frame   77
% time 7.7000
% report aster:force
%    class  identity      posX      posY    forceX    forceY    torque
         1         1   -3.0032    0.0022   -0.8860   -0.5791   -0.1433
% end

% frame   78
% time 7.8000
% report aster:force
%    class  identity      posX      posY    forceX    forceY    torque
         1         1   -3.0029    0.0040   -2.1780    0.8256    0.0564
% end

% frame   79
% time 7.9000
% report aster:force
%    class  identity      posX      posY    forceX    forceY    torque
         1         1   -2.9943   -0.0026    3.0662   -2.1270   -0.2242
% end

% frame   80
% time 8.0000
% report aster:force
%    class  identity      posX      posY    forceX    forceY    torque
         1         1   -3.0010    0.0019   -0.9666   -0.6470   -0.0226
% end

% frame   81
% time 8.1000
% report aster:force
%    class  identity      posX      posY    forceX    forceY    torque
         1         1   -3.0004   -0.0001   -1.8690   -1.6009    0.5208
% end

% frame   82
% time 8.2000
% report aster:force
%    class  identity      posX      posY    forceX    forceY    torque
         1         1   -2.9974   -0.0032    1.4883   -2.6693    0.1604
% end

% frame   83
% time 8.3000
% report aster:force
%    class  identity      posX      posY    forceX    forceY    torque
         1         1   -2.9991    0.0028    0.4553    0.3007    0.3128
% end

% frame   84
% time 8.4000
% report aster:force
%    class  identity      posX      posY    forceX    forceY    torque
         1         1   -3.0026    0.0002   -1.9496   -0.3266   -0.1723
% end

% frame   85
% time 8.5000
% report aster:force
%    class  identity      posX      posY    forceX    forceY    torque
         1         1   -3.0008   -0.0031   -0.0699   -1.1017   -0.5203
% end

% frame   86
% time 8.6000
% report aster:force
%    class  identity      posX      posY    forceX    forceY    torque
         1         1   -2.9959   -0.0014    1.6483   -0.3039    0.2914
% end

% frame   87
% time 8.7000
% report aster:force
%    class  identity      posX      posY    forceX    forceY    torque
         1         1   -2.9996    0.0002    0.2015   -0.6205    0.0232
% end

% frame   88
% time 8.8000
% report aster:force
%    class  identity      posX      posY    forceX    forceY    torque
         1         1   -3.0010   -0.0025   -0.6217   -0.0403    0.4548
% end

% frame   89
% time 8.9000
% report aster:force
%    class  identity      posX      posY    forceX    forceY    torque
         1         1   -3.0017   -0.0024    0.0136   -1.1539    0.0385
% end

% frame   90
% time 9.0000
% report aster:force
%    class  identity      posX      posY    forceX    forceY    torque
         1         1   -3.0016   -0.0063   -0.6867   -3.8231    0.0800
% end

% frame   91
% time 9.1000
% report aster:force
%    class  identity      posX      posY    forceX    forceY    torque
         1         1   -2.9944    0.0048    5.0781    1.3076   -0.5645
% end

% frame   92
% time 9.2000
% report aster:force
%    class  identity      posX      posY    forceX    forceY    torque
         1         1   -3.0015    0.0041    1.3020    1.8793   -0.5812
% end

% frame   93
% time 9.3000
% report aster:force
%    class  identity      posX      posY    forceX    forceY    torque
         1         1   -3.0006   -0.0027    0.2056    0.9749   -0.0907
% end

% frame   94
% time 9.4000
% report aster:force
%    class  identity      posX      posY    forceX    forceY    torque
         1         1   -3.0019    0.0006   -1.4073    0.1929    0.3577
% end

% frame   95
% time 9.5000
% report aster:force
%    class  identity      posX      posY    forceX    forceY    torque
         1         1   -2.9998    0.0048    1.1742    3.3013   -0.0701
% end

% frame   96
% time 9.6000
% report aster:force
%    class  identity      posX      posY    forceX    forceY    torque
         1         1   -2.9948   -0.0013    4.1531   -1.6138    0.1035
% end

% frame   97
% time 9.7000
% report aster:force
%    class  identity      posX      posY    forceX    forceY    torque
         1         1   -2.9982   -0.0046    0.7769   -4.4747    0.3224
% end

% frame   98
% time 9.8000
% report aster:force
%    class  identity      posX      posY    forceX    forceY    torque
         1         1   -3.0023   -0.0018   -1.5366   -1.4728    0.3505
% end

% frame   99
% time 9.9000
% report aster:force
%    class  identity      posX      posY    forceX    forceY    torque
         1         1   -3.0006   -0.0004    0.8196    0.5409    0.2345
% end

% frame   100
% time 10.0000
% report aster:force
%    class  identity      posX      posY    forceX    forceY    torque
         1         1   -3.0019    0.0013   -2.5545    0.0061    0.5632
% end

% frame   101
% time 10.1000
% report aster:force
%    class  identity      posX      posY    forceX    forceY    torque
         1         1   -3.0021    0.0012   -0.0753   -0.2600   -0.3510
% end

% frame   102
% time 10.2000
% report aster:force
%    class  identity      posX      posY    forceX    forceY    torque
         1         1   -2.9999   -0.0003   -1.1128   -0.4314    0.3312
% end

% frame   103
% time 10.3000
% report aster:force
%    class  identity      posX      posY    forceX    forceY    torque
         1         1   -3.0028   -0.0007   -1.3742   -1.7411    0.4568
% end

% frame   104
% time 10.4000
% report aster:force
%    class  identity      posX      posY    forceX    forceY    torque
         1         1   -2.9996    0.0036   -0.5379    0.3773    0.3102
% end

% frame   105
% time 10.5000
% report aster:force
%    class  identity      posX      posY    forceX    forceY    torque
         1         1   -2.9996    0.0010    0.4235    1.2905   -0.0894
% end

% frame   106
% time 10.6000
% report aster:force
%    class  identity      posX      posY    forceX    forceY    torque
         1         1   -2.9957   -0.0015    2.2491   -0.4616    0.0264
% end

% frame   107
% time 10.7000
% report aster:force
%    class  identity      posX      posY    forceX    forceY    torque
         1         1   -3.0041   -0.0018   -3.0670    0.1239    0.1914
% end

% frame   108
% time 10.8000
% report aster:force
%    class  identity      posX      posY    forceX    forceY    torque
         1         1   -3.0026   -0.0069   -0.7161   -3.8488   -0.4432
% end

% frame   109
% time 10.9000
% report aster:force
%    class  identity      posX      posY    forceX    forceY    torque
         1         1   -2.9971   -0.0011    3.5264   -0.0593    0.1186
% end

% frame   110
% time 11.0000
% report aster:force
%    class  identity      posX      posY    forceX    forceY    torque
         1         1   -2.9963   -0.0021    0.7618   -2.1245    0.7575
% end

% frame   111
% time 11.1000
% report aster:force
%    class  identity      posX      posY    forceX    forceY    torque
         1         1   -3.0003    0.0008    1.0536    0.7441   -0.4303
% end

% frame   112
% time 11.2000
% report aster:force
%    class  identity      posX      posY    forceX    forceY    torque
         1         1   -3.0010   -0.0012    0.3108   -1.7789    0.0298
% end

% frame   113
% time 11.3000
% report aster:force
%    class  identity      posX      posY    forceX    forceY    torque
         1         1   -3.0010   -0.0032    0.6550   -2.9014   -0.8208
% end

% frame   114
% time 11.4000
% report aster:force
%    class  identity      posX      posY    forceX    forceY    torque
         1         1   -3.0012    0.0001   -0.4124   -0.7705    0.1339
% end

% frame   115
% time 11.5000
% report aster:force
%    class  identity      posX      posY    forceX    forceY    torque
         1         1   -3.0040   -0.0058   -2.7004   -2.0162    0.4215
% end

% frame   116
% time 11.6000
% report aster:force
%    class  identity      posX      posY    forceX    forceY    torque
         1         1   -2.9974   -0.0007    1.5514    0.2772    0.2606
% end

% frame   117
% time 11.7000
% report aster:force
%    class  identity      posX      posY    forceX    forceY    torque
         1         1   -2.9975   -0.0013    1.7730   -1.1483   -0.5911
% end

% frame   118
% time 11.8000
% report aster:force
%    class  identity      posX      posY    forceX    forceY    torque
         1         1   -2.9991    0.0044    1.7408    1.0649   -0.3116
% end

% frame   119
% time 11.9000
% report aster:force
%    class  identity      posX      posY    forceX    forceY    torque
         1         1   -3.0024    0.0003   -1.2510   -0.3488    0.4792
% end

% frame   120
% time 12.0000
% report aster:force
%    class  identity      posX      posY    forceX    forceY    torque
         1         1   -2.9963    0.0046    2.5123    1.4661   -0.2171
% end

% frame   121
% time 12.1000
% report aster:force
%    class  identity      posX      posY    forceX    forceY    torque
         1         1   -2.9959   -0.0014    2.0765   -0.5699   -0.0633
% end

% frame   122
% time 12.2000
% report aster:force
%    class  identity      posX      posY    forceX    forceY    torque
         1         1   -3.0014    0.0003    2.1258    0.4047   -0.7389
% end

% frame   123
% time 12.3000
% report aster:force
%    class  identity      posX      posY    forceX    forceY    torque
         1         1   -3.0011    0.0004   -0.2626   -0.1802    0.2299
% end

% frame   124
% time 12.4000
% report aster:force
%    class  identity      posX      posY    forceX    forceY    torque
         1         1   -3.0001    0.0011    1.8904    1.0109   -0.3750
% end

% frame   125
% time 12.5000
% report aster:force
%    class  identity      posX      posY    forceX    forceY    torque
         1         1   -2.9975   -0.0015    1.5675   -0.7884   -0.0537
% end

% frame   126
% time 12.6000
% report aster:force
%    class  identity      posX      posY    forceX    forceY    torque
         1         1   -2.9992    0.0005    0.8706    0.7481   -0.3275
% end

% frame   127
% time 12.7000
% report aster:force
%    class  identity      posX      posY    forceX    forceY    torque
         1         1   -2.9942   -0.0016    3.3063   -2.0840    0.3184
% end

% frame   128
% time 12.8000
% report aster:force
%    class  identity      posX      posY    forceX    forceY    torque
         1         1   -3.0033    0.0006   -1.6130    0.9287    0.5218
% end

% frame   129
% time 12.9000
% report aster:force
%    class  identity      posX      posY    forceX    forceY    torque
         1         1   -3.0024    0.0027    0.1153   -0.6772   -0.4256
% end

% frame   130
% time 13.0000
% report aster:force
%    class  identity      posX      posY    forceX    forceY    torque
         1         1   -2.9974   -0.0006    0.3329   -1.0495   -0.0562
% end

% frame   131
% time 13.1000
% report aster:force
%    class  identity      posX      posY    forceX    forceY    torque
         1         1   -3.0016   -0.0001   -1.7382   -1.2914    0.4693
% end

% frame   132
% time 13.2000
% report aster:force
%    class  identity      posX      posY    forceX    forceY    torque
         1         1   -2.9982    0.0038   -0.1036    0.9837    0.1559
% end

% frame   133
% time 13.3000
% report aster:force
%    class  identity      posX      posY    forceX    forceY    torque
         1         1   -2.9951    0.0030    3.4673    1.0393   -0.5716
% end

% frame   134
% time 13.4000
% report aster:force
%    class  identity      posX      posY    forceX    forceY    torque
         1         1   -2.9993   -0.0002    2.2605   -0.2262   -0.1889
% end

% frame   135
% time 13.5000
% report aster:force
%    class  identity      posX      posY    forceX    forceY    torque
         1         1   -3.0017   -0.0005   -1.3858   -0.0795    0.0690
% end

% frame   136
% time 13.6000
% report aster:force
%    class  identity      posX      posY    forceX    forceY    torque
         1         1   -2.9982   -0.0029    1.1713   -1.7864    0.2226
% end

% frame   137
% time 13.7000
% report aster:force
%    class  identity      posX      posY    forceX    forceY    torque
         1         1   -2.9990    0.0028    0.7850    1.7678   -0.4003
% end

% frame   138
% time 13.8000
% report aster:force
%    class  identity      posX      posY    forceX    forceY    torque
         1         1   -3.0007    0.0035   -0.0413    1.9122    0.0259
% end

% frame   139
% time 13.9000
% report aster:force
%    class  identity      posX      posY    forceX    forceY    torque
         1         1   -2.9999   -0.0036   -0.5587   -1.8985   -0.0691
% end

% frame   140
% time 14.0000
% report aster:force
%    class  identity      posX      posY    forceX    forceY    torque
         1         1   -2.9949   -0.0012    2.3406   -0.7971    0.2390
% end

% frame   141
% time 14.1000
% report aster:force
%    class  identity      posX      posY    forceX    forceY    torque
         1         1   -2.9935   -0.0001    4.9834   -0.8193   -0.3934
% end

% frame   142
% time 14.2000
% report aster:force
%    class  identity      posX      posY    forceX    forceY    torque
         1         1   -2.9964   -0.0018    1.6149   -1.6180   -0.2910
% end

% frame   143
% time 14.3000
% report aster:force
%    class  identity      posX      posY    forceX    forceY    torque
         1         1   -3.0029    0.0003   -0.4124   -1.5806   -0.2155
% end

% frame   144
% time 14.4000
% report aster:force
%    class  identity      posX      posY    forceX    forceY    torque
         1         1   -2.9999    0.0025   -0.0968    1.5339    0.1548
% end

% frame   145
% time 14.5000
% report aster:force
%    class  identity      posX      posY    forceX    forceY    torque
         1         1   -2.9967    0.0001    2.1751   -0.3903   -0.3255
% end

% frame   146
% time 14.6000
% report aster:force
%    class  identity      posX      posY    forceX    forceY    torque
         1         1   -2.9919    0.0003    5.3362    0.5901    0.0429
% end

% frame   147
% time 14.7000
% report aster:force
%    class  identity      posX      posY    forceX    forceY    torque
         1         1   -2.9998   -0.0006   -0.0541   -1.0172   -0.1214
% end

% frame   148
% time 14.8000
% report aster:force
%    class  identity      posX      posY    forceX    forceY    torque
         1         1   -2.9999   -0.0020    1.0891   -2.2669   -0.1466
% end

% frame   149
% time 14.9000
% report aster:force
%    class  identity      posX      posY    forceX    forceY    torque
         1         1   -2.9994    0.0009    0.6116    0.4526   -0.1133
% end

% frame   150
% time 15.0000
% report aster:force
%    class  identity      posX      posY    forceX    forceY    torque
         1         1   -2.9970   -0.0018    1.1492   -1.1951   -0.1659
% end

% frame   151
% time 15.1000
% report aster:force
%    class  identity      posX      posY    forceX    forceY    torque
         1         1   -2.9991    0.0002    0.3879    0.8238   -0.2144
% end

% frame   152
% time 15.2000
% report aster:force
%    class  identity      posX      posY    forceX    forceY    torque
         1         1   -3.0006    0.0017    1.3101   -1.0477   -0.7525
% end

% frame   153
% time 15.3000
% report aster:force
%    class  identity      posX      posY    forceX    forceY    torque
         1         1   -2.9976   -0.0016    1.8583   -1.5056   -0.1974
% end

% frame   154
% time 15.4000
% report aster:force
%    class  identity      posX      posY    forceX    forceY    torque
         1         1   -2.9993    0.0000    2.0035   -1.2449   -0.4495
% end

% frame   155
% time 15.5000
% report aster:force
%    class  identity      posX      posY    forceX    forceY    torque
         1         1   -2.9955    0.0011    2.0246   -0.4267   -0.1481
% end

% frame   156
% time 15.6000
% report aster:force
%    class  identity      posX      posY    forceX    forceY    torque
         1         1   -2.9989    0.0007    1.4464   -1.4863   -0.2218
% end

% frame   157
% time 15.7000
% report aster:force
%    class  identity      posX      posY    forceX    forceY    torque
         1         1   -3.0045    0.0026   -0.9387    0.6168   -0.4817
% end

% frame   158
% time 15.8000
% report aster:force
%    class  identity      posX      posY    forceX    forceY    torque
         1         1   -2.9970   -0.0050    0.9077   -2.9251    1.0090
% end

% frame   159
% time 15.9000
% report aster:force
%    class  identity      posX      posY    forceX    forceY    torque
         1         1   -3.0019    0.0015    0.8118    0.7337   -0.5877
% end

% frame   160
% time 16.0000
% report aster:force
%    class  identity      posX      posY    forceX    forceY    torque
         1         1   -3.0046    0.0022   -0.8429    0.2369   -0.3819
% end

% frame   161
% time 16.1000
% report aster:force
%    class  identity      posX      posY    forceX    forceY    torque
         1         1   -2.9992    0.0044    0.6074    1.3655   -0.3908
% end

% frame   162
% time 16.2000
% report aster:force
%    class  identity      posX      posY    forceX    forceY    torque
         1         1   -3.0012    0.0046    0.1565    1.1152   -0.3473
% end

% frame   163
% time 16.3000
% report aster:force
%    class  identity      posX      posY    forceX    forceY    torque
         1         1   -2.9981    0.0020    0.2882    1.5102   -0.1432
% end

% frame   164
% time 16.4000
% report aster:force
%    class  identity      posX      posY    forceX    forceY    torque
         1         1   -2.9952    0.0026    0.6269    2.0782    0.0800
% end

% frame   165
% time 16.5000
% report aster:force
%    class  identity      posX      posY    forceX    forceY    torque
         1         1   -3.0026   -0.0018   -0.5772   -1.0314   -0.3065
% end

% frame   166
% time 16.6000
% report aster:force
%    class  identity      posX      posY    forceX    forceY    torque
         1         1   -2.9968    0.0040    1.8257    1.6346    0.1959
% end

% frame   167
% time 16.7000
% report aster:force
%    class  identity      posX      posY    forceX    forceY    torque
         1         1   -2.9990    0.0012    1.0012    0.0235   -0.1954
% end

% frame   168
% time 16.8000
% report aster:force
%    class  identity      posX      posY    forceX    forceY    torque
         1         1   -3.0039   -0.0025   -2.0966   -1.7645    0.1590
% end

% frame   169
% time 16.9000
% report aster:force
%    class  identity      posX      posY    forceX    forceY    torque
         1         1   -2.9974   -0.0017    1.2903   -1.0131    0.5044
% end

% frame   170
% time 17.0000
% report aster:force
%    class  identity      posX      posY    forceX    forceY    torque
         1         1   -3.0002    0.0014    0.0951    0.6931   -0.0342
% end

% frame   171
% time 17.1000
% report aster:force
%    class  identity      posX      posY    forceX    forceY    torque
         1         1   -3.0038   -0.0024   -1.6844   -0.2478    0.3101
% end

% frame   172
% time 17.2000
% report aster:force
%    class  identity      posX      posY    forceX    forceY    torque
         1         1   -3.0041    0.0018   -1.2680    0.7950    0.3078
% end

% frame   173
% time 17.3000
% report aster:force
%    class  identity      posX      posY    forceX    forceY    torque
         1         1   -3.0029    0.0001   -0.4252   -0.5051   -0.4834
% end

% frame   174
% time 17.4000
% report aster:force
%    class  identity      posX      posY    forceX    forceY    torque
         1         1   -2.9942    0.0025    3.6508    1.1243   -0.0430
% end

% frame   175
% time 17.5000
% report aster:force
%    class  identity      posX      posY    forceX    forceY    torque
         1         1   -3.0002    0.0016   -0.9900    1.7020    0.1384
% end

% frame   176
% time 17.6000
% report aster:force
%    class  identity      posX      posY    forceX    forceY    torque
         1         1   -2.9952    0.0025    2.1779    0.4018   -0.4002
% end

% frame   177
% time 17.7000
% report aster:force
%    class  identity      posX      posY    forceX    forceY    torque
         1         1   -2.9979    0.0005    2.2428   -0.4157   -0.2011
% end

% frame   178
% time 17.8000
% report aster:force
%    class  identity      posX      posY    forceX    forceY    torque
         1         1   -2.9955   -0.0053    1.2135   -3.7278    0.3031
% end

% frame   179
% time 17.9000
% report aster:force
%    class  identity      posX      posY    forceX    forceY    torque
         1         1   -2.9974   -0.0016    1.4962   -1.2009    0.0442
% end

% frame   180
% time 18.0000
% report aster:force
%    class  identity      posX      posY    forceX    forceY    torque
         1         1   -3.0032    0.0017   -1.6402    0.3546   -0.1648
% end

% frame   181
% time 18.1000
% report aster:force
%    class  identity      posX      posY    forceX    forceY    torque
         1         1   -2.9977   -0.0014    1.3818   -1.5294    0.6545
% end

% frame   182
% time 18.2000
% report aster:force
%    class  identity      posX      posY    forceX    forceY    torque
         1         1   -2.9987   -0.0057   -0.2861   -1.8426    0.4469
% end

% frame   183
% time 18.3000
% report aster:force
%    class  identity      posX      posY    forceX    forceY    torque
         1         1   -2.9997    0.0012    0.0399    0.7814    0.3458
% end

% frame   184
% time 18.4000
% report aster:force
%    class  identity      posX      posY    forceX    forceY    torque
         1         1   -2.9998   -0.0039    1.3780   -2.6915   -0.2818
% end

% frame   185
% time 18.5000
% report aster:force
%    class  identity      posX      posY    forceX    forceY    torque
         1         1   -3.0012   -0.0014    0.9255   -2.4745   -0.5612
% end

% frame   186
% time 18.6000
% report aster:force
%    class  identity      posX      posY    forceX    forceY    torque
         1         1   -2.9967    0.0007    0.4987    1.0209    0.1247
% end

% frame   187
% time 18.7000
% report aster:force
%    class  identity      posX      posY    forceX    forceY    torque
         1         1   -2.9925   -0.0028    4.0902   -1.4538   -0.1336
% end

% frame   188
% time 18.8000
% report aster:force
%    class  identity      posX      posY    forceX    forceY    torque
         1         1   -2.9976   -0.0020    0.9452   -2.0618    0.6459
% end

% frame   189
% time 18.9000
% report aster:force
%    class  identity      posX      posY    forceX    forceY    torque
         1         1   -2.9978   -0.0006    1.7102   -0.2917    0.4478
% end

% frame   190
% time 19.0000
% report aster:force
%    class  identity      posX      posY    forceX    forceY    torque
         1         1   -2.9968   -0.0074    1.5759   -5.1387    0.1553
% end

% frame   191
% time 19.1000
% report aster:force
%    class  identity      posX      posY    forceX    forceY    torque
         1         1   -2.9958   -0.0005    1.9347   -0.1627    0.3057
% end

% frame   192
% time 19.2000
% report aster:force
%    class  identity      posX      posY    forceX    forceY    torque
         1         1   -3.0006   -0.0006   -0.8968    0.1475   -0.3262
% end

% frame   193
% time 19.3000
% report aster:force
%    class  identity      posX      posY    forceX    forceY    torque
         1         1   -2.9956    0.0004    1.8754   -1.0963   -0.3258
% end

% frame   194
% time 19.4000
% report aster:force
%    class  identity      posX      posY    forceX    forceY    torque
         1         1   -2.9981   -0.0020    1.0488   -1.8707    0.0179
% end

% frame   195
% time 19.5000
% report aster:force
%    class  identity      posX      posY    forceX    forceY    torque
         1         1   -2.9944   -0.0080    1.0160   -2.6823    0.2383
% end

% frame   196
% time 19.6000
% report aster:force
%    class  identity      posX      posY    forceX    forceY    torque
         1         1   -2.9965   -0.0030    3.5216   -1.6355    0.0163
% end

% frame   197
% time 19.7000
% report aster:force
%    class  identity      posX      posY    forceX    forceY    torque
         1         1   -2.9943   -0.0050    3.5687   -2.5516    0.2458
% end

% frame   198
% time 19.8000
% report aster:force
%    class  identity      posX      posY    forceX    forceY    torque
         1         1   -2.9987   -0.0010    0.3550    0.6410    0.3738
% end

% frame   199
% time 19.9000
% report aster:force
%    class  identity      posX      posY    forceX    forceY    torque
         1         1   -2.9950   -0.0065    3.5687   -3.0343   -0.2651
% end

% frame   200
% time 20.0000
% report aster:force
%    class  identity      posX      posY    forceX    forceY    torque
         1         1   -2.9965    0.0030    2.2068    0.9866   -0.3202
% end

% frame   201
% time 20.1000
% report aster:force
%    class  identity      posX      posY    forceX    forceY    torque
         1         1   -3.0003    0.0005   -0.0239    0.0212   -0.4057
% end

% frame   202
% time 20.2000
% report aster:force
%    class  identity      posX      posY    forceX    forceY    torque
         1         1   -2.9979   -0.0018    0.7174   -2.3102    0.3642
% end

% frame   203
% time 20.3000
% report aster:force
%    class  identity      posX      posY    forceX    forceY    torque
         1         1   -2.9910   -0.0010    3.7382   -2.0851    0.4702
% end

% frame   204
% time 20.4000
% report aster:force
%    class  identity      posX      posY    forceX    forceY    torque
         1         1   -2.9993   -0.0015    0.5537   -1.1542   -0.0462
% end

% frame   205
% time 20.5000
% report aster:force
%    class  identity      posX      posY    forceX    forceY    torque
         1         1   -2.9940   -0.0022    3.2112   -0.8508    0.6390
% end

% frame   206
% time 20.6000
% report aster:force
%    class  identity      posX      posY    forceX    forceY    torque
         1         1   -2.9942   -0.0047    3.0914   -1.6279   -0.5354
% end

% frame   207
% time 20.7000
% report aster:force
%    class  identity      posX      posY    forceX    forceY    torque
         1         1   -2.9959    0.0020    2.5776    1.2811    0.1303
% end

% frame   208
% time 20.8000
% report aster:force
%    class  identity      posX      posY    forceX    forceY    torque
         1         1   -2.9938   -0.0116    1.6237   -4.9668   -0.1681
% end

% frame   209
% time 20.9000
% report aster:force
%    class  identity      posX      posY    forceX    forceY    torque
         1         1   -2.9956   -0.0014    3.1487   -0.7593   -0.5742
% end

% frame   210
% time 21.0000
% report aster:force
%    class  identity      posX      posY    forceX    forceY    torque
         1         1   -2.9990    0.0016    2.2881    0.7232   -0.3927
% end

% frame   211
% time 21.1000
% report aster:force
%    class  identity      posX      posY    forceX    forceY    torque
         1         1   -2.9995   -0.0055   -0.2557   -3.2596   -0.1905
% end

% frame   212
% time 21.2000
% report aster:force
%    class  identity      posX      posY    forceX    forceY    torque
         1         1   -2.9917   -0.0038    4.4894   -2.1762    0.1868
% end

% frame   213
% time 21.3000
% report aster:force
%    class  identity      posX      posY    forceX    forceY    torque
         1         1   -2.9973   -0.0025    2.0485   -1.5152    0.2017
% end

% frame   214
% time 21.4000
% report aster:force
%    class  identity      posX      posY    forceX    forceY    torque
         1         1   -3.0000   -0.0067   -0.6544   -3.8451   -0.1575
% end

% frame   215
% time 21.5000
% report aster:force
%    class  identity      posX      posY    forceX    forceY    torque
         1         1   -2.9966   -0.0023    2.9587   -1.0762   -0.1411
% end

% frame   216
% time 21.6000
% report aster:force
%    class  identity      posX      posY    forceX    forceY    torque
         1         1   -2.9998   -0.0049    1.6476   -2.0094   -0.5757
% end

% frame   217
% time 21.7000
% report aster:force
%    class  identity      posX      posY    forceX    forceY    torque
         1         1   -2.9992    0.0003    1.1774   -0.4360    0.1662
% end

% frame   218
% time 21.8000
% report aster:force
%    class  identity      posX      posY    forceX    forceY    torque
         1         1   -2.9957    0.0003    2.7586   -0.3597   -0.4661
% end

% frame   219
% time 21.9000
% report aster:force
%    class  identity      posX      posY    forceX    forceY    torque
         1         1   -3.0009   -0.0019    1.1714   -2.1957   -0.0821
% end

% frame   220
% time 22.0000
% report aster:force
%    class  identity      posX      posY    forceX    forceY    torque
         1         1   -2.9934   -0.0004    3.3961    1.3311   -0.1112
% end

% frame   221
% time 22.1000
% report aster:force
%    class  identity      posX      posY    forceX    forceY    torque
         1         1   -2.9976   -0.0014    1.8240   -1.0992   -0.2597
% end

% frame   222
% time 22.2000
% report aster:force
%    class  identity      posX      posY    forceX    forceY    torque
         1         1   -2.9941   -0.0016    3.0386    0.3254   -0.2233
% end

% frame   223
% time 22.3000
% report aster:force
%    class  identity      posX      posY    forceX    forceY    torque
         1         1   -3.0027   -0.0014    0.1698   -2.2649   -0.2846
% end

% frame   224
% time 22.4000
% report aster:force
%    class  identity      posX      posY    forceX    forceY    torque
         1         1   -2.9956   -0.0007    2.0394    0.0332    0.1497
% end

% frame   225
% time 22.5000
% report aster:force
%    class  identity      posX      posY    forceX    forceY    torque
         1         1   -3.0011   -0.0042   -0.5449   -2.4543    0.4858
% end

% frame   226
% time 22.6000
% report aster:force
%    class  identity      posX      posY    forceX    forceY    torque
         1         1   -2.9943   -0.0034    3.8475   -1.1816    0.1004
% end

% frame   227
% time 22.7000
% report aster:force
%    class  identity      posX      posY    forceX    forceY    torque
         1         1   -2.9984   -0.0065   -0.9074   -1.5989    0.3559
% end

% frame   228
% time 22.8000
% report aster:force
%    class  identity      posX      posY    forceX    forceY    torque
         1         1   -2.9980   -0.0030    1.8814   -3.3682   -0.5343
% end

% frame   229
% time 22.9000
% report aster:force
%    class  identity      posX      posY    forceX    forceY    torque
         1         1   -3.0006   -0.0026   -0.3782   -1.4962    0.0056
% end

% frame   230
% time 23.0000
% report aster:force
%    class  identity      posX      posY    forceX    forceY    torque
         1         1   -2.9998    0.0005    0.2810    1.2401   -0.2921
% end

% frame   231
% time 23.1000
% report aster:force
%    class  identity      posX      posY    forceX    forceY    torque
         1         1   -3.0011    0.0037    0.6756    0.8424   -0.2058
% end

% frame   232
% time 23.2000
% report aster:force
%    class  identity      posX      posY    forceX    forceY    torque
         1         1   -2.9986   -0.0001    0.9457   -0.0999   -0.5703
% end

% frame   233
% time 23.3000
% report aster:force
%    class  identity      posX      posY    forceX    forceY    torque
         1         1   -2.9996   -0.0070    0.3844   -2.3867    0.2407
% end

% frame   234
% time 23.4000
% report aster:force
%    class  identity      posX      posY    forceX    forceY    torque
         1         1   -2.9922   -0.0005    2.8433   -0.6473   -0.3792
% end

% frame   235
% time 23.5000
% report aster:force
%    class  identity      posX      posY    forceX    forceY    torque
         1         1   -2.9961   -0.0027    2.9543    0.5651   -0.3382
% end

% frame   236
% time 23.6000
% report aster:force
%    class  identity      posX      posY    forceX    forceY    torque
         1         1   -2.9931    0.0006    3.9888    0.4689   -0.1990
% end

% frame   237
% time 23.7000
% report aster:force
%    class  identity      posX      posY    forceX    forceY    torque
         1         1   -2.9983   -0.0008    0.6989   -0.1343    0.5871
% end

% frame   238
% time 23.8000
% report aster:force
%    class  identity      posX      posY    forceX    forceY    torque
         1         1   -2.9933   -0.0014    4.2089    0.7947    0.2047
% end

% frame   239
% time 23.9000
% report aster:force
%    class  identity      posX      posY    forceX    forceY    torque
         1         1   -2.9927   -0.0009    3.1958   -1.2011    0.0761
% end

% frame   240
% time 24.0000
% report aster:force
%    class  identity      posX      posY    forceX    forceY    torque
         1         1   -2.9956   -0.0055    2.0116   -3.9544    0.0638
% end

% frame   241
% time 24.1000
% report aster:force
%    class  identity      posX      posY    forceX    forceY    torque
         1         1   -2.9927   -0.0039    3.0971   -0.6024    0.2330
% end

% frame   242
% time 24.2000
% report aster:force
%    class  identity      posX      posY    forceX    forceY    torque
         1         1   -2.9957    0.0007    2.5851    1.0102   -0.2024
% end

% frame   243
% time 24.3000
% report aster:force
%    class  identity      posX      posY    forceX    forceY    torque
         1         1   -3.0006   -0.0016    1.0700   -0.8104   -0.3216
% end

% frame   244
% time 24.4000
% report aster:force
%    class  identity      posX      posY    forceX    forceY    torque
         1         1   -2.9970   -0.0047    0.8154   -2.5892    0.7525
% end

% frame   245
% time 24.5000
% report aster:force
%    class  identity      posX      posY    forceX    forceY    torque
         1         1   -3.0011   -0.0068   -0.8576   -3.7176    0.2303
% end

% frame   246
% time 24.6000
% report aster:force
%    class  identity      posX      posY    forceX    forceY    torque
         1         1   -2.9988   -0.0030    1.2496   -1.0454    0.1711
% end

% frame   247
% time 24.7000
% report aster:force
%    class  identity      posX      posY    forceX    forceY    torque
         1         1   -2.9999   -0.0011   -0.1443   -0.7947    0.0101
% end

% frame   248
% time 24.8000
% report aster:force
%    class  identity      posX      posY    forceX    forceY    torque
         1         1   -2.9997   -0.0022    1.3845   -1.6835   -0.4369
% end

% frame   249
% time 24.9000
% report aster:force
%    class  identity      posX      posY    forceX    forceY    torque
         1         1   -2.9993    0.0014   -0.4911    0.1482    0.1992
% end

% frame   250
% time 25.0000
% report aster:force
%    class  identity      posX      posY    forceX    forceY    torque
         1         1   -3.0011   -0.0054   -0.3890   -3.4008   -0.1261
% end

% frame   251
% time 25.1000
% report aster:force
%    class  identity      posX      posY    forceX    forceY    torque
         1         1   -3.0002   -0.0000    0.7398    0.3244    0.2081
% end

% frame   252
% time 25.2000
% report aster:force
%    class  identity      posX      posY    forceX    forceY    torque
         1         1   -2.9953   -0.0036    1.9841   -1.4490    0.3417
% end

% frame   253
% time 25.3000
% report aster:force
%    class  identity      posX      posY    forceX    forceY    torque
         1         1   -3.0027    0.0014   -0.6343    0.7129   -0.0187
% end

% frame   254
% time 25.4000
% report aster:force
%    class  identity      posX      posY    forceX    forceY    torque
         1         1   -3.0014   -0.0021   -1.1899   -2.0176   -0.1787
% end

% frame   255
% time 25.5000
% report aster:force
%    class  identity      posX      posY    forceX    forceY    torque
         1         1   -3.0032    0.0001   -1.3767    0.2509   -0.1976
% end

% frame   256
% time 25.6000
% report aster:force
%    class  identity      posX      posY    forceX    forceY    torque
         1         1   -2.9977    0.0005    1.3607    0.7787    0.3285
% end

% frame   257
% time 25.7000
% report aster:force
%    class  identity      posX      posY    forceX    forceY    torque
         1         1   -3.0005    0.0014   -0.1786   -0.2409   -0.5282
% end

% frame   258
% time 25.8000
% report aster:force
%    class  identity      posX      posY    forceX    forceY    torque
         1         1   -3.0032   -0.0025   -3.3170   -0.5497    0.2446
% end

% frame   259
% time 25.9000
% report aster:force
%    class  identity      posX      posY    forceX    forceY    torque
         1         1   -2.9975    0.0022    1.5938    3.8760    0.0357
% end

% frame   260
% time 26.0000
% report aster:force
%    class  identity      posX      posY    forceX    forceY    torque
         1         1   -3.0046    0.0052   -1.9384    1.8613    0.4283
% end

% frame   261
% time 26.1000
% report aster:force
%    class  identity      posX      posY    forceX    forceY    torque
         1         1   -3.0033    0.0013   -2.2485   -0.6534    0.0524
% end

% frame   262
% time 26.2000
% report aster:force
%    class  identity      posX      posY    forceX    forceY    torque
         1         1   -2.9973    0.0019    1.7463   -1.3535    0.5164
% end

% frame   263
% time 26.3000
% report aster:force
%    class  identity      posX      posY    forceX    forceY    torque
         1         1   -3.0022    0.0011    0.0032    1.4979    0.3251
% end

% frame   264
% time 26.4000
% report aster:force
%    class  identity      posX      posY    forceX    forceY    torque
         1         1   -2.9981   -0.0017   -0.0548    0.1095    0.1024
% end

% frame   265
% time 26.5000
% report aster:force
%    class  identity      posX      posY    forceX    forceY    torque
         1         1   -2.9975   -0.0007    2.3069   -0.3465   -0.3046
% end

% frame   266
% time 26.6000
% report aster:force
%    class  identity      posX      posY    forceX    forceY    torque
         1         1   -2.9973    0.0021    0.1714    1.8039   -0.0909
% end

% frame   267
% time 26.7000
% report aster:force
%    class  identity      posX      posY    forceX    forceY    torque
         1         1   -2.9986    0.0019   -0.2035   -0.0300    0.3921
% end

% frame   268
% time 26.8000
% report aster:force
%    class  identity      posX      posY    forceX    forceY    torque
         1         1   -2.9970    0.0011    2.6949    0.3510   -0.2673
% end

% frame   269
% time 26.9000
% report aster:force
%    class  identity      posX      posY    forceX    forceY    torque
         1         1   -2.9993   -0.0022    1.1356   -3.1819    0.2265
% end

% frame   270
% time 27.0000
% report aster:force
%    class  identity      posX      posY    forceX    forceY    torque
         1         1   -2.9990    0.0009   -0.0430    0.0298   -0.5235
% end

% frame   271
% time 27.1000
% report aster:force
%    class  identity      posX      posY    forceX    forceY    torque
         1         1   -2.9957   -0.0019    1.9449   -0.0236   -0.0405
% end

% frame   272
% time 27.2000
% report aster:force
%    class  identity      posX      posY    forceX    forceY    torque
         1         1   -2.9902    0.0048    4.2266    2.2275    0.1021
% end

% frame   273
% time 27.3000
% report aster:force
%    class  identity      posX      posY    forceX    forceY    torque
         1         1   -2.9935   -0.0023    3.6133   -0.6884    0.1671
% end

% frame   274
% time 27.4000
% report aster:force
%    class  identity      posX      posY    forceX    forceY    torque
         1         1   -2.9921   -0.0018    3.6849   -2.2926    0.2309
% end

% frame   275
% time 27.5000
% report aster:force
%    class  identity      posX      posY    forceX    forceY    torque
         1         1   -2.9969    0.0031    1.2507    0.5041    0.4723
% end

% frame   276
% time 27.6000
% report aster:force
%    class  identity      posX      posY    forceX    forceY    torque
         1         1   -2.9920   -0.0041    5.0621   -1.8724   -0.3130
% end

% frame   277
% time 27.7000
% report aster:force
%    class  identity      posX      posY    forceX    forceY    torque
         1         1   -2.9993   -0.0023   -1.6638   -0.9258    0.3410
% end

% frame   278
% time 27.8000
% report aster:force
%    class  identity      posX      posY    forceX    forceY    torque
         1         1   -2.9942    0.0016    3.4704   -0.6622   -0.5882
% end

% frame   279
% time 27.9000
% report aster:force
%    class  identity      posX      posY    forceX    forceY    torque
         1         1   -2.9917    0.0013    4.2808    0.4213    0.2081
% end

% frame   280
% time 28.0000
% report aster:force
%    class  identity      posX      posY    forceX    forceY    torque
         1         1   -2.9912   -0.0037    4.2200   -2.7045   -0.5527
% end

% frame   281
% time 28.1000
% report aster:force
%    class  identity      posX      posY    forceX    forceY    torque
         1         1   -2.9943   -0.0013    3.4430    1.3951    0.0472
% end

% frame   282
% time 28.2000
% report aster:force
%    class  identity      posX      posY    forceX    forceY    torque
         1         1   -2.9931    0.0011    3.8742    0.4316   -0.2213
% end

% frame   283
% time 28.3000
% report aster:force
%    class  identity      posX      posY    forceX    forceY    torque
         1         1   -2.9929   -0.0009    2.7422   -0.8482    0.0187
% end

% frame   284
% time 28.4000
% report aster:force
%    class  identity      posX      posY    forceX    forceY    torque
         1         1   -2.9935    0.0021    3.7556    2.9839   -0.2849
% end

% frame   285
% time 28.5000
% report aster:force
%    class  identity      posX      posY    forceX    forceY    torque
         1         1   -2.9901   -0.0001    4.2401   -1.3707    0.7597
% end

% frame   286
% time 28.6000
% report aster:force
%    class  identity      posX      posY    forceX    forceY    torque
         1         1   -2.9932    0.0036    2.6753    1.6044    0.1777
% end

% frame   287
% time 28.7000
% report aster:force
%    class  identity      posX      posY    forceX    forceY    torque
         1         1   -2.9956   -0.0031    3.0089   -2.5192   -0.0952
% end

% frame   288
% time 28.8000
% report aster:force
%    class  identity      posX      posY    forceX    forceY    torque
         1         1   -2.9967    0.0031    2.5943    1.1844   -0.0189
% end

% frame   289
% time 28.9000
% report aster:force
%    class  identity      posX      posY    forceX    forceY    torque
         1         1   -2.9998   -0.0052    0.6360   -2.7624    0.6231
% end

% frame   290
% time 29.0000
% report aster:force
%    class  identity      posX      posY    forceX    forceY    torque
         1         1   -2.9942   -0.0044    2.9998   -2.0693   -0.0846
% end

% frame   291
% time 29.1000
% report aster:force
%    class  identity      posX      posY    forceX    forceY    torque
         1         1   -2.9983   -0.0053    2.4758   -3.8930   -0.5489
% end

% frame   292
% time 29.2000
% report aster:force
%    class  identity      posX      posY    forceX    forceY    torque
         1         1   -2.9983   -0.0065    1.7750   -2.8980   -0.0780
% end

% frame   293
% time 29.3000
% report aster:force
%    class  identity      posX      posY    forceX    forceY    torque
         1         1   -2.9977    0.0066    0.7583    4.6918   -0.1638
% end

% frame   294
% time 29.4000
% report aster:force
%    class  identity      posX      posY    forceX    forceY    torque
         1         1   -2.9941   -0.0047    5.0548   -1.1270   -0.3224
% end

% frame   295
% time 29.5000
% report aster:force
%    class  identity      posX      posY    forceX    forceY    torque
         1         1   -2.9971    0.0014    1.7988   -0.4164   -0.3056
% end

% frame   296
% time 29.6000
% report aster:force
%    class  identity      posX      posY    forceX    forceY    torque
         1         1   -2.9942   -0.0007    0.5242   -0.0164    0.2681
% end

% frame   297
% time 29.7000
% report aster:force
%    class  identity      posX      posY    forceX    forceY    torque
         1         1   -2.9967   -0.0009    0.7256   -1.0398    0.0943
% end

% frame   298
% time 29.8000
% report aster:force
%    class  identity      posX      posY    forceX    forceY    torque
         1         1   -3.0018    0.0001   -1.8827   -0.1936   -0.0247
% end

% frame   299
% time 29.9000
% report aster:force
%    class  identity      posX      posY    forceX    forceY    torque
         1         1   -2.9975    0.0017    1.0132   -1.0959   -0.1216
% end

% frame   300
% time 30.0000
% report aster:force
%    class  identity      posX      posY    forceX    forceY    torque
         1         1   -3.0015    0.0008   -1.0060    1.6302   -0.1790
% end
